{
  "channel": "MFE",
  "highPriorityOrderType": "Swap Usage",
  "isProvisionRequired": true,
  "notificationContact": "abc@cattelecom.com",
  "notificationType": "Both",
  "orderCompletedDate": "",
  "orderId": "",
  "orderItem": [
    {
      "orderType": "Adjustment",
      "orderExecutionDate": "2019-05-15",
      "orderExecutionType": "Now",
      "freeVoiceMinutes": "100",
      "freeDataMegaBytes": "500",
      "swapUsageFlag": 1
    }
  ],
  "orderModifiedDate": "",
  "orderSubmittedDate": "2019-04-29T00:00",
  "rerunRevisionNumber": "",
  "responseCode": "",
  "responseMessage": "",
  "saleInfo": {
    "saleEmpId": "",
    "sapCode": "",
    "dealerCode": "CAT",
    "verifyIdentity": "TRUE",
    "registerBySellerName": "CAT_MNP",
    "saleRole": ""
  },
  "writtenLanguage": "01",
  "subscriberInfo": {
    "serviceType": "1",
    "reserveFlag": false,
    "simInfo": [
      {
        "simType": "Primary",
        "iccid": "123456789123456789",
        "imsi": "262011234567"
      }
    ],
    "subscriberKey": "1234",
    "subscriberNumber": "87687587687",
    "msisdn": "+66-02-6789065",
    "preProFlag": false
  }
}