{
    "orderResult": {
        "orderId": "MFE20190823010000009",
        "orderItemId": 2,
        "returnCode": 0,
        "returnMessage": "SCG subscribeProduct : Success on 2019-08-24 01:13:14"
    },
    "HPESARequestTime": "2019-08-23 16:59:30 948 +0700",
    "HPESAResponseTime": "2019-08-23 16:59:41 731 +0700"
}