{
    "orderResult": {
        "orderId": "MFE20190823010000003",
        "orderItemId": 2,
        "returnCode": 0,
        "returnMessage": "SCG subscribeProduct : Success on 2019-08-23 19:38:55"
    },
    "HPESARequestTime": "2019-08-23 11:25:12 508 +0700",
    "HPESAResponseTime": "2019-08-23 11:25:23 402 +0700"
}