{
    "orderResult": {
        "orderId": "MFE20190925130000003",
        "orderItemId": 1,
        "returnCode": 20000005,
        "returnMessage": "Error java.lang.Exception: OCS recharge : Service information verification error: The voucher has been used.\tat com.png.FlowUtil.request(FlowUtil.java:3631)\tat com.png.WorkerChild.ChildWork(WorkerChild.java:355)\tat com.png.WorkerChild.process(WorkerChild.java:433)\tat com.png.WorkerChild.run(WorkerChild.java:482) on 2019-09-26 02:54:17"
    }
}