{
    "requestHeader": {
        "version": "1",
        "messageSeq": "MFE20190904414000001",
        "ownershipInfo": {
            "beid": "20101"
        },
        "accessSecurity": {
            "loginSystemCode": "OMTest1",
            "password": "bAndWbh/0pzVxhCWaUb6Wz33b/HfLK2NcnMu+46HeHU=",
            "remoteIP": "10.36.1.48"
        },
        "operatorInfo": {
            "operatorID": "101",
            "channelID": "1"
        }
    },
    "orderRequest": {
        "orderId": "MFE20190904414000001",
        "revision": 1,
        "startOrderItemId": 1,
        "orderCallType": "S",
        "orderItem": [
            {
                "orderItemId": 1,
                "orderItemType": "AddGroupMember"
            }
        ]
    },
    "delGroupMemberRequest": {
        "effectiveTime": {
            "mode": "I"
        },
        "groupMember": {
            "primaryIdentity": "864201374"
        },
        "subGroupAccessCode": {
            "subGroupKey": "19083012040001"
        }
    }
}