{
    "orderResult": {
        "orderId": "MFE20190801030000010",
        "orderItemId": 1,
        "returnCode": 0,
        "returnMessage": "OCS changeSubStatus : Operation successfully. on 2019-08-08 01:47:40"
    }
}