{
    "requestHeader": {
        "version": "1",
        "businessCode": "CreateSubscriber",
        "messageSeq": "MFE20190823010000008",
        "ownershipInfo": {
            "beid": "20101"
        },
        "accessSecurity": {
            "loginSystemCode": "OMTest1",
            "password": "bAndWbh/0pzVxhCWaUb6Wz33b/HfLK2NcnMu+46HeHU=",
            "remoteIP": "10.36.1.48"
        },
        "operatorInfo": {
            "channelID": "1",
            "operatorID": "101"
        }
    },
    "orderRequest": {
        "orderId": "MFE20190823010000008",
        "revision": 0,
        "startOrderItemId": 1,
        "orderCallType": "S",
        "orderItem": [
            {
                "orderItemId": 1,
                "orderItemType": "NewSub_BlankSIM"
            },
            {
                "orderItemId": 2,
                "orderItemType": "AddSO"
            }
        ]
    },
    "createSubscriberRequest": {
        "registerCustomer": {
            "opType": "2",
            "custKey": "330000001"
        },
        "subscriber": {
            "subscriberKey": "20190823864201373",
            "subscriberInfo": {
                "subBasicInfo": {
                    "subLevel": "1"
                },
                "subIdentity": [
                    {
                        "primaryFlag": "1",
                        "subIdentity": "864201373",
                        "subIdentityType": "1"
                    },
                    {
                        "primaryFlag": "2",
                        "subIdentity": "540080000000002",
                        "subIdentityType": "2"
                    }
                ],
                "status": "2"
            },
            "subPaymentMode": {
                "acctKey": "33000000101",
                "paymentMode": "0"
            }
        },
        "primaryOffering": {
            "offeringKey": {
                "offeringID": 51004751
            }
        },
        "supplementaryOffering": [
            {
                "effectiveTime": {
                    "mode": "I"
                },
                "offeringKey": {
                    "offeringID": 51006046
                }
            }
        ]
    }
}