{
    "orderResult": {
        "orderId": "MFE20190823010000002",
        "orderItemId": 2,
        "returnCode": 0,
        "returnMessage": "SCG subscribeProduct : Success on 2019-08-23 19:34:19"
    },
    "HPESARequestTime": "2019-08-23 11:20:37 058 +0700",
    "HPESAResponseTime": "2019-08-23 11:20:47 972 +0700"
}