{
    "orderResult": {
        "orderId": "MFE20190823130000003",
        "orderItemId": 1,
        "returnCode": 0,
        "returnMessage": "Error java.lang.NullPointerException\tat com.png.FlowUtil.request(FlowUtil.java:2644)\tat com.png.WorkerChild.ChildWork(WorkerChild.java:355)\tat com.png.WorkerChild.process(WorkerChild.java:433)\tat com.png.WorkerChild.run(WorkerChild.java:482) on 2019-08-24 00:30:17"
    },
    "HPESARequestTime": "2019-08-23 16:16:32 714 +0700",
    "HPESAResponseTime": "2019-08-23 16:16:44 937 +0700"
}