1248|1267|413|110|856699405|8966001212131044251|20140428 05:32:24||AWN||F071A7090A2011430014A519CADF7D10|CRMBILLING
34167|12894|2109|110|819443252|8966000314131081894|20141008 05:31:12||AWN||4FB11D1A0A20114300E8C1CF380A6E72|CRMBILLING
139996|27023|3294|110|816325176|8966000314131171851|20150114 05:31:24||DTN||93367C3E0A201170011479D6D91A9F87|CRMBILLING
138083|26755|3262|110|860615779|8966000314131374489|20150113 05:30:40||DTN||F06F49650A2011430014A519B3CD0AD2|CRMBILLING
141281|27180|3310|110|861142234|8966001212111030403|20150115 05:30:54||AWN||6E28B76F0A2011460133F5134F5FDD5A|CRMBILLING
143000|27497|3351|110|811433239|8966000314151058772|20150116 05:31:30||AWN||8C3A38A20A201146011EF0058F101E10|CRMBILLING
142990|27487|3349|110|945713444|8966000314151013009|20150116 05:31:27||DTN||2412FB740A20114300F4FE7DB53BE237|CRMBILLING
146607|27933|3363|110|805575067|8966001212111011171|20150119 05:30:50||DTN||E6659FCF0A201146008EDB94F6990415|CRMBILLING
149861|28505|3407|110|887657646|8966001112111363228|20150121 19:46:16|1J10132||dcsr07|DDF649D20A20114600E6118711C3E5EC|CRMBILLING
234257|51111|5153|110|813876584|8966000614151023126|20150427 05:32:20|1J60414|AWN||A630FE3F0A2011460015D65301734323|CRMBILLING
373295|125076|6466|110|815925142|8966001212111168302|20150720 05:31:28|1J30130|DTN||CF5E9F290A201146000D2A4E58715F57|CRMBILLING
108714|22661|2851|110|984699491|8966000314151034203|20141211 05:31:41||AWN||DDC279820A2011460129BB9ACD192C2A|CRMBILLING
369617|123099|6389|110|815885641|8966000314131071283|20150713 05:32:02||DTN||79D7BA410A201143000BFD8E365723FF|CRMBILLING
109204|22773|2883|110|897131507|8966001112111143240|20141212 05:31:41|1J30127|AWN||BE79B4460A201172011C5809D6E4E967|CRMBILLING
138109|26781|3270|110|844244946|8966000314131375544|20150113 05:30:59||AWN||2406FD3E0A20114300F4FE7D1AEC1F2F|CRMBILLING
256998|72026|5280|110|853128808|8966000614151066869|20150511 05:36:39|1J20123|DTN||046B8A4B574238B6E05400144FB830E0|CRMBILLING
317737|109620|5830|110|850328819|8966000314131564683|20150610 05:32:04||DTN||C82624820A20114601465B1FBE5BEA17|CRMBILLING
125571|24771|3057|110|996494496|8966000314131359225|20141230 05:31:16|1J60413|RFT3G||241E84210A20114300F4FE7D0FB70F0B|CRMBILLING
225801|46759|5020|110|819723730|8966001112111319360|20150421 05:31:50||AWN||DDCA47110A2011460129BB9AFBAA701D|CRMBILLING
329566|115984|6103|110|897176460|8966000314131215955|20150626 05:33:58|1J30125|AWN||76E5180D0A2011700137398F6296C0EF|CRMBILLING
275530|85947|5416|110|817187393|8966000314131169913|20150518 05:34:13|1J30125|AWN||76E5180D0A2011700137398F6296C0EF|CRMBILLING
146609|27935|3365|110|853857923|8966000314131087735|20150119 05:30:52||DTN||4FB2A2BB0A20114300E8C1CF03EB5054|CRMBILLING
1472497|1232165|14302|110|857236742|8966001509184809203|20170530 05:35:44|1J20120|AWN|||CRMBILLING
140009|27036|3296|110|897494824|8966000314131061631|20150114 05:31:30||AWN||7C228D3A0A2011700155927F014B1843|CRMBILLING
140011|27038|3298|110|843462987|8966000314151041232|20150114 05:31:32||AWN||7C228D3A0A2011700155927F014B1843|CRMBILLING
146611|27937|3367|110|846393465|8966000314151040309|20150119 05:30:54||DTN||DE77FFBD8C342BD5E04400144FB830E0|CRMBILLING
