1267|94DC10770A20117000A5BFD5B87A293B|413|360000412|3||1|วิรัช|เพ็ชรร่วง|1810400004179|1|3088|1101|1|581/4 หมู่ 5||||||ต.ลำทับ|อ.ลำทับ|จ.กระบี่|81120|66|581/4|5|||||ต.ลำทับ|อ.ลำทับ|จ.กระบี่|81120|TH|20140428 05:32:23||1810400004179|CRMBILLING
28505|1B150ED60A20117001A28D31E2B06733|3407|380000329|3||12|อรุณศรี|ยนต์อยู่|3960100288550|1|3091|1101|1|96 หมู่ที่10||||||ต.ละมอ|อ.นาโยง|จ.ตรัง|92170|TH|112/2|6|||||ต.บ้านควน|อ.เมืองตรัง|จ.ตรัง|92000|TH|20150121 19:45:27||3960100288550|CRMBILLING
27038|E647A6ED0A2011430093A753B6631B75|3298|360002817|3|ห้างหุ้นส่วนจำกัด ภูปอ ทรานสปอร์ต|1|||0203554005167|6|3025|1101|1|110/312|||||ถ.|ต.บึง|อ.ศรีราชา|จ.ชลบุรี|20230|TH|110/312|||||ถ.|ต.บึง|อ.ศรีราชา|จ.ชลบุรี|20230|TH|20150114 05:31:32||0203554005167|CRMBILLING
27935|94552E6FCF6E44B884D185EEDBA3DCEC|3365|360002868|3||23|กิตติญา|มโหธร|1769900230410|1|3111|1103|1|604/23||||||ต.บ้านหม้อ|อ.เมืองเพชรบุรี|จ.เพชรบุรี|76000|TH|604/23||||||ต.บ้านหม้อ|อ.เมืองเพชรบุรี|จ.เพชรบุรี|76000|TH|20150119 05:30:51||1769900230410|CRMBILLING
27497|EFF0224C0A20117201865AADB5D89E1B|3351|360002860|3||1|คำรณ|ใหม่เสริฐ|1800700036581|1|3000|1101|1|111/446|||หนึ่งคอนโดมิเนียม||ถ.รัตนาธิเบศร์|ต.บางกระสอ|อ.เมืองนนทบุรี|จ.นนทบุรี|11000|TH|111/446||หนึ่งคอนโดมิเนียม|||ถ.รัตนาธิเบศร์|ต.บางกระสอ|อ.เมืองนนทบุรี|จ.นนทบุรี|11000|TH|20150116 05:31:29||1800700036581|CRMBILLING
27933|2AF123860EAC42599210A9B7FFA65317|3363|360002866|3||12|อัจจิมา|สุ่มอินทร์|3220300451990|1|3024|1101|1|1|||โรงเรียนศรียานุสรณ์||ถ.ศรียานุสรณ์|ต.วัดใหม่|อ.เมืองจันทบุรี|จ.จันทบุรี|22000|TH|1||โรงเรียนศรียานุสรณ์|||ถ.ศรียานุสรณ์|ต.วัดใหม่|อ.เมืองจันทบุรี|จ.จันทบุรี|22000|TH|20150119 05:30:50||3220300451990|CRMBILLING
26781|E07F8C750A201170010765E58B4B8E28|3270|360002801|3||1|สมจิตร|ศรีจันทร์|3400500762229|1|3000|1101|1|244/19|||ยิ่งโอฬารวิลล่า||ถ.วิภาวดีรังสิต|แขวงสนามบิน|เขตดอนเมือง|กรุงเทพมหานคร|10210|TH|244/19||ยิ่งโอฬารวิลล่า|||ถ.วิภาวดีรังสิต|แขวงสนามบิน|เขตดอนเมือง|กรุงเทพมหานคร|10210|TH|20150113 05:30:58||3400500762229|CRMBILLING
22773|1A385D5616A145A58C2037912E07A0F3|2883|360002529|3||1|เริงชัย|จูกูล|3310400452075|1|3050|1101|1|196/3|||หนองหลอด||ถ.|ต.ในเมือง|อ.เมืองชัยภูมิ|จ.ชัยภูมิ|36000|TH|196/3||หนองหลอด|||ถ.|ต.ในเมือง|อ.เมืองชัยภูมิ|จ.ชัยภูมิ|36000|TH|20141212 05:31:41||3310400452075|CRMBILLING
27180|F857016B5B744F4B9BDF31BCD87CC30A|3310|360002822|3||23|ขัตติยา|สำเภาทอง|3659900426117|1|3063|1101|1|119/82|||||ถ.ลำปาง-แม่ทะ|ต.พระบาท|อ.เมืองลำปาง|จ.ลำปาง|52000|TH|119/82|||||ถ.ลำปาง-แม่ทะ|ต.พระบาท|อ.เมืองลำปาง|จ.ลำปาง|52000|TH|20150115 05:30:54||3659900426117|CRMBILLING
22661|368B7ADF0A201170014F9F4A51578AF2|2851|360002501|3||1|อรรถพงษ์|คามนา|3400300115521|1|3031|1101|1|360|||บริษัทคูโบต้า เอ็นจิ้น ไทยแลนด์||ถ.|ต.เขาหินซ้อน|อ.พนมสารคาม|จ.ฉะเชิงเทรา|24120|TH|360||บริษัทคูโบต้า เอ็นจิ้น ไทยแลนด์|||ถ.|ต.เขาหินซ้อน|อ.พนมสารคาม|จ.ฉะเชิงเทรา|24120|TH|20141211 05:31:41||3400300115521|CRMBILLING
27937|DC352C4118A941B387C5828BD6D0C116|3367|360002870|3||1|พุฒิเดช|พิเชฐปภามาศ|3302100514310|1|3023|1101|1|26/27|||ซ.ชัยพรวิถี 19|||ต.หนองปรือ|อ.บางละมุง|จ.ชลบุรี|20150|TH|26/27||ซ.ชัยพรวิถี 19||||ต.หนองปรือ|อ.บางละมุง|จ.ชลบุรี|20150|TH|20150119 05:30:54||3302100514310|CRMBILLING
27023|E5A6496E0A20114600C656607B20C8CF|3294|360002813|1|พีเอ็นซี  เมดดิคอล  แคร์  จำกัด||||0115553009803|4|3000|1101|1|49/185|||ซอยบุญศิริ||ถ.สุขุมวิท|ต.บางเมือง|อ.เมืองสมุทรปราการ|จ.สมุทรปราการ|10270|TH|49/185||ซอยบุญศิริ|||ถ.สุขุมวิท|ต.บางเมือง|อ.เมืองสมุทรปราการ|จ.สมุทรปราการ|10270|TH|20150114 05:31:23||0115553009803|CRMBILLING
27036|E64710B60A2011430093A753CD3A1ADF|3296|360002815|3|ห้างหุ้นส่วนจำกัด ภูปอ ทรานสปอร์ต|1|||0203554005167|6|3025|1101|1|110/312||||||ต.บึง|อ.ศรีราชา|จ.ชลบุรี|20230|TH|110/312||||||ต.บึง|อ.ศรีราชา|จ.ชลบุรี|20230|TH|20150114 05:31:29||0203554005167|CRMBILLING
27487|EFEEE2CB0A20117201865AAD10A2E179|3349|360002858|3||1|อัครพล|จินะวงศ์|3540100258638|1|3000|1101|1|778/152|||ประภาทรัพย์ 4|||แขวงบางชัน|เขตคลองสามวา|กรุงเทพมหานคร|10510|TH|778/152||ประภาทรัพย์ 4||||แขวงบางชัน|เขตคลองสามวา|กรุงเทพมหานคร|10510|TH|20150116 05:31:26||3540100258638|CRMBILLING
12894|498301C382A14D52A005C4615064F5FE|2109|360001940|3||1|สมชาย|สิงห์โตทอง|3760500331152|1|3117|1101|1|103 หมู่ 7||||||ต.ท่ายาง|อ.ท่ายาง|จ.เพชรบุรี|76130|TH|103|7|||||ต.ท่ายาง|อ.ท่ายาง|จ.เพชรบุรี|76130|TH|20141008 05:31:12||3760500331152|CRMBILLING
24771|98698AC20A20117000C5A1EAB4FD6253|3057|360002660|3||1|สมชาย|รวมพวก|3749900173463|1|3109|1101|1|923/60|||ซ.เอกชัย 9/1||ถ.เอกชัย|ต.มหาชัย|อ.เมืองสมุทรสาคร|จ.สมุทรสาคร|74000|TH|923/60||ซ.เอกชัย 9/1|||ถ.เอกชัย|ต.มหาชัย|อ.เมืองสมุทรสาคร|จ.สมุทรสาคร|74000|TH|20141230 05:31:15||3749900173463|CRMBILLING
26755|E07BBA6C0A201170010765E5C0BDB342|3262|360003290|3||23|รัดกมล|ทิพย์สุขุม|3959900326900|1|3087|1101|1|49|||หมู่บ้านพิมาน 1 ซ.ชีวินอุทิศ||ถ.ขวัญเมือง|ต.สะเตง|อ.เมืองยะลา|จ.ยะลา|95000|TH|49||หมู่บ้านพิมาน 1 ซ.ชีวินอุทิศ|||ถ.ขวัญเมือง|ต.สะเตง|อ.เมืองยะลา|จ.ยะลา|95000|TH|20150113 05:30:40||3959900326900|CRMBILLING
51111|B2E2164FD5050F84E04400144FB830E0|5153|360004212|3||1|วัชรพล|กันจินะ|1509900298954|1|3000|1101|1|99/99 หมู่ 9||| บุญพรอพาร์ทเมนต์ 618 ซอยติวานนท์ 32||ถ.ติวานนท์|ต.บางกระสอ|อ.เมืองนนทบุรี|จ.นนทบุรี|11000|TH|99/99|9| บุญพรอพาร์ทเมนต์ 618 ซอยติวานนท์| 32||ติวานนท์|ต.บางกระสอ|อ.เมืองนนทบุรี|จ.นนทบุรี|11000|TH|20150427 05:32:19||1509900298954|CRMBILLING
46759|D9124C3F0A2011430001FD18EE047D95|5020|360004114|3||12|ณัฐหทัย|ยุติศรี|3100900910791|1|3021|1101|1|73 หมู่ 9||||||ต.วังกวาง|อ.น้ำหนาว|จ.เพชรบูรณ์|67260|TH|73|9|||||ต.วังกวาง|อ.น้ำหนาว|จ.เพชรบูรณ์|67260|TH|20150421 05:31:50||3100900910791|CRMBILLING
72026|4018061F0A20114301F0B1464D2AF234|5280|360004310|3||23|มณีรัตน์|จันลา|1339900312959|1|3063|1101|1|268|||||ถ.ป่าขาม|ต.หัวเวียง|อ.เมืองลำปาง|จ.ลำปาง|52000|TH|268|||||ป่าขาม|ต.หัวเวียง|อ.เมืองลำปาง|จ.ลำปาง|52000|TH|20150511 05:36:38||1339900312959|CRMBILLING
123099|8481E6CF0A2011720193CCD556D9D8C4|6389|360005193|3||23|ฐาปนี |รัตนเสถียร |1619900104393|1|3031|1101|1|1|||สำนักงานคุมประพฤติจังหวัดฉะเชิงเทรา |||ต.หน้าเมือง|อ.เมืองฉะเชิงเทรา|จ.ฉะเชิงเทรา|24000|TH|1||สำนักงานคุมประพฤติจังหวัดฉะเชิงเท|รา |||ต.หน้าเมือง|อ.เมืองฉะเชิงเทรา|จ.ฉะเชิงเทรา|24000|TH|20150713 05:32:01||1619900104393|CRMBILLING
125076|A8951AA50A201146015D7E83AC3A21B8|6466|360005251|3||1|เกรียงศักดิ์| ลาภจตุรพิธ|3409700006043|1|3038|1101|1|360/198 หมู่ 7||||||ต.เมืองเก่า|อ.เมืองขอนแก่น|จ.ขอนแก่น|40000|TH|360/198|7|||||ต.เมืองเก่า|อ.เมืองขอนแก่น|จ.ขอนแก่น|40000|TH|20150720 05:31:27||3409700006043|CRMBILLING
109620|DA901C440A20117000FBC1F7ED6F6C40|5830|360004748|3||1|ชาตรี|อุปละสืบ|1529900005779|1|3027|1101|1|410-412 หมู่ 5||||||ต.คลองตำหรุ|อ.เมืองชลบุรี|จ.ชลบุรี|20000|TH|410-412|5|||||ต.คลองตำหรุ|อ.เมืองชลบุรี|จ.ชลบุรี|20000|TH|20150610 05:32:03||1529900005779|CRMBILLING
85947|D9FDD842AF454AF0A7CD5C0C79E72DA7|5416|360004413|3||1|พร้อมชัย|พิริยะกิจไพบูลย์|2349900016754|1|3043|1101|1|150/1|||||ถ.กันทรลักษณ์|ต.วารินชำราบ|อ.วารินชำราบ|จ.อุบลราชธานี|34190|TH|150/1|||||กันทรลักษณ์|ต.วารินชำราบ|อ.วารินชำราบ|จ.อุบลราชธานี|34190|TH|20150518 05:34:12||2349900016754|CRMBILLING
115984|2E0745360A201143004FDA99A3DB9CB9|6103|360004956|3||1|พร้อมโชค|พิริยะกิจไพบูลย์|2349900016746|1|3043|1101|1|150/1|||||ถ.กันทรลักษ์|ต.วารินชำราบ|อ.วารินชำราบ|จ.อุบลราชธานี|34190|TH|150/1|||||กันทรลักษ์|ต.วารินชำราบ|อ.วารินชำราบ|จ.อุบลราชธานี|34190|TH|20150626 05:33:58||2349900016746|CRMBILLING
1232165||14302|360013800|3||23|สุภาลักษณ์|โยหงส์|3540100590063|1|3066|1101|1|126 หมู่ 2||||||ต.วังหงษ์|อ.เมืองแพร่|จ.แพร่|54000|TH|126|2|||||ต.วังหงษ์|อ.เมืองแพร่|จ.แพร่|54000|TH|20170530 05:35:41|||CRMBILLING
