{
  "channel": "MFE",
  "highPriorityOrderType": "ChangePackage",
  "orderSubmittedDate": "2019-04-29T00:00",
  "rerunRevisionNumber": "0",
  "orderId": "",
  "orderItem": [
    {
      "orderType": "ChangePO",
      "orderExecutionDate": "2019-05-15",
      "orderExecutionType": "Now",
      "productOffering": [
        {
          "itemTerm": "12 Months",
          "actionFlag": "Yes",
          "offeringType": "Primary",
          "itemPrice": {
            "unitOfMeasure": "GB",
            "price": {
              "taxRate": "23%",
              "currencyCode": "Baht",
              "dutyFreeAmount": "250"
            },
            "priceType": "recurring",
            "description": "",
            "recurringChargePeriod": "6 Months",
            "taxIncludedAmount": "450"
          },
          "offeringId": "51005955"
        }
      ]
    },
    {
      "orderType": "AddSO",
      "productOffering": [
        {
          "itemTerm": "10 Months",
          "actionFlag": "No",
          "offeringType": "Primary",
          "itemPrice": {
            "unitOfMeasure": "GB",
            "price": {
              "taxRate": "23%",
              "currencyCode": "Baht",
              "dutyFreeAmount": "50"
            },
            "priceType": "recurring",
            "description": "",
            "recurringChargePeriod": "6 Months",
            "taxIncludedAmount": "450"
          },
          "offeringId": "51005956"
        }
      ],
      "orderExecutionDate": "2019-05-15",
      "orderExecutionType": "Now"
    },
    {
      "orderType": "DeleteSO",
      "productOffering": [
        {
          "itemTerm": "10 Months",
          "actionFlag": "Yes",
          "offeringType": "Primary",
          "itemPrice": {
            "unitOfMeasure": "GB",
            "price": {
              "taxRate": "23%",
              "currencyCode": "Baht",
              "dutyFreeAmount": "50"
            },
            "priceType": "recurring",
            "description": "",
            "recurringChargePeriod": "6 Months",
            "taxIncludedAmount": "450"
          },
          "offeringId": "51005957"
        }
      ],
      "orderExecutionDate": "2019-05-15",
      "orderExecutionType": "Now"
    }
  ],
  "saleInfo": {
    "saleEmpId": "23456789",
    "sapCode": "",
    "dealerCode": "CAT",
    "verifyIdentity": "TRUE",
    "registerBySellerName": "CAT_MNP",
    "saleRole": ""
  },
  "sourceCustomerAccount": {
    "companyName": "abc tech",
    "existingFlag": "true",
    "citizenshipId": "3099-001",
    "customerType": "1",
    "cardNumber": "8768789999",
    "customerSegment": "",
    "customerId": "00123456789",
    "taxRegisterNumber": "345678",
    "title": "Mr",
    "lastName": "Dansuput",
    "firstName": "Thosapon",
    "cardType": "Citizen Id Card",
    "address": {
      "country": "Thailand",
      "province": "Bangkok",
      "khetAmphur": "Thanon",
      "houseNumber": "15/4",
      "postCode": "10400"
    },
    "customerGroup": "abc_group",
    "custaccountId": "87686"
  },
  "subscriberInfo": {
    "serviceType": "0",
    "sourceSimInfo": [
      {
        "simType": "Primary",
        "iccid": "1119088766554567",
        "imsi": "262011234567"
      }
    ],
    "subscriberKey": "1234",
    "subscriberNumber": "87687587687",
    "msisdn": "0986256789",
    "preProFlag": "true"
  },
  "isProvisionRequired": "true"
}