{
  "orderId": "",
  "channel": "MFE",
  "isProvisionRequired": true,
  "highPriorityOrderType": "Credit Limit",
   "notificationContact": "abc@cattelecom.com",
  "notificationType": "email",
  "orderItem": [
    {
      "orderType": "CreditLimit",
      "orderExecutionType": "Now",
      "orderExecutionDate": "2019-05-15",
      "userRole": "SALE",
      "creditLimit": {
        "type": "Fixed",
        "value": "23456"
      }
    },
    {
      "orderType": "AddSO",
      "productOffering": [
        {
          "itemTerm": "12 Months",
	   "actionFlag":"Yes",
          "offeringType": "Primary",
          "itemPrice": {
            "unitOfMeasure": "GB",
            "price": {
              "taxRate": "23%",
              "currencyCode": "Baht",
              "dutyFreeAmount": "250"
            },
            "priceType": "recurring",
            "description": "",
            "recurringChargePeriod": "6 Months",
            "taxIncludedAmount": "450"
          },
          "offeringId": "51005955"
        }
      ],
      "orderExecutionDate": "2019-05-15",
      "orderExecutionType": "Now"
    }
  ],
  "orderSubmittedDate": "2019-04-29T00:00",
  "rerunRevisionNumber": "0",
  "saleInfo": {
    "saleEmpId": "",
    "sapCode": "",
    "dealerCode": "CAT",
    "verifyIdentity": "TRUE",
    "registerBySellerName": "CAT_MNP",
    "saleRole": ""
  },
  "writtenLanguage": "01",
  "sourceCustomerAccount": {
    "companyName": "abc tech",
    "existingFlag": true,
    "citizenshipId": "3099-001",
    "customerType": "1",
    "cardNumber":"8768789999",
    "customerSegment": "",
    "customerId": "00123456789",
    "taxRegisterNumber": "345678",
    "title": "Mr",
    "lastName": "Dansuput",
    "firstName": "Thosapon",
    "cardType":"Citizen Id Card",
    "address": {
      "country": "Thailand",
      "province": "Bangkok",
      "khetAmphur": "Thanon",
      "houseNumber": "15/4",
    
      "postCode": "10400"
    },
    "customerGroup": "abc_group",
    "custaccountId": "87686",
   
    "billingAccount":{
      "billingAccountId": "234567",
      "billAccountSysID": "",
      "existingFlag": false,
      "billingInfo": {
        "collectionUnit": "",
        "language": "Thai",
        "vat": "'2345'",
        "billingPeriod": "3 ",
        "billable": "3 days",
        "billingGroup": "CAT_Group",
        "collectionTreatment": "Debt",
        "dispatchMethod": "Courier",
        "emailAddress": "abc@cat.com"
      },
      "billingAddress": {
        "title": "Mr",
        "firstName": "Thosapon",
        "lastName": "Dansuput",
        "companyTtitle": "Private",
        "company": "ABC Tech",
        "houseNumber": "12/3",
        "moo": "Soi",
        "village": "Soi Chuladit",
        "troksoi": "",
        "road": "Nonthaburi Road ",
        "khet": "Thanon",
        "kwang": "Phaya Thai",
        "province": "Nonthaburi",
        "postalCode": "11000 ",
        "countryCode": "+66"
      },
      "billDeliveryAddress": {
        "customerType": "residential",
        "title": "Mr",
        "firstName": "Thosapon",
        "lastName": "Dansuput",
        "companyTtitle": "Private",
        "company": "ABC Tech",
        "houseNumber": "12/3",
        "moo": "Soi",
        "village": "Soi Chuladit",
        "troksoi": "",
        "road": "Nonthaburi Road ",
        "khet": "Thanon",
        "kwang": "Phaya Thai",
        "province": "Nonthaburi",
        "postalCode": "11000 ",
        "countryCode": "+66"
      },
      "paymentProfile": "cash"
    }
  },
  "subscriberInfo": {
    "serviceType": "1",
    "reserveFlag": false,
    "sourceSimInfo": [
      {
        "simType": "Primary",
        "iccid": "123456789123456789",
        "imsi": "262011234567"
      }
    ],
    "subscriberKey": "1234",
    "subscriberNumber": "87687587687",
    "msisdn": "+6631789365",
    "preProFlag": false
  }
}