{
  "id": "",
  "orderId": "",
  "highPriorityOrderType": "Reconnect",
  "writtenLanguage": "01",
  "channel": "MFE",
  "isProvisionRequired": "true",
  "rerunRevisionNumber": "0",
  "orderSubmittedDate": "2019-04-29T00:00",  
  "notificationType": "email",
  "notificationContact": "abc@cattelecom.com",
  "orderItem": [
    {
      "orderType": "Reconnect",
      "sourceEntity": "By MDebt",     
      "orderExecutionType": "Future",
      "orderExecutionDate": "2019-04-29T00:00"
    }
  ],
  "subscriberInfo": {
    "serviceType": "0",
    "sourceSimInfo": [
      {
        "iccid": "123456789123456789",
        "simType": "Primary",
        "imsi": "262011234567"
      }
    ],
    "subscriberKey": "1234",
    "subscriberNumber": "87687587687",
    "msisdn": "890678963",
    "preProFlag": "N",
    "reserveFlag": false,
    "portinOperator": "DTN"
  },
  "saleInfo": {
    "id": "",
    "saleEmpId": "",
    "sapCode": "",
    "dealerCode": "CAT",
    "verifyIdentity": "TRUE",
    "registerBySellerName": "CAT_MNP",
    "saleRole": ""
  }
}