{
  "orderId": "MFE2019050000000200",
  "highPriorityOrderType": "Swap Pre To Post",
  "channel": "MFE",
  "rerunRevisionNumber": "0",
  "orderItem": [
    {
      "orderType": "SwapPreToPost",
      "orderExecutionType": "Now",
      "orderExecutionDate": "2019-05-15",
      "coreBalance": {
        "currencyCode": "Baht",
        "taxRate": "7",
        "dutyFreeAmount": "100"
      },
      "advancePayment": {
        "currencyCode": "Baht",
        "taxRate": "7",
        "dutyFreeAmount": "100"
      },
      "transferBalanceFlag": true,
      "transferAction": "Refund"
    },
    {
      "orderType": "Credit Limit",
      "orderExecutionDate": "2019-05-15",
      "orderExecutionType": "Now",
      "creditLimit": {
        "type": "Fixed",
        "value": "23456"
      }
    },
    {
      "orderType": "Add PO",
      "orderExecutionDate": "2019-05-15",
      "orderExecutionType": "Now",
      "productOffering": [
        {
          "offeringType": "PO",
          "offeringId": "PO001"
        }
      ]
    },
    {
      "orderType": "Add SO",
      "orderExecutionDate": "2019-05-15",
      "orderExecutionType": "Now",
      "productOffering": [
        {
          "offeringType": "SO",
          "offeringId": "SO001"
        }
      ]
    }
  ],
  "sourceCustomerAccount": {
    "customerId": "00123456789",
    "existingFlag": true
  },
  "subscriberInfo": {
    "msisdn": "867890655",
    "serviceType": "1"
  },
  "saleInfo": {
    "saleEmpId": "38002222",
    "sapCode": "0800222003333",
    "dealerCode": "CAT",
    "registerBySellerName": "CAT_MNP",
    "saleRole": "role"
  }
}