{
    "account": {
        "accountCategory": "3",
        "accountStatus": 1,
        "accountStatusDt": "2019-08-26T18:22:18Z",
        "address": {
            "addressLine1": "11 หมู่ 12 หมู่บ้าน 14",
            "addressLine2": "1415",
            "addressLine3": "16",
            "city": "อ.เมืองนนทบุรี",
            "countryCode": "TH",
            "custAddress1": "11 หมู่ 12 หมู่บ้าน 14",
            "custAddress2": "1415",
            "custAddress3": "16",
            "custCity": "อ.เมืองนนทบุรี",
            "custCountryCode": "TH",
            "custGeocode": "764001000000000",
            "custState": "จ.นนทบุรี",
            "custTambon": "ต.บางกระสอ",
            "custZipCode": "11000",
            "geoCode": "764001000000000",
            "postalCode": "11000",
            "state": "จ.นนทบุรี",
            "tambon": "บางกระสอ",
            "vatFName": "TestFname",
            "vatLName": "testLname",
            "vatTitle": "นาย"
        },
        "billDispMeth": 1,
        "billFmtOpt": 1,
        "billPeriod": "M01",
        "billable": true,
        "businessType": "311",
        "companyTaxId": "3100400000009",
        "creditLimit": "0",
        "currencyCode": "th_TH",
        "customerServiceCenter": [
            {
                "chgDate": "2019-08-26T18:22:18Z",
                "chgWho": "aruba                         ",
                "key": {
                    "serviceCenterType": 4
                },
                "serviceCenterId": 3000
            }
        ],
        "dAddress1": {
            "paramId": "20014",
            "paramName": "DAddress1",
            "paramValue": " "
        },
        "dAddress2": {
            "paramId": "20015",
            "paramName": "DAddress2",
            "paramValue": " "
        },
        "dAddress3": {
            "paramId": "20016",
            "paramName": "DAddress3",
            "paramValue": " "
        },
        "dCity": {
            "paramId": "20018",
            "paramName": "DCity",
            "paramValue": " "
        },
        "dCompanyName": {
            "paramId": "20013",
            "paramName": "DCompanyName",
            "paramValue": " "
        },
        "dCountry": {
            "paramId": "20021",
            "paramName": "DCountry",
            "paramValue": " "
        },
        "dCounty": {
            "paramId": "20017",
            "paramName": "DCounty",
            "paramValue": " "
        },
        "dFirstName": {
            "paramId": "20011",
            "paramName": "DFirstName",
            "paramValue": " "
        },
        "dLastName": {
            "paramId": "20012",
            "paramName": "DLastName",
            "paramValue": " "
        },
        "dState": {
            "paramId": "20019",
            "paramName": "DState",
            "paramValue": " "
        },
        "dTitle": {
            "paramId": "20010",
            "paramName": "DTitle",
            "paramValue": " "
        },
        "dZipCode": {
            "paramId": "20020",
            "paramName": "DZipCode",
            "paramValue": " "
        },
        "dateActive": "2018-08-25T00:00:00Z",
        "deliVatAddrCountryLkp": {
            "paramId": "20045",
            "paramName": "DeliVatAddrCountryLkp",
            "paramValue": " "
        },
        "deliVatAddrKhetAmphur": {
            "paramId": "20042",
            "paramName": "DeliVatAddrKhetAmphur",
            "paramValue": " "
        },
        "deliVatAddrLine1": {
            "paramId": "20038",
            "paramName": "DeliVatAddrLine1",
            "paramValue": " "
        },
        "deliVatAddrLine2": {
            "paramId": "20039",
            "paramName": "DeliVatAddrLine2",
            "paramValue": " "
        },
        "deliVatAddrLine3": {
            "paramId": "20040",
            "paramName": "DeliVatAddrLine3",
            "paramValue": " "
        },
        "deliVatAddrLine4": {
            "paramId": "20041",
            "paramName": "DeliVatAddrLine4",
            "paramValue": " "
        },
        "deliVatAddrPostCode": {
            "paramId": "20044",
            "paramName": "DeliVatAddrPostCode",
            "paramValue": " "
        },
        "deliVatAddrProvinceLkp": {
            "paramId": "20043",
            "paramName": "DeliVatAddrProvinceLkp",
            "paramValue": " "
        },
        "deliVatCompName": {
            "paramId": "20037",
            "paramName": "DeliVatCompName",
            "paramValue": " "
        },
        "deliVatFirstName": {
            "paramId": "20034",
            "paramName": "DeliVatFirstName",
            "paramValue": " "
        },
        "deliVatLastName": {
            "paramId": "20035",
            "paramName": "DeliVatLastName",
            "paramValue": " "
        },
        "deliVatThaiTitleLkp": {
            "paramId": "20033",
            "paramName": "DeliVatThaiTitleLkp",
            "paramValue": "นาย"
        },
        "destinationAccountId": 1103253,
        "eMailAddress": "test@test.com",
        "exrateClass": 1,
        "internalSalesRef": {
            "paramId": "20060",
            "paramName": "InternalSalesRef",
            "paramValue": " "
        },
        "marketCode": 20000,
        "owningCostCtr": 9000,
        "rateClassDefault": 1,
        "salesName": {
            "paramId": "20061",
            "paramName": "SalesName",
            "paramValue": " "
        },
        "salesTerritory": {
            "paramId": "20062",
            "paramName": "SalesTerritory",
            "paramValue": " "
        },
        "taxExemp": 1,
        "thaiFirstName": "TestFName ",
        "thaiLastName": "TestLName",
        "thaiTitle": "นาย",
        "vatDisplay": {
            "paramId": "20022",
            "paramName": "VatDisplay",
            "paramValue": "1"
        },
        "vipCode": 0
    },
    "transactionLog": {
        "dataLog": true,
        "destinationInterfaceType": "K",
        "destinationReturnCode": "0",
        "destinationReturnDetails": "Success",
        "destinationSystem": "Billing",
        "esbReturnCode": "ESBWPS0000",
        "esbReturnDetails": "This is a normal situation.",
        "inputData": "<![CDATA[<?xml version=\"1.0\" encoding=\"UTF-8\"?><p:UpdateAccountResponseBilling xsi:type=\"p:UpdateAccountResponseBilling\" xmlns:xsi=\"http://www.w3.org/2001/XMLSchema-instance\" xmlns:p=\"http://KenanLibs/RequestResponseBO/A14\">  <Account>    <Key>      <AccountInternalId>1103253</AccountInternalId>    </Key>    <ActiveDate>2018-08-20T00:00:00Z</ActiveDate>    <AccountExternalId>9292000008</AccountExternalId>    <HierarchyAccountExternalId>9292000008</HierarchyAccountExternalId>    <AccountExternalIdType>1</AccountExternalIdType>    <HierarchyAccountExternalIdType>1</HierarchyAccountExternalIdType>    <AccountCategory>3</AccountCategory>    <AccountStatus>1</AccountStatus>    <AccountStatusDt>2019-08-26T18:22:18Z</AccountStatusDt>    <AccountType>1</AccountType>    <AcctSegId>0</AcctSegId>    <AltFname>นาย</AltFname>    <AltLname>testLname</AltLname>    <BillAddress1>11 หมู่ 12 หมู่บ้าน 14</BillAddress1>    <BillAddress2>1415</BillAddress2>    <BillAddress3>16</BillAddress3>    <BillCity>อ.เมืองนนทบุรี</BillCity>    <BillCountryCode>764</BillCountryCode>    <BillCounty>บางกระสอ</BillCounty>    <BillDispMeth>1</BillDispMeth>    <BillFmtOpt>1</BillFmtOpt>    <BillFname>TestFName</BillFname>    <BillFranchiseTaxCode>1</BillFranchiseTaxCode>    <BillGeocode>764001000000000</BillGeocode>    <BillLname>TestLName</BillLname>    <BillPeriod>M01</BillPeriod>    <BillSequenceNum>0</BillSequenceNum>    <BillState>จ.นนทบุรี</BillState>    <BillTitle>นาย</BillTitle>    <BillZip>11000</BillZip>    <BillingFrequency>3</BillingFrequency>    <ChargeThreshold>0</ChargeThreshold>    <ChgDate>2019-08-26T18:22:18Z</ChgDate>    <ChgWho>aruba                         </ChgWho>    <ChildCount>0</ChildCount>    <Codeword>TH</Codeword>    <CollectionIndicator>0</CollectionIndicator>    <CollectionStatus>0</CollectionStatus>    <Contact1Name>TestFname</Contact1Name>    <Converted>0</Converted>    <CreditRating>0</CreditRating>    <CreditThresh>0</CreditThresh>    <CurrencyCode>12</CurrencyCode>    <CustAddress1>11 หมู่ 12 หมู่บ้าน 14</CustAddress1>    <CustAddress2>1415</CustAddress2>    <CustAddress3>16</CustAddress3>    <CustCity>อ.เมืองนนทบุรี</CustCity>    <CustCountryCode>764</CustCountryCode>    <CustCounty>ต.บางกระสอ</CustCounty>    <CustEmail>test@test.com</CustEmail>    <CustFranchiseTaxCode>1</CustFranchiseTaxCode>    <CustGeocode>764001000000000</CustGeocode>    <CustPhone1>311</CustPhone1>    <CustState>จ.นนทบุรี</CustState>    <CustZip>11000</CustZip>    <CyclicalThreshold>0</CyclicalThreshold>    <DateActive>2018-08-25T00:00:00Z</DateActive>    <DateCreated>2019-08-26T16:07:18Z</DateCreated>    <DateInactive>2019-08-26T18:19:36Z</DateInactive>    <ExrateClass>1</ExrateClass>    <GlobalContractStatus>1</GlobalContractStatus>    <HierarchyId>1103253</HierarchyId>    <InsertGrpId>1</InsertGrpId>    <LanguageCode>22</LanguageCode>    <MktCode>20000</MktCode>    <MsgGrpId>1</MsgGrpId>    <NextBillDate>2018-09-25T00:00:00Z</NextBillDate>    <NoBill>false</NoBill>    <OwningCostCtr>9000</OwningCostCtr>    <PaymentProfileId>759015003</PaymentProfileId>    <PrevBalanceRefResets>0</PrevBalanceRefResets>    <PrevBalanceRefno>0</PrevBalanceRefno>    <PrevBillRefResets>0</PrevBillRefResets>    <PrevBillRefno>0</PrevBillRefno>    <RateClassDefault>1</RateClassDefault>    <RegulatoryId>1</RegulatoryId>    <RevRcvCostCtr>1</RevRcvCostCtr>    <Ssn>3100400000009</Ssn>    <StatementToEmail>test@test.com</StatementToEmail>    <Threshold>0</Threshold>    <VipCode>0</VipCode>    <CustomerServiceCenters>      <Key>        <ServiceCenterType>4</ServiceCenterType>      </Key>      <ChgDate>2019-08-26T18:22:18Z</ChgDate>      <ChgWho>aruba                         </ChgWho>      <ServiceCenterId>3000</ServiceCenterId>    </CustomerServiceCenters>    <DZipCode>      <ParamName>DZipCode</ParamName>      <ParamId>20020</ParamId>      <ParamValue> </ParamValue>    </DZipCode>    <DState>      <ParamName>DState</ParamName>      <ParamId>20019</ParamId>      <ParamValue> </ParamValue>    </DState>    <DCity>      <ParamName>DCity</ParamName>      <ParamId>20018</ParamId>      <ParamValue> </ParamValue>    </DCity>    <DCounty>      <ParamName>DCounty</ParamName>      <ParamValue> </ParamValue>      <ParamId>20017</ParamId>    </DCounty>    <DAddress3>      <ParamName>DAddress3</ParamName>      <ParamId>20016</ParamId>      <ParamValue> </ParamValue>    </DAddress3>    <DAddress2>      <ParamName>DAddress2</ParamName>      <ParamValue> </ParamValue>      <ParamId>20015</ParamId>    </DAddress2>    <DAddress1>      <ParamName>DAddress1</ParamName>      <ParamId>20014</ParamId>      <ParamValue> </ParamValue>    </DAddress1>    <DCompanyName>      <ParamName>DCompanyName</ParamName>      <ParamId>20013</ParamId>      <ParamValue> </ParamValue>    </DCompanyName>    <DLastName>      <ParamName>DLastName</ParamName>      <ParamId>20012</ParamId>      <ParamValue> </ParamValue>    </DLastName>    <DFirstName>      <ParamName>DFirstName</ParamName>      <ParamId>20011</ParamId>      <ParamValue> </ParamValue>    </DFirstName>    <DTitle>      <ParamName>DTitle</ParamName>      <ParamId>20010</ParamId>      <ParamValue> </ParamValue>    </DTitle>    <DCountry>      <ParamName>DCountry</ParamName>      <ParamValue> </ParamValue>      <ParamId>20021</ParamId>    </DCountry>    <VatDisplay>      <ParamName>VatDisplay</ParamName>      <ParamValue>1</ParamValue>      <ParamId>20022</ParamId>    </VatDisplay>    <DeliVatThaiTitleLkp>      <ParamId>20033</ParamId>      <ParamName>DeliVatThaiTitleLkp</ParamName>      <ParamValue>นาย</ParamValue>    </DeliVatThaiTitleLkp>    <DeliVatFirstName>      <ParamId>20034</ParamId>      <ParamName>DeliVatFirstName</ParamName>      <ParamValue> </ParamValue>    </DeliVatFirstName>    <DeliVatLastName>      <ParamId>20035</ParamId>      <ParamName>DeliVatLastName</ParamName>      <ParamValue> </ParamValue>    </DeliVatLastName>    <DeliVatCompName>      <ParamId>20037</ParamId>      <ParamName>DeliVatCompName</ParamName>      <ParamValue> </ParamValue>    </DeliVatCompName>    <DeliVatAddrLine1>      <ParamId>20038</ParamId>      <ParamName>DeliVatAddrLine1</ParamName>      <ParamValue> </ParamValue>    </DeliVatAddrLine1>    <DeliVatAddrLine2>      <ParamId>20039</ParamId>      <ParamName>DeliVatAddrLine2</ParamName>      <ParamValue> </ParamValue>    </DeliVatAddrLine2>    <DeliVatAddrLine3>      <ParamId>20040</ParamId>      <ParamName>DeliVatAddrLine3</ParamName>      <ParamValue> </ParamValue>    </DeliVatAddrLine3>    <DeliVatAddrLine4>      <ParamId>20041</ParamId>      <ParamName>DeliVatAddrLine4</ParamName>      <ParamValue> </ParamValue>    </DeliVatAddrLine4>    <DeliVatAddrKhetAmphur>      <ParamId>20042</ParamId>      <ParamName>DeliVatAddrKhetAmphur</ParamName>      <ParamValue> </ParamValue>    </DeliVatAddrKhetAmphur>    <DeliVatAddrProvinceLkp>      <ParamId>20043</ParamId>      <ParamName>DeliVatAddrProvinceLkp</ParamName>      <ParamValue> </ParamValue>    </DeliVatAddrProvinceLkp>    <DeliVatAddrPostCode>      <ParamId>20044</ParamId>      <ParamName>DeliVatAddrPostCode</ParamName>      <ParamValue> </ParamValue>    </DeliVatAddrPostCode>    <DeliVatAddrCountryLkp>      <ParamId>20045</ParamId>      <ParamName>DeliVatAddrCountryLkp</ParamName>      <ParamValue> </ParamValue>    </DeliVatAddrCountryLkp>    <InternalSalesRef>      <ParamValue> </ParamValue>      <ParamId>20060</ParamId>      <ParamName>InternalSalesRef</ParamName>    </InternalSalesRef>    <SalesName>      <ParamValue> </ParamValue>      <ParamId>20061</ParamId>      <ParamName>SalesName</ParamName>    </SalesName>    <SalesTerritory>      <ParamValue> </ParamValue>      <ParamId>20062</ParamId>      <ParamName>SalesTerritory</ParamName>    </SalesTerritory>  </Account>  <Result>    <Code>0</Code>    <Text>Success</Text>  </Result></p:UpdateAccountResponseBilling>]]>",
        "interfaceNo": "UDB_A14",
        "logStatus": true,
        "outputData": "<![CDATA[<?xml version=\"1.0\" encoding=\"UTF-8\"?><p:UpdateAccountResponse xsi:type=\"p:UpdateAccountResponse\" xmlns:xsi=\"http://www.w3.org/2001/XMLSchema-instance\" xmlns:p=\"http://ESBLibs/RequestResponseCBO/A14\">  <TransactionLog>    <TranID>201908200720</TranID>    <InterfaceNo>UDB_A14</InterfaceNo>    <SourceSystem>OM</SourceSystem>    <DestinationSystem>Billing</DestinationSystem>    <SourceInterfaceType>W</SourceInterfaceType>    <DestinationInterfaceType>K</DestinationInterfaceType>    <RequestDateTime>2019-08-26T11:22:17.730Z</RequestDateTime>    <ResponseDateTime>2019-08-26T11:22:17.779Z</ResponseDateTime>    <InputData>&lt;![CDATA[&lt;?xml version=&quot;1.0&quot; encoding=&quot;UTF-8&quot;?>&lt;p:UpdateAccountResponseBilling xsi:type=&quot;p:UpdateAccountResponseBilling&quot; xmlns:xsi=&quot;http://www.w3.org/2001/XMLSchema-instance&quot; xmlns:p=&quot;http://KenanLibs/RequestResponseBO/A14&quot;>  &lt;Account>    &lt;Key>      &lt;AccountInternalId>1103253&lt;/AccountInternalId>    &lt;/Key>    &lt;ActiveDate>2018-08-20T00:00:00Z&lt;/ActiveDate>    &lt;AccountExternalId>9292000008&lt;/AccountExternalId>    &lt;HierarchyAccountExternalId>9292000008&lt;/HierarchyAccountExternalId>    &lt;AccountExternalIdType>1&lt;/AccountExternalIdType>    &lt;HierarchyAccountExternalIdType>1&lt;/HierarchyAccountExternalIdType>    &lt;AccountCategory>3&lt;/AccountCategory>    &lt;AccountStatus>1&lt;/AccountStatus>    &lt;AccountStatusDt>2019-08-26T18:22:18Z&lt;/AccountStatusDt>    &lt;AccountType>1&lt;/AccountType>    &lt;AcctSegId>0&lt;/AcctSegId>    &lt;AltFname>นาย&lt;/AltFname>    &lt;AltLname>testLname&lt;/AltLname>    &lt;BillAddress1>11 หมู่ 12 หมู่บ้าน 14&lt;/BillAddress1>    &lt;BillAddress2>1415&lt;/BillAddress2>    &lt;BillAddress3>16&lt;/BillAddress3>    &lt;BillCity>อ.เมืองนนทบุรี&lt;/BillCity>    &lt;BillCountryCode>764&lt;/BillCountryCode>    &lt;BillCounty>บางกระสอ&lt;/BillCounty>    &lt;BillDispMeth>1&lt;/BillDispMeth>    &lt;BillFmtOpt>1&lt;/BillFmtOpt>    &lt;BillFname>TestFName&lt;/BillFname>    &lt;BillFranchiseTaxCode>1&lt;/BillFranchiseTaxCode>    &lt;BillGeocode>764001000000000&lt;/BillGeocode>    &lt;BillLname>TestLName&lt;/BillLname>    &lt;BillPeriod>M01&lt;/BillPeriod>    &lt;BillSequenceNum>0&lt;/BillSequenceNum>    &lt;BillState>จ.นนทบุรี&lt;/BillState>    &lt;BillTitle>นาย&lt;/BillTitle>    &lt;BillZip>11000&lt;/BillZip>    &lt;BillingFrequency>3&lt;/BillingFrequency>    &lt;ChargeThreshold>0&lt;/ChargeThreshold>    &lt;ChgDate>2019-08-26T18:22:18Z&lt;/ChgDate>    &lt;ChgWho>aruba                         &lt;/ChgWho>    &lt;ChildCount>0&lt;/ChildCount>    &lt;Codeword>TH&lt;/Codeword>    &lt;CollectionIndicator>0&lt;/CollectionIndicator>    &lt;CollectionStatus>0&lt;/CollectionStatus>    &lt;Contact1Name>TestFname&lt;/Contact1Name>    &lt;Converted>0&lt;/Converted>    &lt;CreditRating>0&lt;/CreditRating>    &lt;CreditThresh>0&lt;/CreditThresh>    &lt;CurrencyCode>12&lt;/CurrencyCode>    &lt;CustAddress1>11 หมู่ 12 หมู่บ้าน 14&lt;/CustAddress1>    &lt;CustAddress2>1415&lt;/CustAddress2>    &lt;CustAddress3>16&lt;/CustAddress3>    &lt;CustCity>อ.เมืองนนทบุรี&lt;/CustCity>    &lt;CustCountryCode>764&lt;/CustCountryCode>    &lt;CustCounty>ต.บางกระสอ&lt;/CustCounty>    &lt;CustEmail>test@test.com&lt;/CustEmail>    &lt;CustFranchiseTaxCode>1&lt;/CustFranchiseTaxCode>    &lt;CustGeocode>764001000000000&lt;/CustGeocode>    &lt;CustPhone1>311&lt;/CustPhone1>    &lt;CustState>จ.นนทบุรี&lt;/CustState>    &lt;CustZip>11000&lt;/CustZip>    &lt;CyclicalThreshold>0&lt;/CyclicalThreshold>    &lt;DateActive>2018-08-25T00:00:00Z&lt;/DateActive>    &lt;DateCreated>2019-08-26T16:07:18Z&lt;/DateCreated>    &lt;DateInactive>2019-08-26T18:19:36Z&lt;/DateInactive>    &lt;ExrateClass>1&lt;/ExrateClass>    &lt;GlobalContractStatus>1&lt;/GlobalContractStatus>    &lt;HierarchyId>1103253&lt;/HierarchyId>    &lt;InsertGrpId>1&lt;/InsertGrpId>    &lt;LanguageCode>22&lt;/LanguageCode>    &lt;MktCode>20000&lt;/MktCode>    &lt;MsgGrpId>1&lt;/MsgGrpId>    &lt;NextBillDate>2018-09-25T00:00:00Z&lt;/NextBillDate>    &lt;NoBill>false&lt;/NoBill>    &lt;OwningCostCtr>9000&lt;/OwningCostCtr>    &lt;PaymentProfileId>759015003&lt;/PaymentProfileId>    &lt;PrevBalanceRefResets>0&lt;/PrevBalanceRefResets>    &lt;PrevBalanceRefno>0&lt;/PrevBalanceRefno>    &lt;PrevBillRefResets>0&lt;/PrevBillRefResets>    &lt;PrevBillRefno>0&lt;/PrevBillRefno>    &lt;RateClassDefault>1&lt;/RateClassDefault>    &lt;RegulatoryId>1&lt;/RegulatoryId>    &lt;RevRcvCostCtr>1&lt;/RevRcvCostCtr>    &lt;Ssn>3100400000009&lt;/Ssn>    &lt;StatementToEmail>test@test.com&lt;/StatementToEmail>    &lt;Threshold>0&lt;/Threshold>    &lt;VipCode>0&lt;/VipCode>    &lt;CustomerServiceCenters>      &lt;Key>        &lt;ServiceCenterType>4&lt;/ServiceCenterType>      &lt;/Key>      &lt;ChgDate>2019-08-26T18:22:18Z&lt;/ChgDate>      &lt;ChgWho>aruba                         &lt;/ChgWho>      &lt;ServiceCenterId>3000&lt;/ServiceCenterId>    &lt;/CustomerServiceCenters>    &lt;DZipCode>      &lt;ParamName>DZipCode&lt;/ParamName>      &lt;ParamId>20020&lt;/ParamId>      &lt;ParamValue> &lt;/ParamValue>    &lt;/DZipCode>    &lt;DState>      &lt;ParamName>DState&lt;/ParamName>      &lt;ParamId>20019&lt;/ParamId>      &lt;ParamValue> &lt;/ParamValue>    &lt;/DState>    &lt;DCity>      &lt;ParamName>DCity&lt;/ParamName>      &lt;ParamId>20018&lt;/ParamId>      &lt;ParamValue> &lt;/ParamValue>    &lt;/DCity>    &lt;DCounty>      &lt;ParamName>DCounty&lt;/ParamName>      &lt;ParamValue> &lt;/ParamValue>      &lt;ParamId>20017&lt;/ParamId>    &lt;/DCounty>    &lt;DAddress3>      &lt;ParamName>DAddress3&lt;/ParamName>      &lt;ParamId>20016&lt;/ParamId>      &lt;ParamValue> &lt;/ParamValue>    &lt;/DAddress3>    &lt;DAddress2>      &lt;ParamName>DAddress2&lt;/ParamName>      &lt;ParamValue> &lt;/ParamValue>      &lt;ParamId>20015&lt;/ParamId>    &lt;/DAddress2>    &lt;DAddress1>      &lt;ParamName>DAddress1&lt;/ParamName>      &lt;ParamId>20014&lt;/ParamId>      &lt;ParamValue> &lt;/ParamValue>    &lt;/DAddress1>    &lt;DCompanyName>      &lt;ParamName>DCompanyName&lt;/ParamName>      &lt;ParamId>20013&lt;/ParamId>      &lt;ParamValue> &lt;/ParamValue>    &lt;/DCompanyName>    &lt;DLastName>      &lt;ParamName>DLastName&lt;/ParamName>      &lt;ParamId>20012&lt;/ParamId>      &lt;ParamValue> &lt;/ParamValue>    &lt;/DLastName>    &lt;DFirstName>      &lt;ParamName>DFirstName&lt;/ParamName>      &lt;ParamId>20011&lt;/ParamId>      &lt;ParamValue> &lt;/ParamValue>    &lt;/DFirstName>    &lt;DTitle>      &lt;ParamName>DTitle&lt;/ParamName>      &lt;ParamId>20010&lt;/ParamId>      &lt;ParamValue> &lt;/ParamValue>    &lt;/DTitle>    &lt;DCountry>      &lt;ParamName>DCountry&lt;/ParamName>      &lt;ParamValue> &lt;/ParamValue>      &lt;ParamId>20021&lt;/ParamId>    &lt;/DCountry>    &lt;VatDisplay>      &lt;ParamName>VatDisplay&lt;/ParamName>      &lt;ParamValue>1&lt;/ParamValue>      &lt;ParamId>20022&lt;/ParamId>    &lt;/VatDisplay>    &lt;DeliVatThaiTitleLkp>      &lt;ParamId>20033&lt;/ParamId>      &lt;ParamName>DeliVatThaiTitleLkp&lt;/ParamName>      &lt;ParamValue>นาย&lt;/ParamValue>    &lt;/DeliVatThaiTitleLkp>    &lt;DeliVatFirstName>      &lt;ParamId>20034&lt;/ParamId>      &lt;ParamName>DeliVatFirstName&lt;/ParamName>      &lt;ParamValue> &lt;/ParamValue>    &lt;/DeliVatFirstName>    &lt;DeliVatLastName>      &lt;ParamId>20035&lt;/ParamId>      &lt;ParamName>DeliVatLastName&lt;/ParamName>      &lt;ParamValue> &lt;/ParamValue>    &lt;/DeliVatLastName>    &lt;DeliVatCompName>      &lt;ParamId>20037&lt;/ParamId>      &lt;ParamName>DeliVatCompName&lt;/ParamName>      &lt;ParamValue> &lt;/ParamValue>    &lt;/DeliVatCompName>    &lt;DeliVatAddrLine1>      &lt;ParamId>20038&lt;/ParamId>      &lt;ParamName>DeliVatAddrLine1&lt;/ParamName>      &lt;ParamValue> &lt;/ParamValue>    &lt;/DeliVatAddrLine1>    &lt;DeliVatAddrLine2>      &lt;ParamId>20039&lt;/ParamId>      &lt;ParamName>DeliVatAddrLine2&lt;/ParamName>      &lt;ParamValue> &lt;/ParamValue>    &lt;/DeliVatAddrLine2>    &lt;DeliVatAddrLine3>      &lt;ParamId>20040&lt;/ParamId>      &lt;ParamName>DeliVatAddrLine3&lt;/ParamName>      &lt;ParamValue> &lt;/ParamValue>    &lt;/DeliVatAddrLine3>    &lt;DeliVatAddrLine4>      &lt;ParamId>20041&lt;/ParamId>      &lt;ParamName>DeliVatAddrLine4&lt;/ParamName>      &lt;ParamValue> &lt;/ParamValue>    &lt;/DeliVatAddrLine4>    &lt;DeliVatAddrKhetAmphur>      &lt;ParamId>20042&lt;/ParamId>      &lt;ParamName>DeliVatAddrKhetAmphur&lt;/ParamName>      &lt;ParamValue> &lt;/ParamValue>    &lt;/DeliVatAddrKhetAmphur>    &lt;DeliVatAddrProvinceLkp>      &lt;ParamId>20043&lt;/ParamId>      &lt;ParamName>DeliVatAddrProvinceLkp&lt;/ParamName>      &lt;ParamValue> &lt;/ParamValue>    &lt;/DeliVatAddrProvinceLkp>    &lt;DeliVatAddrPostCode>      &lt;ParamId>20044&lt;/ParamId>      &lt;ParamName>DeliVatAddrPostCode&lt;/ParamName>      &lt;ParamValue> &lt;/ParamValue>    &lt;/DeliVatAddrPostCode>    &lt;DeliVatAddrCountryLkp>      &lt;ParamId>20045&lt;/ParamId>      &lt;ParamName>DeliVatAddrCountryLkp&lt;/ParamName>      &lt;ParamValue> &lt;/ParamValue>    &lt;/DeliVatAddrCountryLkp>    &lt;InternalSalesRef>      &lt;ParamValue> &lt;/ParamValue>      &lt;ParamId>20060&lt;/ParamId>      &lt;ParamName>InternalSalesRef&lt;/ParamName>    &lt;/InternalSalesRef>    &lt;SalesName>      &lt;ParamValue> &lt;/ParamValue>      &lt;ParamId>20061&lt;/ParamId>      &lt;ParamName>SalesName&lt;/ParamName>    &lt;/SalesName>    &lt;SalesTerritory>      &lt;ParamValue> &lt;/ParamValue>      &lt;ParamId>20062&lt;/ParamId>      &lt;ParamName>SalesTerritory&lt;/ParamName>    &lt;/SalesTerritory>  &lt;/Account>  &lt;Result>    &lt;Code>0&lt;/Code>    &lt;Text>Success&lt;/Text>  &lt;/Result>&lt;/p:UpdateAccountResponseBilling>]]&gt;</InputData>    <ESBReturnCode>ESBWPS0000</ESBReturnCode>    <ESBReturnDetails>This is a normal situation.</ESBReturnDetails>    <DestinationReturnCode>0</DestinationReturnCode>    <DestinationReturnDetails>Success</DestinationReturnDetails>    <LogStatus>true</LogStatus>    <TransactionType>Response</TransactionType>    <DataLog>true</DataLog>  </TransactionLog>  <Account>    <DestinationAccountId>1103253</DestinationAccountId>    <AccountCategory>3</AccountCategory>    <ThaiTitle>นาย</ThaiTitle>    <ThaiFirstName>TestFName </ThaiFirstName>    <ThaiLastName>TestLName</ThaiLastName>    <eMailAddress>test@test.com</eMailAddress>    <BusinessType>311</BusinessType>    <CompanyTaxId>3100400000009</CompanyTaxId>    <Address>      <Tambon>บางกระสอ</Tambon>      <City>อ.เมืองนนทบุรี</City>      <State>จ.นนทบุรี</State>      <PostalCode>11000</PostalCode>      <AddressLine1>11 หมู่ 12 หมู่บ้าน 14</AddressLine1>      <AddressLine2>1415</AddressLine2>      <AddressLine3>16</AddressLine3>      <CustAddress1>11 หมู่ 12 หมู่บ้าน 14</CustAddress1>      <CustAddress2>1415</CustAddress2>      <CustAddress3>16</CustAddress3>      <VatTitle>นาย</VatTitle>      <VatFName>TestFname</VatFName>      <VatLName>testLname</VatLName>      <CustCity>อ.เมืองนนทบุรี</CustCity>      <CustState>จ.นนทบุรี</CustState>      <CustZipCode>11000</CustZipCode>      <CustTambon>ต.บางกระสอ</CustTambon>      <CustCountryCode>TH</CustCountryCode>      <CustGeocode>764001000000000</CustGeocode>      <CountryCode>TH</CountryCode>      <GeoCode>764001000000000</GeoCode>    </Address>    <CurrencyCode>th_TH</CurrencyCode>    <BillPeriod>M01</BillPeriod>    <VipCode>0</VipCode>    <RateClassDefault>1</RateClassDefault>    <CollectionStatus>0</CollectionStatus>    <TAXExemp>1</TAXExemp>    <MarketCode>20000</MarketCode>    <CustomerServiceCenter>      <Key>        <ServiceCenterType>4</ServiceCenterType>      </Key>      <ChgDate>2019-08-26T18:22:18Z</ChgDate>      <ChgWho>aruba                         </ChgWho>      <ServiceCenterId>3000</ServiceCenterId>    </CustomerServiceCenter>    <AccountStatus>1</AccountStatus>    <DateActive>2018-08-25T00:00:00Z</DateActive>    <ExrateClass>1</ExrateClass>    <BillFmtOpt>1</BillFmtOpt>    <BillDispMeth>1</BillDispMeth>    <AccountStatusDt>2019-08-26T18:22:18Z</AccountStatusDt>    <Billable>true</Billable>    <CreditLimit>0</CreditLimit>    <OwningCostCtr>9000</OwningCostCtr>    <DZipCode>      <ParamName>DZipCode</ParamName>      <ParamId>20020</ParamId>      <ParamValue> </ParamValue>    </DZipCode>    <DState>      <ParamName>DState</ParamName>      <ParamId>20019</ParamId>      <ParamValue> </ParamValue>    </DState>    <DCity>      <ParamName>DCity</ParamName>      <ParamId>20018</ParamId>      <ParamValue> </ParamValue>    </DCity>    <DCounty>      <ParamName>DCounty</ParamName>      <ParamValue> </ParamValue>      <ParamId>20017</ParamId>    </DCounty>    <DAddress3>      <ParamName>DAddress3</ParamName>      <ParamId>20016</ParamId>      <ParamValue> </ParamValue>    </DAddress3>    <DAddress2>      <ParamName>DAddress2</ParamName>      <ParamId>20015</ParamId>      <ParamValue> </ParamValue>    </DAddress2>    <DAddress1>      <ParamName>DAddress1</ParamName>      <ParamId>20014</ParamId>      <ParamValue> </ParamValue>    </DAddress1>    <DCompanyName>      <ParamName>DCompanyName</ParamName>      <ParamId>20013</ParamId>      <ParamValue> </ParamValue>    </DCompanyName>    <DLastName>      <ParamName>DLastName</ParamName>      <ParamId>20012</ParamId>      <ParamValue> </ParamValue>    </DLastName>    <DFirstName>      <ParamName>DFirstName</ParamName>      <ParamId>20011</ParamId>      <ParamValue> </ParamValue>    </DFirstName>    <DTitle>      <ParamName>DTitle</ParamName>      <ParamId>20010</ParamId>      <ParamValue> </ParamValue>    </DTitle>    <DCountry>      <ParamName>DCountry</ParamName>      <ParamValue> </ParamValue>      <ParamId>20021</ParamId>    </DCountry>    <VatDisplay>      <ParamName>VatDisplay</ParamName>      <ParamValue>1</ParamValue>      <ParamId>20022</ParamId>    </VatDisplay>    <StatementToEmail>test@test.com</StatementToEmail>    <DeliVatThaiTitleLkp>      <ParamId>20033</ParamId>      <ParamName>DeliVatThaiTitleLkp</ParamName>      <ParamValue>นาย</ParamValue>    </DeliVatThaiTitleLkp>    <DeliVatFirstName>      <ParamId>20034</ParamId>      <ParamName>DeliVatFirstName</ParamName>      <ParamValue> </ParamValue>    </DeliVatFirstName>    <DeliVatLastName>      <ParamId>20035</ParamId>      <ParamName>DeliVatLastName</ParamName>      <ParamValue> </ParamValue>    </DeliVatLastName>    <DeliVatCompName>      <ParamId>20037</ParamId>      <ParamName>DeliVatCompName</ParamName>      <ParamValue> </ParamValue>    </DeliVatCompName>    <DeliVatAddrLine1>      <ParamId>20038</ParamId>      <ParamName>DeliVatAddrLine1</ParamName>      <ParamValue> </ParamValue>    </DeliVatAddrLine1>    <DeliVatAddrLine2>      <ParamId>20039</ParamId>      <ParamName>DeliVatAddrLine2</ParamName>      <ParamValue> </ParamValue>    </DeliVatAddrLine2>    <DeliVatAddrLine3>      <ParamId>20040</ParamId>      <ParamName>DeliVatAddrLine3</ParamName>      <ParamValue> </ParamValue>    </DeliVatAddrLine3>    <DeliVatAddrLine4>      <ParamId>20041</ParamId>      <ParamName>DeliVatAddrLine4</ParamName>      <ParamValue> </ParamValue>    </DeliVatAddrLine4>    <DeliVatAddrKhetAmphur>      <ParamId>20042</ParamId>      <ParamName>DeliVatAddrKhetAmphur</ParamName>      <ParamValue> </ParamValue>    </DeliVatAddrKhetAmphur>    <DeliVatAddrProvinceLkp>      <ParamId>20043</ParamId>      <ParamName>DeliVatAddrProvinceLkp</ParamName>      <ParamValue> </ParamValue>    </DeliVatAddrProvinceLkp>    <DeliVatAddrPostCode>      <ParamId>20044</ParamId>      <ParamName>DeliVatAddrPostCode</ParamName>      <ParamValue> </ParamValue>    </DeliVatAddrPostCode>    <DeliVatAddrCountryLkp>      <ParamId>20045</ParamId>      <ParamName>DeliVatAddrCountryLkp</ParamName>      <ParamValue> </ParamValue>    </DeliVatAddrCountryLkp>    <InternalSalesRef>      <ParamValue> </ParamValue>      <ParamId>20060</ParamId>      <ParamName>InternalSalesRef</ParamName>    </InternalSalesRef>    <SalesName>      <ParamValue> </ParamValue>      <ParamId>20061</ParamId>      <ParamName>SalesName</ParamName>    </SalesName>    <SalesTerritory>      <ParamValue> </ParamValue>      <ParamId>20062</ParamId>      <ParamName>SalesTerritory</ParamName>    </SalesTerritory>  </Account></p:UpdateAccountResponse>]]>",
        "requestDateTime": "2019-08-26T11:22:17.730Z",
        "responseDateTime": "2019-08-26T11:22:17.775Z",
        "sourceInterfaceType": "W",
        "sourceSystem": "OM",
        "tranID": "201908200720",
        "transactionType": "Response"
    },
    "HPESARequestTime": "2019-08-26 18:23:02 544 +0700",
    "HPESAResponseTime": "2019-08-26 18:23:28 292 +0700"
}