{
  "order": {
    "destinationOrderId": "402833003",
    "interfaceNumber": "UDB_A38",
    "orderLineItem": [
      {
        "billingServiceInternalId": 2333820,
        "billingServiceInternalIdConcat": "null|2333820|0",
        "billingServiceInternalIdResets": 0,
        "currencyCode": "th_TH",
        "dynamicProps": [
          {
            "fieldName": "ParamName",
            "fieldType": "Services.AnnounceDate"
          },
          {
            "fieldName": "ParamId",
            "fieldType": "Services.AnnounceDate"
          },
          {
            "fieldName": "ParamValue",
            "fieldType": "Services.AnnounceDate"
          },
          {
            "fieldName": "ParamName",
            "fieldType": "Services.MarketName"
          },
          {
            "fieldName": "ParamId",
            "fieldType": "Services.MarketName"
          },
          {
            "fieldName": "ParamValue",
            "fieldType": "Services.MarketName"
          },
          {
            "fieldName": "ParamName",
            "fieldType": "Services.AuctionDate"
          },
          {
            "fieldName": "ParamId",
            "fieldType": "Services.AuctionDate"
          },
          {
            "fieldName": "ParamValue",
            "fieldType": "Services.AuctionDate"
          },
          {
            "fieldName": "ParamName",
            "fieldType": "Services.MarketOwner"
          },
          {
            "fieldName": "ParamId",
            "fieldType": "Services.MarketOwner"
          },
          {
            "fieldName": "ParamValue",
            "fieldType": "Services.MarketOwner"
          },
          {
            "fieldName": "ParamName",
            "fieldType": "Services.IDNumber"
          },
          {
            "fieldName": "ParamId",
            "fieldType": "Services.IDNumber"
          },
          {
            "fieldName": "ParamValue",
            "fieldType": "Services.IDNumber"
          },
          {
            "fieldName": "ParamName",
            "fieldType": "Services.CoreNo"
          },
          {
            "fieldName": "ParamId",
            "fieldType": "Services.CoreNo"
          },
          {
            "fieldName": "ParamValue",
            "fieldType": "Services.CoreNo"
          },
          {
            "fieldName": "ParamName",
            "fieldType": "Services.Distance"
          },
          {
            "fieldName": "ParamId",
            "fieldType": "Services.Distance"
          },
          {
            "fieldName": "ParamValue",
            "fieldType": "Services.Distance"
          },
          {
            "fieldName": "ParamName",
            "fieldType": "Services.Flag"
          },
          {
            "fieldName": "ParamId",
            "fieldType": "Services.Flag"
          },
          {
            "fieldName": "ParamValue",
            "fieldType": "Services.Flag"
          },
          {
            "fieldName": "ParamName",
            "fieldType": "Services.Description"
          },
          {
            "fieldName": "ParamId",
            "fieldType": "Services.Description"
          },
          {
            "fieldName": "ParamValue",
            "fieldType": "Services.Description"
          },
          {
            "fieldName": "ParamName",
            "fieldType": "Services.ContractDate"
          },
          {
            "fieldName": "ParamId",
            "fieldType": "Services.ContractDate"
          },
          {
            "fieldName": "ParamValue",
            "fieldType": "Services.ContractDate"
          },
          {
            "fieldName": "ParamName",
            "fieldType": "Services.ContractEndDT"
          },
          {
            "fieldName": "ParamId",
            "fieldType": "Services.ContractEndDT"
          },
          {
            "fieldName": "ParamValue",
            "fieldType": "Services.ContractEndDT"
          },
          {
            "fieldName": "ParamName",
            "fieldType": "Services.ContractStartDT"
          },
          {
            "fieldName": "ParamId",
            "fieldType": "Services.ContractStartDT"
          },
          {
            "fieldName": "ParamValue",
            "fieldType": "Services.ContractStartDT"
          },
          {
            "fieldName": "ParamName",
            "fieldType": "Services.PortInter"
          },
          {
            "fieldName": "ParamId",
            "fieldType": "Services.PortInter"
          },
          {
            "fieldName": "ParamValue",
            "fieldType": "Services.PortInter"
          },
          {
            "fieldName": "ParamName",
            "fieldType": "Services.PortLocal"
          },
          {
            "fieldName": "ParamId",
            "fieldType": "Services.PortLocal"
          },
          {
            "fieldName": "ParamValue",
            "fieldType": "Services.PortLocal"
          },
          {
            "fieldName": "ParamName",
            "fieldType": "Services.PortInterUnit"
          },
          {
            "fieldName": "ParamId",
            "fieldType": "Services.PortInterUnit"
          },
          {
            "fieldName": "ParamValue",
            "fieldType": "Services.PortInterUnit"
          },
          {
            "fieldName": "ParamName",
            "fieldType": "Services.PortLocalUnit"
          },
          {
            "fieldName": "ParamId",
            "fieldType": "Services.PortLocalUnit"
          },
          {
            "fieldName": "ParamValue",
            "fieldType": "Services.PortLocalUnit"
          },
          {
            "fieldName": "ParamName",
            "fieldType": "Services.Speed"
          },
          {
            "fieldName": "ParamId",
            "fieldType": "Services.Speed"
          },
          {
            "fieldName": "ParamValue",
            "fieldType": "Services.Speed"
          },
          {
            "fieldName": "ParamName",
            "fieldType": "Services.SpeedDownload"
          },
          {
            "fieldName": "ParamId",
            "fieldType": "Services.SpeedDownload"
          },
          {
            "fieldName": "ParamValue",
            "fieldType": "Services.SpeedDownload"
          },
          {
            "fieldName": "ParamName",
            "fieldType": "Services.SpeedUpload"
          },
          {
            "fieldName": "ParamId",
            "fieldType": "Services.SpeedUpload"
          },
          {
            "fieldName": "ParamValue",
            "fieldType": "Services.SpeedUpload"
          },
          {
            "fieldName": "ParamName",
            "fieldType": "Services.SpeedUnit"
          },
          {
            "fieldName": "ParamId",
            "fieldType": "Services.SpeedUnit"
          },
          {
            "fieldName": "ParamValue",
            "fieldType": "Services.SpeedUnit"
          },
          {
            "fieldName": "ParamName",
            "fieldType": "Services.DownloadUnit"
          },
          {
            "fieldName": "ParamId",
            "fieldType": "Services.DownloadUnit"
          },
          {
            "fieldName": "ParamValue",
            "fieldType": "Services.DownloadUnit"
          },
          {
            "fieldName": "ParamName",
            "fieldType": "Services.UploadUnit"
          },
          {
            "fieldName": "ParamId",
            "fieldType": "Services.UploadUnit"
          },
          {
            "fieldName": "ParamValue",
            "fieldType": "Services.UploadUnit"
          },
          {
            "fieldName": "ParamName",
            "fieldType": "Services.Destination"
          },
          {
            "fieldName": "ParamId",
            "fieldType": "Services.Destination"
          },
          {
            "fieldName": "ParamValue",
            "fieldType": "Services.Destination"
          },
          {
            "fieldName": "ParamName",
            "fieldType": "Services.Operator"
          },
          {
            "fieldName": "ParamId",
            "fieldType": "Services.Operator"
          },
          {
            "fieldName": "ParamValue",
            "fieldType": "Services.Operator"
          },
          {
            "fieldName": "ParamName",
            "fieldType": "Services.ContractTerm"
          },
          {
            "fieldName": "ParamId",
            "fieldType": "Services.ContractTerm"
          },
          {
            "fieldName": "ParamValue",
            "fieldType": "Services.ContractTerm"
          },
          {
            "fieldName": "ParamName",
            "fieldType": "Services.InstallationName"
          },
          {
            "fieldName": "ParamId",
            "fieldType": "Services.InstallationName"
          },
          {
            "fieldName": "ParamValue",
            "fieldType": "Services.InstallationName"
          },
          {
            "fieldName": "ParamName",
            "fieldType": "Services.InstallationAddress"
          },
          {
            "fieldName": "ParamId",
            "fieldType": "Services.InstallationAddress"
          },
          {
            "fieldName": "ParamValue",
            "fieldType": "Services.InstallationAddress"
          },
          {
            "fieldName": "ParamName",
            "fieldType": "Services.MergeService"
          },
          {
            "fieldName": "ParamId",
            "fieldType": "Services.MergeService"
          },
          {
            "fieldName": "ParamValue",
            "fieldType": "Services.MergeService"
          },
          {
            "fieldName": "ParamName",
            "fieldType": "Services.HideCATID"
          },
          {
            "fieldName": "ParamId",
            "fieldType": "Services.HideCATID"
          },
          {
            "fieldName": "ParamValue",
            "fieldType": "Services.HideCATID"
          }
        ],
        "paymentType": "SI",
        "productType": "SI",
        "serviceLineId": "201908221010",
        "sourceLineItemId": "20190822101001"
      },
      {
        "activeDt": "2019-08-26T00:00:00Z",
        "billingComponentId": 911060090,
        "billingComponentInternalIdConcat": "4465017|3",
        "billingPackageId": 110477,
        "billingPackageInternalIdConcat": "2341544|3",
        "billingServiceInternalIdConcat": " |2333820|0",
        "dynamicProps": [
          {
            "fieldName": "TrackingId",
            "fieldType": "COMP.ProductRateOverride.Key"
          },
          {
            "fieldName": "TrackingIdServ",
            "fieldType": "COMP.ProductRateOverride.Key"
          },
          {
            "fieldName": "ActiveDt",
            "fieldType": "COMP.ProductRateOverride.Key"
          },
          {
            "fieldName": "ViewId",
            "fieldType": "COMP.ProductRateOverride"
          },
          {
            "fieldName": "CurrencyCode",
            "fieldType": "COMP.ProductRateOverride"
          },
          {
            "fieldName": "OverrideRate",
            "fieldType": "COMP.ProductRateOverride"
          },
          {
            "fieldName": "ViewId",
            "fieldType": "COMP.Nrc"
          },
          {
            "fieldName": "RateDt",
            "fieldType": "COMP.Nrc"
          },
          {
            "fieldName": "Rate",
            "fieldType": "COMP.Nrc"
          },
          {
            "fieldName": "ArchFlag",
            "fieldType": "COMP.Nrc"
          },
          {
            "fieldName": "ParentServiceInternalIdResets",
            "fieldType": "COMP.Nrc"
          },
          {
            "fieldName": "CurrentInstallment",
            "fieldType": "COMP.Nrc"
          },
          {
            "fieldName": "BillRefResets",
            "fieldType": "COMP.Nrc"
          },
          {
            "fieldName": "ChgWho",
            "fieldType": "COMP.Nrc"
          },
          {
            "fieldName": "ParentServiceInternalId",
            "fieldType": "COMP.Nrc"
          },
          {
            "fieldName": "EffectiveDate",
            "fieldType": "COMP.Nrc"
          },
          {
            "fieldName": "DateNrcJournalable",
            "fieldType": "COMP.Nrc"
          },
          {
            "fieldName": "TypeIdNrc",
            "fieldType": "COMP.Nrc"
          },
          {
            "fieldName": "ViewCreatedDt",
            "fieldType": "COMP.Nrc"
          },
          {
            "fieldName": "OpenItemId",
            "fieldType": "COMP.Nrc"
          },
          {
            "fieldName": "CreateDt",
            "fieldType": "COMP.Nrc"
          },
          {
            "fieldName": "IntendedViewEffectiveDt",
            "fieldType": "COMP.Nrc"
          },
          {
            "fieldName": "CurrencyCode",
            "fieldType": "COMP.Nrc"
          },
          {
            "fieldName": "BillRefNo",
            "fieldType": "COMP.Nrc"
          },
          {
            "fieldName": "TransactDate",
            "fieldType": "COMP.Nrc"
          },
          {
            "fieldName": "TransSign",
            "fieldType": "COMP.Nrc"
          },
          {
            "fieldName": "ContractTrackingId",
            "fieldType": "COMP.Nrc"
          },
          {
            "fieldName": "ContractAssociationType",
            "fieldType": "COMP.Nrc"
          },
          {
            "fieldName": "TrackingId",
            "fieldType": "COMP.Nrc"
          },
          {
            "fieldName": "BillingAccountInternalId",
            "fieldType": "COMP.Nrc"
          },
          {
            "fieldName": "ParentTrackingIdServ",
            "fieldType": "COMP.Nrc"
          },
          {
            "fieldName": "ParentTrackingId",
            "fieldType": "COMP.Nrc"
          },
          {
            "fieldName": "NoBill",
            "fieldType": "COMP.Nrc"
          },
          {
            "fieldName": "ContractTrackingIdServ",
            "fieldType": "COMP.Nrc"
          },
          {
            "fieldName": "TrackingIdServ",
            "fieldType": "COMP.Nrc"
          },
          {
            "fieldName": "ChgDt",
            "fieldType": "COMP.Nrc"
          },
          {
            "fieldName": "ViewStatus",
            "fieldType": "COMP.Nrc"
          },
          {
            "fieldName": "TotalInstallments",
            "fieldType": "COMP.Nrc"
          },
          {
            "fieldName": "LastReviewedBy",
            "fieldType": "COMP.Nrc"
          },
          {
            "fieldName": "ViewEffectiveDt",
            "fieldType": "COMP.Nrc"
          },
          {
            "fieldName": "RequestStatus",
            "fieldType": "COMP.Nrc"
          },
          {
            "fieldName": "ViewId",
            "fieldType": "COMP.Nrc.Key"
          },
          {
            "fieldName": "TrackingId",
            "fieldType": "COMP.ProductRateKey.Key"
          },
          {
            "fieldName": "TrackingIdServ",
            "fieldType": "COMP.ProductRateKey.Key"
          },
          {
            "fieldName": "ActiveDt",
            "fieldType": "COMP.ProductRateKey.Key"
          },
          {
            "fieldName": "ViewId",
            "fieldType": "COMP.ProductRateKey"
          },
          {
            "fieldName": "RateJurisdiction",
            "fieldType": "COMP.ProductRateKey"
          },
          {
            "fieldName": "RateUnits",
            "fieldType": "COMP.ProductRateKey"
          },
          {
            "fieldName": "UnitsType",
            "fieldType": "COMP.ProductRateKey"
          },
          {
            "fieldName": "Units",
            "fieldType": "COMP.ProductRateKey"
          },
          {
            "fieldName": "ActionType",
            "fieldType": "COMP.ProductRateKey"
          },
          {
            "fieldName": "ActionType",
            "fieldType": "COMP.ProductRateOverride"
          },
          {
            "fieldName": "ActionType",
            "fieldType": "COMP.Nrc"
          },
          {
            "fieldName": "CorridorPlanId",
            "fieldType": "COMP.Corridor"
          },
          {
            "fieldName": "ActiveDt",
            "fieldType": "COMP.Corridor"
          },
          {
            "fieldName": "InactiveDt",
            "fieldType": "COMP.Corridor"
          }
        ],
        "paymentType": "COMP",
        "productType": "COMP",
        "serviceAccount": {
          "billingServerId": 3,
          "destinationAccountId": 1103253
        },
        "sourceLineItemId": "20190822101003",
        "statusFlag": "0"
      }
    ],
    "orderType": "CCN",
    "sourceOrderId": "201908221012"
  },
  "transactionLog": {
    "dataLog": true,
    "destinationInterfaceType": "K",
    "destinationReturnCode": "0",
    "destinationReturnDetails": "Success",
    "destinationSystem": "Billing",
    "esbReturnCode": "ESBWPS0000",
    "esbReturnDetails": "This is a normal situation.",
    "inputData": "<![CDATA[<?xml version=\"1.0\" encoding=\"UTF-8\"?><p:UpdateServiceComponentResponseBilling xsi:type=\"p:UpdateServiceComponentResponseBilling\" xmlns:xsi=\"http://www.w3.org/2001/XMLSchema-instance\" xmlns:p=\"http://KenanLibs/RequestResponseBO/A38\">  <Account>    <Key>      <AccountInternalId>1103253</AccountInternalId>    </Key>    <ServerId>3</ServerId>    <OrderedService>      <CurrencyCode>12</CurrencyCode>      <ServiceInternalId>2333820</ServiceInternalId>      <ServiceInternalIdResets>0</ServiceInternalIdResets>      <OrderId>402833003</OrderId>      <SourceLineItemId>20190822101001</SourceLineItemId>      <OrderedComponent>        <Component>          <Key>            <ComponentInstId>4465017</ComponentInstId>            <ComponentInstIdServ>3</ComponentInstIdServ>          </Key>          <ActiveDt>2019-08-26T00:00:00Z</ActiveDt>          <ComponentId>911060090</ComponentId>          <ComponentStatus>0</ComponentStatus>          <ConnectReason>1</ConnectReason>          <PackageId>110477</PackageId>          <PackageInstId>2341544</PackageInstId>          <PackageInstIdServ>3</PackageInstIdServ>          <ParentAccountInternalId>1103253</ParentAccountInternalId>          <ParentServiceInternalId>2333820</ParentServiceInternalId>          <ParentServiceInternalIdResets>0</ParentServiceInternalIdResets>          <SourceLineItemId>20190822101003</SourceLineItemId>        </Component>      </OrderedComponent>      <ServiceLineId>201908221010</ServiceLineId>      <AnnounceDate/>      <MarketName/>      <AuctionDate/>      <MarketOwner/>      <IDNumber/>      <CoreNo/>      <Distance/>      <Flag/>      <Description/>      <ContractDate/>      <ContractStartDT/>      <ContractEndDT/>      <PortInter/>      <PortLocal/>      <PortInterUnit/>      <PortLocalUnit/>      <Speed/>      <SpeedDownload/>      <SpeedUpload/>      <SpeedUnit/>      <DownloadUnit/>      <UploadUnit/>      <ContractTerm/>      <Destination/>      <Operator/>      <InstallationName/>      <MergeService/>      <Po/>      <HideCATID/>    </OrderedService>    <Order>      <OrderNumber>201908221012</OrderNumber>    </Order>    <OrderType>CCN</OrderType>  </Account>  <Result>    <Code>0</Code>    <Text>Success</Text>  </Result></p:UpdateServiceComponentResponseBilling>]]>",
    "inputFilename": "N",
    "interfaceNo": "UDB_A38",
    "logStatus": true,
    "outputData": "<![CDATA[<?xml version=\"1.0\" encoding=\"UTF-8\"?><p:UpdateServiceComponentResponse xsi:type=\"p:UpdateServiceComponentResponse\" xmlns:xsi=\"http://www.w3.org/2001/XMLSchema-instance\" xmlns:p=\"http://ESBLibs/RequestResponseCBO/A38\">  <TransactionLog>    <TranID>20190825103012</TranID>    <InterfaceNo>UDB_A38</InterfaceNo>    <SourceSystem>OM</SourceSystem>    <SourceUsername>1188517003</SourceUsername>    <DestinationSystem>Billing</DestinationSystem>    <SourceInterfaceType>W</SourceInterfaceType>    <DestinationInterfaceType>K</DestinationInterfaceType>    <RequestDateTime>2019-08-27T08:54:17.555Z</RequestDateTime>    <ResponseDateTime>2019-08-27T08:54:17.592Z</ResponseDateTime>    <InputData>&lt;![CDATA[&lt;?xml version=&quot;1.0&quot; encoding=&quot;UTF-8&quot;?>&lt;p:UpdateServiceComponentResponseBilling xsi:type=&quot;p:UpdateServiceComponentResponseBilling&quot; xmlns:xsi=&quot;http://www.w3.org/2001/XMLSchema-instance&quot; xmlns:p=&quot;http://KenanLibs/RequestResponseBO/A38&quot;>  &lt;Account>    &lt;Key>      &lt;AccountInternalId>1103253&lt;/AccountInternalId>    &lt;/Key>    &lt;ServerId>3&lt;/ServerId>    &lt;OrderedService>      &lt;CurrencyCode>12&lt;/CurrencyCode>      &lt;ServiceInternalId>2333820&lt;/ServiceInternalId>      &lt;ServiceInternalIdResets>0&lt;/ServiceInternalIdResets>      &lt;OrderId>402833003&lt;/OrderId>      &lt;SourceLineItemId>20190822101001&lt;/SourceLineItemId>      &lt;OrderedComponent>        &lt;Component>          &lt;Key>            &lt;ComponentInstId>4465017&lt;/ComponentInstId>            &lt;ComponentInstIdServ>3&lt;/ComponentInstIdServ>          &lt;/Key>          &lt;ActiveDt>2019-08-26T00:00:00Z&lt;/ActiveDt>          &lt;ComponentId>911060090&lt;/ComponentId>          &lt;ComponentStatus>0&lt;/ComponentStatus>          &lt;ConnectReason>1&lt;/ConnectReason>          &lt;PackageId>110477&lt;/PackageId>          &lt;PackageInstId>2341544&lt;/PackageInstId>          &lt;PackageInstIdServ>3&lt;/PackageInstIdServ>          &lt;ParentAccountInternalId>1103253&lt;/ParentAccountInternalId>          &lt;ParentServiceInternalId>2333820&lt;/ParentServiceInternalId>          &lt;ParentServiceInternalIdResets>0&lt;/ParentServiceInternalIdResets>          &lt;SourceLineItemId>20190822101003&lt;/SourceLineItemId>        &lt;/Component>      &lt;/OrderedComponent>      &lt;ServiceLineId>201908221010&lt;/ServiceLineId>      &lt;AnnounceDate/>      &lt;MarketName/>      &lt;AuctionDate/>      &lt;MarketOwner/>      &lt;IDNumber/>      &lt;CoreNo/>      &lt;Distance/>      &lt;Flag/>      &lt;Description/>      &lt;ContractDate/>      &lt;ContractStartDT/>      &lt;ContractEndDT/>      &lt;PortInter/>      &lt;PortLocal/>      &lt;PortInterUnit/>      &lt;PortLocalUnit/>      &lt;Speed/>      &lt;SpeedDownload/>      &lt;SpeedUpload/>      &lt;SpeedUnit/>      &lt;DownloadUnit/>      &lt;UploadUnit/>      &lt;ContractTerm/>      &lt;Destination/>      &lt;Operator/>      &lt;InstallationName/>      &lt;MergeService/>      &lt;Po/>      &lt;HideCATID/>    &lt;/OrderedService>    &lt;Order>      &lt;OrderNumber>201908221012&lt;/OrderNumber>    &lt;/Order>    &lt;OrderType>CCN&lt;/OrderType>  &lt;/Account>  &lt;Result>    &lt;Code>0&lt;/Code>    &lt;Text>Success&lt;/Text>  &lt;/Result>&lt;/p:UpdateServiceComponentResponseBilling>]]&gt;</InputData>    <InputFilename>N</InputFilename>    <OutputFilename>Y</OutputFilename>    <ESBReturnCode>ESBWPS0000</ESBReturnCode>    <ESBReturnDetails>This is a normal situation.</ESBReturnDetails>    <DestinationReturnCode>0</DestinationReturnCode>    <DestinationReturnDetails>Success</DestinationReturnDetails>    <LogStatus>true</LogStatus>    <TransactionType>Response</TransactionType>    <DataLog>true</DataLog>  </TransactionLog>  <Order>    <DestinationOrderId>402833003</DestinationOrderId>    <OrderType>CCN</OrderType>    <SourceOrderId>201908221012</SourceOrderId>    <OrderLineItem>      <SourceLineItemId>20190822101001</SourceLineItemId>      <ProductType>SI</ProductType>      <BillingServiceInternalId>2333820</BillingServiceInternalId>      <BillingServiceInternalIdResets>0</BillingServiceInternalIdResets>      <BillingServiceInternalIdConcat>null|2333820|0</BillingServiceInternalIdConcat>      <ServiceLineId>201908221010</ServiceLineId>      <DynamicProps>        <fieldName>ParamName</fieldName>        <fieldType>Services.AnnounceDate</fieldType>      </DynamicProps>      <DynamicProps>        <fieldName>ParamId</fieldName>        <fieldType>Services.AnnounceDate</fieldType>      </DynamicProps>      <DynamicProps>        <fieldName>ParamValue</fieldName>        <fieldType>Services.AnnounceDate</fieldType>      </DynamicProps>      <DynamicProps>        <fieldName>ParamName</fieldName>        <fieldType>Services.MarketName</fieldType>      </DynamicProps>      <DynamicProps>        <fieldName>ParamId</fieldName>        <fieldType>Services.MarketName</fieldType>      </DynamicProps>      <DynamicProps>        <fieldName>ParamValue</fieldName>        <fieldType>Services.MarketName</fieldType>      </DynamicProps>      <DynamicProps>        <fieldName>ParamName</fieldName>        <fieldType>Services.AuctionDate</fieldType>      </DynamicProps>      <DynamicProps>        <fieldName>ParamId</fieldName>        <fieldType>Services.AuctionDate</fieldType>      </DynamicProps>      <DynamicProps>        <fieldName>ParamValue</fieldName>        <fieldType>Services.AuctionDate</fieldType>      </DynamicProps>      <DynamicProps>        <fieldName>ParamName</fieldName>        <fieldType>Services.MarketOwner</fieldType>      </DynamicProps>      <DynamicProps>        <fieldName>ParamId</fieldName>        <fieldType>Services.MarketOwner</fieldType>      </DynamicProps>      <DynamicProps>        <fieldName>ParamValue</fieldName>        <fieldType>Services.MarketOwner</fieldType>      </DynamicProps>      <DynamicProps>        <fieldName>ParamName</fieldName>        <fieldType>Services.IDNumber</fieldType>      </DynamicProps>      <DynamicProps>        <fieldName>ParamId</fieldName>        <fieldType>Services.IDNumber</fieldType>      </DynamicProps>      <DynamicProps>        <fieldName>ParamValue</fieldName>        <fieldType>Services.IDNumber</fieldType>      </DynamicProps>      <DynamicProps>        <fieldName>ParamName</fieldName>        <fieldType>Services.CoreNo</fieldType>      </DynamicProps>      <DynamicProps>        <fieldName>ParamId</fieldName>        <fieldType>Services.CoreNo</fieldType>      </DynamicProps>      <DynamicProps>        <fieldName>ParamValue</fieldName>        <fieldType>Services.CoreNo</fieldType>      </DynamicProps>      <DynamicProps>        <fieldName>ParamName</fieldName>        <fieldType>Services.Distance</fieldType>      </DynamicProps>      <DynamicProps>        <fieldName>ParamId</fieldName>        <fieldType>Services.Distance</fieldType>      </DynamicProps>      <DynamicProps>        <fieldName>ParamValue</fieldName>        <fieldType>Services.Distance</fieldType>      </DynamicProps>      <DynamicProps>        <fieldName>ParamName</fieldName>        <fieldType>Services.Flag</fieldType>      </DynamicProps>      <DynamicProps>        <fieldName>ParamId</fieldName>        <fieldType>Services.Flag</fieldType>      </DynamicProps>      <DynamicProps>        <fieldName>ParamValue</fieldName>        <fieldType>Services.Flag</fieldType>      </DynamicProps>      <DynamicProps>        <fieldName>ParamName</fieldName>        <fieldType>Services.Description</fieldType>      </DynamicProps>      <DynamicProps>        <fieldName>ParamId</fieldName>        <fieldType>Services.Description</fieldType>      </DynamicProps>      <DynamicProps>        <fieldName>ParamValue</fieldName>        <fieldType>Services.Description</fieldType>      </DynamicProps>      <DynamicProps>        <fieldName>ParamName</fieldName>        <fieldType>Services.ContractDate</fieldType>      </DynamicProps>      <DynamicProps>        <fieldName>ParamId</fieldName>        <fieldType>Services.ContractDate</fieldType>      </DynamicProps>      <DynamicProps>        <fieldName>ParamValue</fieldName>        <fieldType>Services.ContractDate</fieldType>      </DynamicProps>      <DynamicProps>        <fieldName>ParamName</fieldName>        <fieldType>Services.ContractEndDT</fieldType>      </DynamicProps>      <DynamicProps>        <fieldName>ParamId</fieldName>        <fieldType>Services.ContractEndDT</fieldType>      </DynamicProps>      <DynamicProps>        <fieldName>ParamValue</fieldName>        <fieldType>Services.ContractEndDT</fieldType>      </DynamicProps>      <DynamicProps>        <fieldName>ParamName</fieldName>        <fieldType>Services.ContractStartDT</fieldType>      </DynamicProps>      <DynamicProps>        <fieldName>ParamId</fieldName>        <fieldType>Services.ContractStartDT</fieldType>      </DynamicProps>      <DynamicProps>        <fieldName>ParamValue</fieldName>        <fieldType>Services.ContractStartDT</fieldType>      </DynamicProps>      <DynamicProps>        <fieldName>ParamName</fieldName>        <fieldType>Services.PortInter</fieldType>      </DynamicProps>      <DynamicProps>        <fieldName>ParamId</fieldName>        <fieldType>Services.PortInter</fieldType>      </DynamicProps>      <DynamicProps>        <fieldName>ParamValue</fieldName>        <fieldType>Services.PortInter</fieldType>      </DynamicProps>      <DynamicProps>        <fieldName>ParamName</fieldName>        <fieldType>Services.PortLocal</fieldType>      </DynamicProps>      <DynamicProps>        <fieldName>ParamId</fieldName>        <fieldType>Services.PortLocal</fieldType>      </DynamicProps>      <DynamicProps>        <fieldName>ParamValue</fieldName>        <fieldType>Services.PortLocal</fieldType>      </DynamicProps>      <DynamicProps>        <fieldName>ParamName</fieldName>        <fieldType>Services.PortInterUnit</fieldType>      </DynamicProps>      <DynamicProps>        <fieldName>ParamId</fieldName>        <fieldType>Services.PortInterUnit</fieldType>      </DynamicProps>      <DynamicProps>        <fieldName>ParamValue</fieldName>        <fieldType>Services.PortInterUnit</fieldType>      </DynamicProps>      <DynamicProps>        <fieldName>ParamName</fieldName>        <fieldType>Services.PortLocalUnit</fieldType>      </DynamicProps>      <DynamicProps>        <fieldName>ParamId</fieldName>        <fieldType>Services.PortLocalUnit</fieldType>      </DynamicProps>      <DynamicProps>        <fieldName>ParamValue</fieldName>        <fieldType>Services.PortLocalUnit</fieldType>      </DynamicProps>      <DynamicProps>        <fieldName>ParamName</fieldName>        <fieldType>Services.Speed</fieldType>      </DynamicProps>      <DynamicProps>        <fieldName>ParamId</fieldName>        <fieldType>Services.Speed</fieldType>      </DynamicProps>      <DynamicProps>        <fieldName>ParamValue</fieldName>        <fieldType>Services.Speed</fieldType>      </DynamicProps>      <DynamicProps>        <fieldName>ParamName</fieldName>        <fieldType>Services.SpeedDownload</fieldType>      </DynamicProps>      <DynamicProps>        <fieldName>ParamId</fieldName>        <fieldType>Services.SpeedDownload</fieldType>      </DynamicProps>      <DynamicProps>        <fieldName>ParamValue</fieldName>        <fieldType>Services.SpeedDownload</fieldType>      </DynamicProps>      <DynamicProps>        <fieldName>ParamName</fieldName>        <fieldType>Services.SpeedUpload</fieldType>      </DynamicProps>      <DynamicProps>        <fieldName>ParamId</fieldName>        <fieldType>Services.SpeedUpload</fieldType>      </DynamicProps>      <DynamicProps>        <fieldName>ParamValue</fieldName>        <fieldType>Services.SpeedUpload</fieldType>      </DynamicProps>      <DynamicProps>        <fieldName>ParamName</fieldName>        <fieldType>Services.SpeedUnit</fieldType>      </DynamicProps>      <DynamicProps>        <fieldName>ParamId</fieldName>        <fieldType>Services.SpeedUnit</fieldType>      </DynamicProps>      <DynamicProps>        <fieldName>ParamValue</fieldName>        <fieldType>Services.SpeedUnit</fieldType>      </DynamicProps>      <DynamicProps>        <fieldName>ParamName</fieldName>        <fieldType>Services.DownloadUnit</fieldType>      </DynamicProps>      <DynamicProps>        <fieldName>ParamId</fieldName>        <fieldType>Services.DownloadUnit</fieldType>      </DynamicProps>      <DynamicProps>        <fieldName>ParamValue</fieldName>        <fieldType>Services.DownloadUnit</fieldType>      </DynamicProps>      <DynamicProps>        <fieldName>ParamName</fieldName>        <fieldType>Services.UploadUnit</fieldType>      </DynamicProps>      <DynamicProps>        <fieldName>ParamId</fieldName>        <fieldType>Services.UploadUnit</fieldType>      </DynamicProps>      <DynamicProps>        <fieldName>ParamValue</fieldName>        <fieldType>Services.UploadUnit</fieldType>      </DynamicProps>      <DynamicProps>        <fieldName>ParamName</fieldName>        <fieldType>Services.Destination</fieldType>      </DynamicProps>      <DynamicProps>        <fieldName>ParamId</fieldName>        <fieldType>Services.Destination</fieldType>      </DynamicProps>      <DynamicProps>        <fieldName>ParamValue</fieldName>        <fieldType>Services.Destination</fieldType>      </DynamicProps>      <DynamicProps>        <fieldName>ParamName</fieldName>        <fieldType>Services.Operator</fieldType>      </DynamicProps>      <DynamicProps>        <fieldName>ParamId</fieldName>        <fieldType>Services.Operator</fieldType>      </DynamicProps>      <DynamicProps>        <fieldName>ParamValue</fieldName>        <fieldType>Services.Operator</fieldType>      </DynamicProps>      <DynamicProps>        <fieldName>ParamName</fieldName>        <fieldType>Services.ContractTerm</fieldType>      </DynamicProps>      <DynamicProps>        <fieldName>ParamId</fieldName>        <fieldType>Services.ContractTerm</fieldType>      </DynamicProps>      <DynamicProps>        <fieldName>ParamValue</fieldName>        <fieldType>Services.ContractTerm</fieldType>      </DynamicProps>      <DynamicProps>        <fieldName>ParamName</fieldName>        <fieldType>Services.InstallationName</fieldType>      </DynamicProps>      <DynamicProps>        <fieldName>ParamId</fieldName>        <fieldType>Services.InstallationName</fieldType>      </DynamicProps>      <DynamicProps>        <fieldName>ParamValue</fieldName>        <fieldType>Services.InstallationName</fieldType>      </DynamicProps>      <DynamicProps>        <fieldName>ParamName</fieldName>        <fieldType>Services.InstallationAddress</fieldType>      </DynamicProps>      <DynamicProps>        <fieldName>ParamId</fieldName>        <fieldType>Services.InstallationAddress</fieldType>      </DynamicProps>      <DynamicProps>        <fieldName>ParamValue</fieldName>        <fieldType>Services.InstallationAddress</fieldType>      </DynamicProps>      <DynamicProps>        <fieldName>ParamName</fieldName>        <fieldType>Services.MergeService</fieldType>      </DynamicProps>      <DynamicProps>        <fieldName>ParamId</fieldName>        <fieldType>Services.MergeService</fieldType>      </DynamicProps>      <DynamicProps>        <fieldName>ParamValue</fieldName>        <fieldType>Services.MergeService</fieldType>      </DynamicProps>      <DynamicProps>        <fieldName>ParamName</fieldName>        <fieldType>Services.HideCATID</fieldType>      </DynamicProps>      <DynamicProps>        <fieldName>ParamId</fieldName>        <fieldType>Services.HideCATID</fieldType>      </DynamicProps>      <DynamicProps>        <fieldName>ParamValue</fieldName>        <fieldType>Services.HideCATID</fieldType>      </DynamicProps>      <PaymentType>SI</PaymentType>      <CurrencyCode>th_TH</CurrencyCode>    </OrderLineItem>    <OrderLineItem>      <SourceLineItemId>20190822101003</SourceLineItemId>      <ServiceAccount>        <DestinationAccountId>1103253</DestinationAccountId>        <BillingServerId>3</BillingServerId>      </ServiceAccount>      <ProductType>COMP</ProductType>      <BillingPackageId>110477</BillingPackageId>      <BillingComponentId>911060090</BillingComponentId>      <ActiveDt>2019-08-26T00:00:00Z</ActiveDt>      <StatusFlag>0</StatusFlag>      <BillingServiceInternalIdConcat> |2333820|0</BillingServiceInternalIdConcat>      <BillingPackageInternalIdConcat>2341544|3</BillingPackageInternalIdConcat>      <BillingComponentInternalIdConcat>4465017|3</BillingComponentInternalIdConcat>      <DynamicProps>        <fieldName>TrackingId</fieldName>        <fieldType>COMP.ProductRateOverride.Key</fieldType>      </DynamicProps>      <DynamicProps>        <fieldName>TrackingIdServ</fieldName>        <fieldType>COMP.ProductRateOverride.Key</fieldType>      </DynamicProps>      <DynamicProps>        <fieldName>ActiveDt</fieldName>        <fieldType>COMP.ProductRateOverride.Key</fieldType>      </DynamicProps>      <DynamicProps>        <fieldName>ViewId</fieldName>        <fieldType>COMP.ProductRateOverride</fieldType>      </DynamicProps>      <DynamicProps>        <fieldName>CurrencyCode</fieldName>        <fieldType>COMP.ProductRateOverride</fieldType>      </DynamicProps>      <DynamicProps>        <fieldName>OverrideRate</fieldName>        <fieldType>COMP.ProductRateOverride</fieldType>      </DynamicProps>      <DynamicProps>        <fieldName>ViewId</fieldName>        <fieldType>COMP.Nrc</fieldType>      </DynamicProps>      <DynamicProps>        <fieldName>RateDt</fieldName>        <fieldType>COMP.Nrc</fieldType>      </DynamicProps>      <DynamicProps>        <fieldName>Rate</fieldName>        <fieldType>COMP.Nrc</fieldType>      </DynamicProps>      <DynamicProps>        <fieldName>ArchFlag</fieldName>        <fieldType>COMP.Nrc</fieldType>      </DynamicProps>      <DynamicProps>        <fieldName>ParentServiceInternalIdResets</fieldName>        <fieldType>COMP.Nrc</fieldType>      </DynamicProps>      <DynamicProps>        <fieldName>CurrentInstallment</fieldName>        <fieldType>COMP.Nrc</fieldType>      </DynamicProps>      <DynamicProps>        <fieldName>BillRefResets</fieldName>        <fieldType>COMP.Nrc</fieldType>      </DynamicProps>      <DynamicProps>        <fieldName>ChgWho</fieldName>        <fieldType>COMP.Nrc</fieldType>      </DynamicProps>      <DynamicProps>        <fieldName>ParentServiceInternalId</fieldName>        <fieldType>COMP.Nrc</fieldType>      </DynamicProps>      <DynamicProps>        <fieldName>EffectiveDate</fieldName>        <fieldType>COMP.Nrc</fieldType>      </DynamicProps>      <DynamicProps>        <fieldName>DateNrcJournalable</fieldName>        <fieldType>COMP.Nrc</fieldType>      </DynamicProps>      <DynamicProps>        <fieldName>TypeIdNrc</fieldName>        <fieldType>COMP.Nrc</fieldType>      </DynamicProps>      <DynamicProps>        <fieldName>ViewCreatedDt</fieldName>        <fieldType>COMP.Nrc</fieldType>      </DynamicProps>      <DynamicProps>        <fieldName>OpenItemId</fieldName>        <fieldType>COMP.Nrc</fieldType>      </DynamicProps>      <DynamicProps>        <fieldName>CreateDt</fieldName>        <fieldType>COMP.Nrc</fieldType>      </DynamicProps>      <DynamicProps>        <fieldName>IntendedViewEffectiveDt</fieldName>        <fieldType>COMP.Nrc</fieldType>      </DynamicProps>      <DynamicProps>        <fieldName>CurrencyCode</fieldName>        <fieldType>COMP.Nrc</fieldType>      </DynamicProps>      <DynamicProps>        <fieldName>BillRefNo</fieldName>        <fieldType>COMP.Nrc</fieldType>      </DynamicProps>      <DynamicProps>        <fieldName>TransactDate</fieldName>        <fieldType>COMP.Nrc</fieldType>      </DynamicProps>      <DynamicProps>        <fieldName>TransSign</fieldName>        <fieldType>COMP.Nrc</fieldType>      </DynamicProps>      <DynamicProps>        <fieldName>ContractTrackingId</fieldName>        <fieldType>COMP.Nrc</fieldType>      </DynamicProps>      <DynamicProps>        <fieldName>ContractAssociationType</fieldName>        <fieldType>COMP.Nrc</fieldType>      </DynamicProps>      <DynamicProps>        <fieldName>TrackingId</fieldName>        <fieldType>COMP.Nrc</fieldType>      </DynamicProps>      <DynamicProps>        <fieldName>BillingAccountInternalId</fieldName>        <fieldType>COMP.Nrc</fieldType>      </DynamicProps>      <DynamicProps>        <fieldName>ParentTrackingIdServ</fieldName>        <fieldType>COMP.Nrc</fieldType>      </DynamicProps>      <DynamicProps>        <fieldName>ParentTrackingId</fieldName>        <fieldType>COMP.Nrc</fieldType>      </DynamicProps>      <DynamicProps>        <fieldName>NoBill</fieldName>        <fieldType>COMP.Nrc</fieldType>      </DynamicProps>      <DynamicProps>        <fieldName>ContractTrackingIdServ</fieldName>        <fieldType>COMP.Nrc</fieldType>      </DynamicProps>      <DynamicProps>        <fieldName>TrackingIdServ</fieldName>        <fieldType>COMP.Nrc</fieldType>      </DynamicProps>      <DynamicProps>        <fieldName>ChgDt</fieldName>        <fieldType>COMP.Nrc</fieldType>      </DynamicProps>      <DynamicProps>        <fieldName>ViewStatus</fieldName>        <fieldType>COMP.Nrc</fieldType>      </DynamicProps>      <DynamicProps>        <fieldName>TotalInstallments</fieldName>        <fieldType>COMP.Nrc</fieldType>      </DynamicProps>      <DynamicProps>        <fieldName>LastReviewedBy</fieldName>        <fieldType>COMP.Nrc</fieldType>      </DynamicProps>      <DynamicProps>        <fieldName>ViewEffectiveDt</fieldName>        <fieldType>COMP.Nrc</fieldType>      </DynamicProps>      <DynamicProps>        <fieldName>RequestStatus</fieldName>        <fieldType>COMP.Nrc</fieldType>      </DynamicProps>      <DynamicProps>        <fieldName>ViewId</fieldName>        <fieldType>COMP.Nrc.Key</fieldType>      </DynamicProps>      <DynamicProps>        <fieldName>TrackingId</fieldName>        <fieldType>COMP.ProductRateKey.Key</fieldType>      </DynamicProps>      <DynamicProps>        <fieldName>TrackingIdServ</fieldName>        <fieldType>COMP.ProductRateKey.Key</fieldType>      </DynamicProps>      <DynamicProps>        <fieldName>ActiveDt</fieldName>        <fieldType>COMP.ProductRateKey.Key</fieldType>      </DynamicProps>      <DynamicProps>        <fieldName>ViewId</fieldName>        <fieldType>COMP.ProductRateKey</fieldType>      </DynamicProps>      <DynamicProps>        <fieldName>RateJurisdiction</fieldName>        <fieldType>COMP.ProductRateKey</fieldType>      </DynamicProps>      <DynamicProps>        <fieldName>RateUnits</fieldName>        <fieldType>COMP.ProductRateKey</fieldType>      </DynamicProps>      <DynamicProps>        <fieldName>UnitsType</fieldName>        <fieldType>COMP.ProductRateKey</fieldType>      </DynamicProps>      <DynamicProps>        <fieldName>Units</fieldName>        <fieldType>COMP.ProductRateKey</fieldType>      </DynamicProps>      <DynamicProps>        <fieldName>ActionType</fieldName>        <fieldType>COMP.ProductRateKey</fieldType>      </DynamicProps>      <DynamicProps>        <fieldName>ActionType</fieldName>        <fieldType>COMP.ProductRateOverride</fieldType>      </DynamicProps>      <DynamicProps>        <fieldName>ActionType</fieldName>        <fieldType>COMP.Nrc</fieldType>      </DynamicProps>      <DynamicProps>        <fieldName>CorridorPlanId</fieldName>        <fieldType>COMP.Corridor</fieldType>      </DynamicProps>      <DynamicProps>        <fieldName>ActiveDt</fieldName>        <fieldType>COMP.Corridor</fieldType>      </DynamicProps>      <DynamicProps>        <fieldName>InactiveDt</fieldName>        <fieldType>COMP.Corridor</fieldType>      </DynamicProps>      <PaymentType>COMP</PaymentType>      <isAlacarte>false</isAlacarte>    </OrderLineItem>    <InterfaceNumber>UDB_A38</InterfaceNumber>  </Order></p:UpdateServiceComponentResponse>]]>",
    "outputFilename": "Y",
    "requestDateTime": "2019-08-27T08:54:17.555Z",
    "responseDateTime": "2019-08-27T08:54:17.589Z",
    "sourceInterfaceType": "W",
    "sourceSystem": "OM",
    "tranID": "20190825103012",
    "transactionType": "Response"
  },
  "HPESARequestTime": "2019-08-27 15:55:22 459 +0700",
  "HPESAResponseTime": "2019-08-27 15:55:27 319 +0700"
}