{
  "transactionLog": {
    "tranID": "20190825101007",
    "interfaceNo": "F4",
    "sourceSystem": "OM",
    "destinationSystem": "Billing",
    "sourceInterfaceType": "W",
    "destinationInterfaceType": "K",
    "requestDateTime": "2019-08-24T19:30:00.000Z",
    "logStatus": true,
    "transactionType": "Request",
    "dataLog": true
  },
  "payment": {
    "accountInternalId": "1103253",
    "accountExternalId": "9292000008",
    "accountExternalIdType": "1",
    "annotation": "20190824193000",
    "archFlag": false,
    "currencyCode": 12,
    "custBillCountryCode": 764,
    "externalAmount": 10000,
    "externalCurrency": 12,
    "micrBankId": null,
    "micrCheckNum": null,
    "micrDdaNum": 1713,
    "origBillRefNo": 0,
    "origBillRefResets": 0,
    "payMethod": 1,
    "transAmount": 10000,
    "transSource": 50,
    "transType": 1
  }
}
