{
   "queryBalanceRequest": {
      "accurateQuery": 0,
      "balanceBelongSubFlag": 0,
      "balanceType": "C_MAIN_ACCOUNT",
      "queryObj": {
         "acctAccessCode": {
            "accountCode": "",
            "accountKey": "",
            "payType": "",
            "primaryIdentity": ""
         },
         "subAccessCode": {
            "subscriberKey": "",
            "primaryIdentity": "864201370"
         }
      }
   },
   "requestHeader": {
      "accessMode": "",
      "accessSecurity": {
         "loginSystemCode": "OMTest1",
         "password": "bAndWbh/0pzVxhCWaUb6Wz33b/HfLK2NcnMu+46HeHU=",
         "remoteIP": ""
      },
      "additionalProperty": [
         {
            "code": "",
            "value": ""
         }
      ],
      "businessCode": "",
      "messageSeq": "20190809210026000001",
      "msgLanguageCode": "",
      "operatorInfo": {
         "channelID": "",
         "operatorID": ""
      },
      "ownershipInfo": {
         "beid": "",
         "brid": ""
      },
      "timeFormat": {
         "timeType": "",
         "timeZoneID": ""
      },
      "version": ""
   }
}