{
  "channel": "USSD",
  "highPriorityOrderType": "Swap Balance To Expiration Date",
  "rerunRevisionNumber": "1",
  "orderItem": [
    {
      "orderType": "Swap Balance To Expiration Date",
      "orderExecutionDate": "2019-05-15",
      "orderExecutionType": "Now",
      "extendedDay": 50,
      "coreBalance": {
        "currencyCode": "Baht",
        "taxRate": "7",
        "dutyFreeAmount": "20"
      }
    }
  ],
  "sourceCustomerAccount": {
    "customerId": "00123456789",
    "existingFlag": true
  },
  "subscriberInfo": {
    "msisdn": "867890655",
    "serviceType": "0"
  },
  "saleInfo": {
    "saleEmpId": "38002222",
    "sapCode": "0800222003333",
    "dealerCode": "CAT",
    "registerBySellerName": "CAT_MNP",
    "saleRole": "role"
  }
}