{
  "channel": "MFE",
  "highPriorityOrderType": "Swap Post To Pre",
  "isProvisionRequired": true,
  "notificationContact": "abc@cattelecom.com",
  "notificationType": "Both",
  "orderCompletedDate": "",
  "orderId": "",
  "orderItem": [
    {
      "orderType": "SwapPostToPre",
      "orderExecutionDate": "2019-05-15",
      "orderExecutionType": "Now",
      "transferAction": "Refund"
    },
    {
      "orderType": "Recharge",
      "orderExecutionDate": "2019-05-15",
      "orderExecutionType": "Now",
      "topUp": {
        "serialNumber": "1234567",
        "pin": "23456"
      }
    },
    {
      "orderType": "AddPO",
      "orderExecutionDate": "2019-05-15",
      "orderExecutionType": "Now",
      "productOffering": [
        {
          "itemTerm": "12 Months",
          "offeringType": "Primary",
          "itemPrice": {
            "unitOfMeasure": "GB",
            "price": {
              "taxRate": "23%",
              "currencyCode": "Baht",
              "dutyFreeAmount": "250"
            },
            "priceType": "recurring",
            "description": "",
            "recurringChargePeriod": "6 Months",
            "taxIncludedAmount": "450"
          },
          "offeringId": "PO001"
        }
      ]
    },
    {
      "orderType": "AddSO",
      "productOffering": [
        {
          "itemTerm": "12 Months",
          "offeringType": "Primary",
          "itemPrice": {
            "unitOfMeasure": "GB",
            "price": {
              "taxRate": "23%",
              "currencyCode": "Baht",
              "dutyFreeAmount": "250"
            },
            "priceType": "recurring",
            "description": "",
            "recurringChargePeriod": "6 Months",
            "taxIncludedAmount": "450"
          },
          "offeringId": "SO001"
        }
      ],
      "orderExecutionDate": "2019-05-15",
      "orderExecutionType": "Now"
    }
  ],
  "orderModifiedDate": "",
  "orderSubmittedDate": "2019-04-29T00:00",
  "rerunRevisionNumber": "",
  "responseCode": "",
  "responseMessage": "",
  "saleInfo": {
    "saleEmpId": "",
    "sapCode": "",
    "dealerCode": "CAT",
    "verifyIdentity": "TRUE",
    "registerBySellerName": "CAT_MNP",
    "saleRole": ""
  },
  "writtenLanguage": "01",
  "sourceCustomerAccount": {
    "lastName": "Dansuput",
    "customerFocus": "",
    "gender": "Male",
    "documentType": "passport",
    "documentNumber": "S09876543",
    "companyName": "abc tech",
    "existingFlag": false,
    "title": "Mr",
    "citizenshipId": "3099-001",
    "customerType": "1",
    "emailAddress": "abc@gmail.com",
    "companyBranchId": "1234",
    "customerSegment": "",
    "customerId": "00123456789",
    "contactNumber": "987654321",
    "taxRegisterNumber": "345678",
    "address": {
      "country": "Thailand",
      "kwangTambon": "Phaya Thai",
      "province": "Bangkok",
      "road": "Phayathai Rd",
      "khetAmphur": "Thanon",
      "houseNumber": "15/4",
      "troksoi": "",
      "postCode": "10400",
      "moo": "Soi",
      "village": "Soi Chuladit",
      "building": "Saengkan"
    },
    "companyType": "Private",
    "customerGroup": "abc_group",
    "firstName": "Thosapon",
    "customerAccountId": "",
    "catEmployeeFlag": "1",
    "nationality": "Thailand",
    "dob": "1980-01-15",
    "billingAccount": {
      "billingAccountId": "234567",
      "billAccountSysID": "",
      "existingFlag": false,
      "billingInfo": {
        "collectionUnit": "",
        "language": "Thai",
        "vat": "'2345'",
        "billingPeriod": "3 ",
        "billable": "3 days",
        "billingGroup": "CAT_Group",
        "collectionTreatment": "Debt",
        "dispatchMethod": "Courier",
        "emailAddress": "abc@cat.com"
      },
      "billingAddress": {
        "title": "Mr",
        "firstName": "Thosapon",
        "lastName": "Dansuput",
        "companyTtitle": "Private",
        "company": "ABC Tech",
        "houseNumber": "12/3",
        "moo": "Soi",
        "village": "Soi Chuladit",
        "troksoi": "",
        "road": "Nonthaburi Road ",
        "khet": "Thanon",
        "kwang": "Phaya Thai",
        "province": "Nonthaburi",
        "postalCode": "11000 ",
        "countryCode": "+66"
      },
      "billDeliveryAddress": {
        "customerType": "residential",
        "title": "Mr",
        "firstName": "Thosapon",
        "lastName": "Dansuput",
        "companyTtitle": "Private",
        "company": "ABC Tech",
        "houseNumber": "12/3",
        "moo": "Soi",
        "village": "Soi Chuladit",
        "troksoi": "",
        "road": "Nonthaburi Road ",
        "khet": "Thanon",
        "kwang": "Phaya Thai",
        "province": "Nonthaburi",
        "postalCode": "11000 ",
        "countryCode": "+66"
      },
      "paymentProfile": "cash"
    },
    "writtenLanguage": "01",
    "ivrLanguage": "01"
  },
  "subscriberInfo": {
    "serviceType": "1",
    "reserveFlag": false,
    "simInfo": [
      {
        "simType": "Primary",
        "iccid": "123456789123456789",
        "imsi": "262011234567"
      }
    ],
    "subscriberKey": "1234",
    "subscriberNumber": "87687587687",
    "msisdn": "+66-02-6789065",
    "preProFlag": false
  }
}