{
   "queryBalanceRequest": {
      "accurateQuery": 0,
      "balanceBelongSubFlag": 0,
      "balanceType": "C_MAIN_ACCOUNT",
      "queryObj": {
         "subAccessCode": {
            "primaryIdentity": "864201370"
         }
      }
   },
   "requestHeader": {
      "accessSecurity": {
         "loginSystemCode": "OMTest1",
         "password": "bAndWbh/0pzVxhCWaUb6Wz33b/HfLK2NcnMu+46HeHU="
      },
      "messageSeq": "20190809210026000001",
      "ownershipInfo": {
         "beid": "20101"
      },
      "version": "1"
   }
}