{
  "orderId": "MFE2019050000000200",
  "highPriorityOrderType": "Top Up",
  "channel": "MFE",
  "rerunRevisionNumber": "1",
  "orderItem": [
    {
      "orderType": "Top Up",
      "orderExecutionType": "Now",
      "orderExecutionDate": "2019-04-29T00:00",
      "topUp": {
        "serialNumber": "45678",
        "pin": "123456"
      }
    }
  ],
  "subscriberInfo": {
    "msisdn": "0826789065",
    "serviceType": "0",
    "sourceSimInfo": [
      {
        "iccid": "123456789123456789",
        "simType": "Primary",
        "imsi": "262011234567"
      }
    ]
  },
  "saleInfo": {
    "saleEmpId": "38002222",
    "sapCode": "0800222003333",
    "dealerCode": "CAT",
    "registerBySellerName": "CAT_MNP",
    "saleRole": "role"
   }
}