{
    "requestHeader": {
        "version": "1",
        "businessCode": "ChangeSubOffering",
        "messageSeq": "MFE20190918050000002",
        "ownershipInfo": {
            "beid": "20101"
        },
        "accessSecurity": {
            "loginSystemCode": "OMTest1",
            "password": "bAndWbh/0pzVxhCWaUb6Wz33b/HfLK2NcnMu+46HeHU=",
            "remoteIP": "10.36.1.48"
        },
        "operatorInfo": {
            "channelID": "1",
            "operatorID": "101"
        }
    },
    "orderRequest": {
        "orderId": "MFE20190918050000002",
        "revision": 1,
        "startOrderItemId": 1,
        "orderCallType": "A",
        "orderItem": [
            {
                "orderItemId": 1,
                "orderItemType": "Recharge"
            },
            {
                "orderItemId": 2,
                "orderItemType": "AddSO"
            }
        ]
    },
    "changeSubOfferingRequest": {
        "subAccessCode": {
            "primaryIdentity": "864201245"
        },
        "supplementaryOffering": {
            "addOffering": [
                {
                    "offeringKey": {
                        "offeringID": 51005037
                    },
                    "effectiveTime": {
                        "mode": "I"
                    }
                }
            ]
        }
    },
    "rechargeRequest": [
        {
            "rechargeRequest": {
                "rechargeChannelID": "4",
                "rechargeSerialNo": "201909170002",
                "rechargeInfo": {
                    "cardPayment": {
                        "cardPinNumber": "i9qe3d3bylon/Wx9vKr/w7b/cNttE/gcSdsOr36+l+Y="
                    }
                },
                "rechargeObj": {
                    "subAccessCode": {
                        "primaryIdentity": "864201245"
                    }
                }
            }
        }
    ]
}