{
  "channel": "WOM",
  "highPriorityOrderType": "Notification Auto Reconnect",
  "rerunRevisionNumber": "0",
  "orderItem": [
    {
      "orderType": "Notification Auto Reconnect",
      "orderExecutionType": "Now",
      "orderExecutionDate": "2019-07-15T14:12:00",
      "oldMsisdnStatus": "4",
      "newMsisdnStatus": "2"
    }
  ],
  "subscriberInfo": {
    "msisdn": "867890655",
    "serviceType": "0"
  }
}