{
	"channel": "WOM",
	"highPriorityOrderType": "Notification Package Expire",
	"rerunRevisionNumber": "0",
	"orderItem": [
		{
			"orderType": "Notification Package Expire",
			"orderExecutionType": "Now",
			"orderExecutionDate": "2019-07-15T14:12:00",
			"packageOffering": [
				{
					"offeringId": "5402233",
					"purchaseSeq": "1"
				}
			]
		}
	],
	"subscriberInfo": {
		"msisdn": "867890655",
		"serviceType": "0"
	}
}