{
    "channel": "WOM",
    "highPriorityOrderType": "Notification Topup",
    "rerunRevisionNumber": "0",
    "orderItem": [
        {
            "orderType": "Notification Topup",
            "orderExecutionType": "Now",
            "orderExecutionDate": "2019-07-15T14:12:00",
            "topup": {
                "topupType": "1",
                "serialNumber": "39278874449",
                "pin": "2796362937",
                "topupAmount": "100.00"
            }
        }
    ],
    "subscriberInfo": {
        "msisdn": "867890655",
        "serviceType": "0"
    }
}