{
    "orderResult": {
        "orderId": "MFE20190807010000010",
        "orderItemId": 2,
        "returnCode": 20000004,
        "returnMessage": "Error java.lang.Exception: OCS CreateSubscriber : Internal system error: Failed to register a postpaid subscriber because the number reaches the upper limit specified by the license.\tat com.png.FlowUtil.request(FlowUtil.java:436)\tat com.png.WorkerChild.ChildWork(WorkerChild.java:355)\tat com.png.WorkerChild.process(WorkerChild.java:433)\tat com.png.WorkerChild.run(WorkerChild.java:482) on 2019-08-08 01:36:54"
    }
}