{
  "order": {
    "billingAccount": {
      "billingServerId": 3,
      "destinationAccountId": 1103252,
      "sourceAccountId": "9292000006"
    },
    "destinationOrderId": "401784003",
    "generateWorkflow": false,
    "interfaceNumber": "UDB_A2",
    "orderLineItem": [
      {
        "activeDt": "2019-08-23T00:00:00Z",
        "billingPackageId": 110477,
        "billingPackageInstId": 2341525,
        "billingPackageInstIdServ": 3,
        "billingPackageInternalIdConcat": "2341525|3",
        "dynamicProps": [],
        "productType": "PKG",
        "serviceLineId": "201908201010",
        "sourceLineItemId": "20190820101002"
      },
      {
        "activeDt": "2019-08-23T00:00:00Z",
        "billingComponentId": 110477000,
        "billingComponentInstId": 4464977,
        "billingComponentInstIdServ": 3,
        "billingComponentInternalIdConcat": "4464977|3",
        "billingPackageId": 110477,
        "dynamicProps": [
          {
            "fieldName": "Rate",
            "fieldType": "COMP.Nrc"
          },
          {
            "fieldName": "RateDt",
            "fieldType": "COMP.Nrc"
          },
          {
            "fieldName": "ViewId",
            "fieldType": "COMP.Nrc"
          },
          {
            "fieldName": "Annotation",
            "fieldType": "COMP.Nrc"
          },
          {
            "fieldName": "CurrencyCode",
            "fieldType": "COMP.ProductRateOverride"
          },
          {
            "fieldName": "OverrideRate",
            "fieldType": "COMP.ProductRateOverride"
          },
          {
            "fieldName": "ActiveDt",
            "fieldType": "COMP.ProductRateOverride.Key"
          },
          {
            "fieldName": "TrackingId",
            "fieldType": "COMP.ProductRateOverride.Key"
          },
          {
            "fieldName": "TrackingIdServ",
            "fieldType": "COMP.ProductRateOverride.Key"
          },
          {
            "fieldName": "ViewId",
            "fieldType": "COMP.ProductRateOverride"
          },
          {
            "fieldName": "ActiveDt",
            "fieldType": "COMP.ProductRateKey.Key"
          },
          {
            "fieldName": "TrackingId",
            "fieldType": "COMP.ProductRateKey.Key"
          },
          {
            "fieldName": "TrackingIdServ",
            "fieldType": "COMP.ProductRateKey.Key"
          },
          {
            "fieldName": "RateJurisdiction",
            "fieldType": "COMP.ProductRateKey"
          },
          {
            "fieldName": "RateUnits",
            "fieldType": "COMP.ProductRateKey"
          },
          {
            "fieldName": "UnitsType",
            "fieldType": "COMP.ProductRateKey"
          },
          {
            "fieldName": "Units",
            "fieldType": "COMP.ProductRateKey"
          },
          {
            "fieldName": "ViewId",
            "fieldType": "COMP.ProductRateKey"
          },
          {
            "fieldName": "CorridorPlanId",
            "fieldType": "COMP.Corridor"
          },
          {
            "fieldName": "ActiveDt",
            "fieldType": "COMP.Corridor"
          },
          {
            "fieldName": "InactiveDt",
            "fieldType": "COMP.Corridor"
          }
        ],
        "paymentType": "COMP",
        "productStatus": 0,
        "productType": "COMP",
        "reasonCode": 1,
        "serviceLineId": "201908201010",
        "sourceLineItemId": "20190820101003"
      },
      {
        "activeDt": "2019-08-23T00:00:00Z",
        "billingComponentId": 110477001,
        "billingComponentInstId": 4464978,
        "billingComponentInstIdServ": 3,
        "billingComponentInternalIdConcat": "4464978|3",
        "billingPackageId": 110477,
        "dynamicProps": [
          {
            "fieldName": "Rate",
            "fieldType": "COMP.Nrc"
          },
          {
            "fieldName": "RateDt",
            "fieldType": "COMP.Nrc"
          },
          {
            "fieldName": "ViewId",
            "fieldType": "COMP.Nrc"
          },
          {
            "fieldName": "Annotation",
            "fieldType": "COMP.Nrc"
          },
          {
            "fieldName": "CurrencyCode",
            "fieldType": "COMP.ProductRateOverride"
          },
          {
            "fieldName": "OverrideRate",
            "fieldType": "COMP.ProductRateOverride"
          },
          {
            "fieldName": "ActiveDt",
            "fieldType": "COMP.ProductRateOverride.Key"
          },
          {
            "fieldName": "TrackingId",
            "fieldType": "COMP.ProductRateOverride.Key"
          },
          {
            "fieldName": "TrackingIdServ",
            "fieldType": "COMP.ProductRateOverride.Key"
          },
          {
            "fieldName": "ViewId",
            "fieldType": "COMP.ProductRateOverride"
          },
          {
            "fieldName": "ActiveDt",
            "fieldType": "COMP.ProductRateKey.Key"
          },
          {
            "fieldName": "TrackingId",
            "fieldType": "COMP.ProductRateKey.Key"
          },
          {
            "fieldName": "TrackingIdServ",
            "fieldType": "COMP.ProductRateKey.Key"
          },
          {
            "fieldName": "RateJurisdiction",
            "fieldType": "COMP.ProductRateKey"
          },
          {
            "fieldName": "RateUnits",
            "fieldType": "COMP.ProductRateKey"
          },
          {
            "fieldName": "UnitsType",
            "fieldType": "COMP.ProductRateKey"
          },
          {
            "fieldName": "Units",
            "fieldType": "COMP.ProductRateKey"
          },
          {
            "fieldName": "ViewId",
            "fieldType": "COMP.ProductRateKey"
          },
          {
            "fieldName": "CorridorPlanId",
            "fieldType": "COMP.Corridor"
          },
          {
            "fieldName": "ActiveDt",
            "fieldType": "COMP.Corridor"
          },
          {
            "fieldName": "InactiveDt",
            "fieldType": "COMP.Corridor"
          }
        ],
        "paymentType": "COMP",
        "productStatus": 0,
        "productType": "COMP",
        "reasonCode": 1,
        "serviceLineId": "201908201010",
        "sourceLineItemId": "20190820101004"
      },
      {
        "activeDt": "2019-08-23T00:00:00Z",
        "billingComponentId": 911060090,
        "billingComponentInstId": 4464979,
        "billingComponentInstIdServ": 3,
        "billingComponentInternalIdConcat": "4464979|3",
        "billingPackageId": 110477,
        "dynamicProps": [
          {
            "fieldName": "Rate",
            "fieldType": "COMP.Nrc"
          },
          {
            "fieldName": "RateDt",
            "fieldType": "COMP.Nrc"
          },
          {
            "fieldName": "ViewId",
            "fieldType": "COMP.Nrc"
          },
          {
            "fieldName": "Annotation",
            "fieldType": "COMP.Nrc"
          },
          {
            "fieldName": "CurrencyCode",
            "fieldType": "COMP.ProductRateOverride"
          },
          {
            "fieldName": "OverrideRate",
            "fieldType": "COMP.ProductRateOverride"
          },
          {
            "fieldName": "ActiveDt",
            "fieldType": "COMP.ProductRateOverride.Key"
          },
          {
            "fieldName": "TrackingId",
            "fieldType": "COMP.ProductRateOverride.Key"
          },
          {
            "fieldName": "TrackingIdServ",
            "fieldType": "COMP.ProductRateOverride.Key"
          },
          {
            "fieldName": "ViewId",
            "fieldType": "COMP.ProductRateOverride"
          },
          {
            "fieldName": "ActiveDt",
            "fieldType": "COMP.ProductRateKey.Key"
          },
          {
            "fieldName": "TrackingId",
            "fieldType": "COMP.ProductRateKey.Key"
          },
          {
            "fieldName": "TrackingIdServ",
            "fieldType": "COMP.ProductRateKey.Key"
          },
          {
            "fieldName": "RateJurisdiction",
            "fieldType": "COMP.ProductRateKey"
          },
          {
            "fieldName": "RateUnits",
            "fieldType": "COMP.ProductRateKey"
          },
          {
            "fieldName": "UnitsType",
            "fieldType": "COMP.ProductRateKey"
          },
          {
            "fieldName": "Units",
            "fieldType": "COMP.ProductRateKey"
          },
          {
            "fieldName": "ViewId",
            "fieldType": "COMP.ProductRateKey"
          },
          {
            "fieldName": "CorridorPlanId",
            "fieldType": "COMP.Corridor"
          },
          {
            "fieldName": "ActiveDt",
            "fieldType": "COMP.Corridor"
          },
          {
            "fieldName": "InactiveDt",
            "fieldType": "COMP.Corridor"
          }
        ],
        "paymentType": "COMP",
        "productStatus": 0,
        "productType": "COMP",
        "reasonCode": 1,
        "serviceLineId": "201908201010",
        "sourceLineItemId": "20190820101005"
      },
      {
        "activeDt": "2019-08-23T00:00:00Z",
        "billingServiceInternalId": 2333813,
        "billingServiceInternalIdConcat": "1188498003|2333813|0",
        "billingServiceInternalIdResets": 0,
        "billingServiceViewId": "1188498003",
        "cieMs": [
          {
            "activeDate": "2019-08-23T00:00:00Z",
            "createDt": "2019-08-23T01:00:00Z",
            "intendedViewEffectiveDt": "2019-08-23T01:00:00Z",
            "isCurrent": true,
            "isFromInventory": false,
            "key": {
              "viewId": "3531062003"
            },
            "serviceExternalId": "891112006",
            "serviceExternalIdType": 17,
            "serviceInternalId": 2333813,
            "serviceInternalIdResets": 0,
            "viewCreatedDt": "2019-08-23T01:00:00Z",
            "viewEffectiveDt": "2019-08-23T01:00:00Z",
            "viewStatus": 1
          },
          {
            "activeDate": "2019-08-23T00:00:00Z",
            "createDt": "2019-08-23T01:00:00Z",
            "intendedViewEffectiveDt": "2019-08-23T01:00:00Z",
            "isCurrent": true,
            "isFromInventory": false,
            "key": {
              "viewId": "3531063003"
            },
            "serviceExternalId": "52000020030237",
            "serviceExternalIdType": 18,
            "serviceInternalId": 2333813,
            "serviceInternalIdResets": 0,
            "viewCreatedDt": "2019-08-23T01:00:00Z",
            "viewEffectiveDt": "2019-08-23T01:00:00Z",
            "viewStatus": 1
          }
        ],
        "createDt": "2019-08-23T18:14:35Z",
        "currencyCode": "th_TH",
        "dynamicProps": [
          {
            "fieldName": "ParamName",
            "fieldType": "Services.AnnounceDate"
          },
          {
            "fieldName": "ParamId",
            "fieldType": "Services.AnnounceDate"
          },
          {
            "fieldName": "ParamValue",
            "fieldType": "Services.AnnounceDate"
          },
          {
            "fieldName": "ParamName",
            "fieldType": "Services.MarketName"
          },
          {
            "fieldName": "ParamId",
            "fieldType": "Services.MarketName"
          },
          {
            "fieldName": "ParamValue",
            "fieldType": "Services.MarketName"
          },
          {
            "fieldName": "ParamName",
            "fieldType": "Services.AuctionDate"
          },
          {
            "fieldName": "ParamId",
            "fieldType": "Services.AuctionDate"
          },
          {
            "fieldName": "ParamValue",
            "fieldType": "Services.AuctionDate"
          },
          {
            "fieldName": "ParamName",
            "fieldType": "Services.MarketOwner"
          },
          {
            "fieldName": "ParamId",
            "fieldType": "Services.MarketOwner"
          },
          {
            "fieldName": "ParamValue",
            "fieldType": "Services.MarketOwner"
          },
          {
            "fieldName": "ParamName",
            "fieldType": "Services.IDNumber"
          },
          {
            "fieldName": "ParamId",
            "fieldType": "Services.IDNumber"
          },
          {
            "fieldName": "ParamValue",
            "fieldType": "Services.IDNumber"
          },
          {
            "fieldName": "ParamName",
            "fieldType": "Services.CoreNo"
          },
          {
            "fieldName": "ParamId",
            "fieldType": "Services.CoreNo"
          },
          {
            "fieldName": "ParamValue",
            "fieldType": "Services.CoreNo"
          },
          {
            "fieldName": "ParamName",
            "fieldType": "Services.Distance"
          },
          {
            "fieldName": "ParamId",
            "fieldType": "Services.Distance"
          },
          {
            "fieldName": "ParamValue",
            "fieldType": "Services.Distance"
          },
          {
            "fieldName": "ParamName",
            "fieldType": "Services.Flag"
          },
          {
            "fieldName": "ParamId",
            "fieldType": "Services.Flag"
          },
          {
            "fieldName": "ParamValue",
            "fieldType": "Services.Flag"
          },
          {
            "fieldName": "ParamName",
            "fieldType": "Services.Description"
          },
          {
            "fieldName": "ParamId",
            "fieldType": "Services.Description"
          },
          {
            "fieldName": "ParamValue",
            "fieldType": "Services.Description"
          },
          {
            "fieldName": "ParamName",
            "fieldType": "Services.ContractDate"
          },
          {
            "fieldName": "ParamId",
            "fieldType": "Services.ContractDate"
          },
          {
            "fieldName": "ParamValue",
            "fieldType": "Services.ContractDate"
          },
          {
            "fieldName": "ParamName",
            "fieldType": "Services.ContractEndDT"
          },
          {
            "fieldName": "ParamId",
            "fieldType": "Services.ContractEndDT"
          },
          {
            "fieldName": "ParamValue",
            "fieldType": "Services.ContractEndDT"
          },
          {
            "fieldName": "ParamName",
            "fieldType": "Services.ContractStartDT"
          },
          {
            "fieldName": "ParamId",
            "fieldType": "Services.ContractStartDT"
          },
          {
            "fieldName": "ParamValue",
            "fieldType": "Services.ContractStartDT"
          },
          {
            "fieldName": "ParamName",
            "fieldType": "Services.PortInter"
          },
          {
            "fieldName": "ParamId",
            "fieldType": "Services.PortInter"
          },
          {
            "fieldName": "ParamValue",
            "fieldType": "Services.PortInter"
          },
          {
            "fieldName": "ParamName",
            "fieldType": "Services.PortLocal"
          },
          {
            "fieldName": "ParamId",
            "fieldType": "Services.PortLocal"
          },
          {
            "fieldName": "ParamValue",
            "fieldType": "Services.PortLocal"
          },
          {
            "fieldName": "ParamName",
            "fieldType": "Services.PortInterUnit"
          },
          {
            "fieldName": "ParamId",
            "fieldType": "Services.PortInterUnit"
          },
          {
            "fieldName": "ParamValue",
            "fieldType": "Services.PortInterUnit"
          },
          {
            "fieldName": "ParamName",
            "fieldType": "Services.PortLocalUnit"
          },
          {
            "fieldName": "ParamId",
            "fieldType": "Services.PortLocalUnit"
          },
          {
            "fieldName": "ParamValue",
            "fieldType": "Services.PortLocalUnit"
          },
          {
            "fieldName": "ParamName",
            "fieldType": "Services.Speed"
          },
          {
            "fieldName": "ParamId",
            "fieldType": "Services.Speed"
          },
          {
            "fieldName": "ParamValue",
            "fieldType": "Services.Speed"
          },
          {
            "fieldName": "ParamName",
            "fieldType": "Services.SpeedDownload"
          },
          {
            "fieldName": "ParamId",
            "fieldType": "Services.SpeedDownload"
          },
          {
            "fieldName": "ParamValue",
            "fieldType": "Services.SpeedDownload"
          },
          {
            "fieldName": "ParamName",
            "fieldType": "Services.SpeedUpload"
          },
          {
            "fieldName": "ParamId",
            "fieldType": "Services.SpeedUpload"
          },
          {
            "fieldName": "ParamValue",
            "fieldType": "Services.SpeedUpload"
          },
          {
            "fieldName": "ParamName",
            "fieldType": "Services.SpeedUnit"
          },
          {
            "fieldName": "ParamId",
            "fieldType": "Services.SpeedUnit"
          },
          {
            "fieldName": "ParamValue",
            "fieldType": "Services.SpeedUnit"
          },
          {
            "fieldName": "ParamName",
            "fieldType": "Services.DownloadUnit"
          },
          {
            "fieldName": "ParamId",
            "fieldType": "Services.DownloadUnit"
          },
          {
            "fieldName": "ParamValue",
            "fieldType": "Services.DownloadUnit"
          },
          {
            "fieldName": "ParamName",
            "fieldType": "Services.UploadUnit"
          },
          {
            "fieldName": "ParamId",
            "fieldType": "Services.UploadUnit"
          },
          {
            "fieldName": "ParamValue",
            "fieldType": "Services.UploadUnit"
          },
          {
            "fieldName": "ParamName",
            "fieldType": "Services.Destination"
          },
          {
            "fieldName": "ParamId",
            "fieldType": "Services.Destination"
          },
          {
            "fieldName": "ParamValue",
            "fieldType": "Services.Destination"
          },
          {
            "fieldName": "ParamName",
            "fieldType": "Services.Operator"
          },
          {
            "fieldName": "ParamId",
            "fieldType": "Services.Operator"
          },
          {
            "fieldName": "ParamValue",
            "fieldType": "Services.Operator"
          },
          {
            "fieldName": "ParamName",
            "fieldType": "Services.ContractTerm"
          },
          {
            "fieldName": "ParamId",
            "fieldType": "Services.ContractTerm"
          },
          {
            "fieldName": "ParamValue",
            "fieldType": "Services.ContractTerm"
          },
          {
            "fieldName": "ParamName",
            "fieldType": "Services.InstallationName"
          },
          {
            "fieldName": "ParamId",
            "fieldType": "Services.InstallationName"
          },
          {
            "fieldName": "ParamValue",
            "fieldType": "Services.InstallationName"
          },
          {
            "fieldName": "ParamName",
            "fieldType": "Services.InstallationAddress"
          },
          {
            "fieldName": "ParamId",
            "fieldType": "Services.InstallationAddress"
          },
          {
            "fieldName": "ParamValue",
            "fieldType": "Services.InstallationAddress"
          },
          {
            "fieldName": "ParamName",
            "fieldType": "Services.MergeService"
          },
          {
            "fieldName": "ParamId",
            "fieldType": "Services.MergeService"
          },
          {
            "fieldName": "ParamValue",
            "fieldType": "Services.MergeService"
          },
          {
            "fieldName": "ParamName",
            "fieldType": "Services.Po"
          },
          {
            "fieldName": "ParamId",
            "fieldType": "Services.Po"
          },
          {
            "fieldName": "ParamValue",
            "fieldType": "Services.Po"
          },
          {
            "fieldName": "ParamName",
            "fieldType": "Services.HideCATID"
          },
          {
            "fieldName": "ParamId",
            "fieldType": "Services.HideCATID"
          },
          {
            "fieldName": "ParamValue",
            "fieldType": "Services.HideCATID"
          }
        ],
        "emfConfigId": 110,
        "paymentType": "SI",
        "productType": "SI",
        "revRcvCostCtr": 1,
        "serviceAccount": {
          "currencyCode": "12"
        },
        "serviceLineId": "201908201010",
        "sourceLineItemId": "20190820101001",
        "viewEffectiveDt": "2019-08-23T00:00:00Z"
      }
    ],
    "orderStatusId": 80,
    "sourceOrderId": "201908201010"
  },
  "transactionLog": {
    "dataLog": true,
    "destinationInterfaceType": "K",
    "destinationReturnCode": "0",
    "destinationReturnDetails": "Success",
    "destinationSystem": "Billing",
    "esbReturnCode": "ESBWPS0000",
    "esbReturnDetails": "This is a normal situation.",
    "inputData": "<![CDATA[<?xml version=\"1.0\" encoding=\"UTF-8\"?><p:CreateServiceResponseBilling xsi:type=\"p:CreateServiceResponseBilling\" xmlns:xsi=\"http://www.w3.org/2001/XMLSchema-instance\" xmlns:p=\"http://KenanLibs/RequestResponseBO/A2\">  <Account>    <Key>      <AccountInternalId>1103252</AccountInternalId>    </Key>    <AccountExternalId>9292000006</AccountExternalId>    <ServerId>3</ServerId>    <Services>      <Key>        <ViewId>1188498003</ViewId>      </Key>      <ActiveDt>2019-08-23T00:00:00Z</ActiveDt>      <Address1>    </Address1>      <Address2> </Address2>      <Address3>Thailand </Address3>      <AddressLocation>2</AddressLocation>      <AddressTypeId>1</AddressTypeId>      <BRevRcvCostCtr>1</BRevRcvCostCtr>      <ChangeDt>2019-08-23T18:14:35Z</ChangeDt>      <ChangeWho>aruba</ChangeWho>      <ChgDt>2019-08-23T18:14:35Z</ChgDt>      <ChgWho>aruba</ChgWho>      <Converted>0</Converted>      <CountryCode>764</CountryCode>      <CreateDt>2019-08-23T18:14:35Z</CreateDt>      <CurrencyCode>12</CurrencyCode>      <DisplayAddressId>557685003</DisplayAddressId>      <DisplayExternalIdType>1</DisplayExternalIdType>      <EmfConfigId>110</EmfConfigId>      <ExrateClass>1</ExrateClass>      <FranchiseTaxCode>1</FranchiseTaxCode>      <FxGeocode>764001000000000</FxGeocode>      <IntendedViewEffectiveDt>2019-08-23T00:00:00Z</IntendedViewEffectiveDt>      <IsActive>true</IsActive>      <IsPrepaid>false</IsPrepaid>      <NoBill>false</NoBill>      <ParentAccountInternalId>1103252</ParentAccountInternalId>      <PrivacyLevel>0</PrivacyLevel>      <RevRcvCostCtr>1</RevRcvCostCtr>      <ServiceActiveDt>2019-08-23T00:00:00Z</ServiceActiveDt>      <StatusId>1</StatusId>      <StatusReasonId>1</StatusReasonId>      <ServiceInternalId>2333813</ServiceInternalId>      <ServiceInternalIdResets>0</ServiceInternalIdResets>      <ViewCreatedDt>2019-08-23T18:14:35Z</ViewCreatedDt>      <ViewEffectiveDt>2019-08-23T00:00:00Z</ViewEffectiveDt>      <ViewStatus>1</ViewStatus>      <CustomerIdEquipMaps>        <Key>          <ViewId>3531062003</ViewId>        </Key>        <ActiveDate>2019-08-23T00:00:00Z</ActiveDate>        <CreateDt>2019-08-23T01:00:00Z</CreateDt>        <ServiceExternalId>891112006</ServiceExternalId>        <ServiceExternalIdType>17</ServiceExternalIdType>        <IntendedViewEffectiveDt>2019-08-23T01:00:00Z</IntendedViewEffectiveDt>        <IsCurrent>true</IsCurrent>        <IsFromInventory>false</IsFromInventory>        <ServiceInternalId>2333813</ServiceInternalId>        <ServiceInternalIdResets>0</ServiceInternalIdResets>        <ViewCreatedDt>2019-08-23T01:00:00Z</ViewCreatedDt>        <ViewEffectiveDt>2019-08-23T01:00:00Z</ViewEffectiveDt>        <ViewStatus>1</ViewStatus>      </CustomerIdEquipMaps>      <CustomerIdEquipMaps>        <Key>          <ViewId>3531063003</ViewId>        </Key>        <ActiveDate>2019-08-23T00:00:00Z</ActiveDate>        <CreateDt>2019-08-23T01:00:00Z</CreateDt>        <ServiceExternalId>52000020030237</ServiceExternalId>        <ServiceExternalIdType>18</ServiceExternalIdType>        <IntendedViewEffectiveDt>2019-08-23T01:00:00Z</IntendedViewEffectiveDt>        <IsCurrent>true</IsCurrent>        <IsFromInventory>false</IsFromInventory>        <ServiceInternalId>2333813</ServiceInternalId>        <ServiceInternalIdResets>0</ServiceInternalIdResets>        <ViewCreatedDt>2019-08-23T01:00:00Z</ViewCreatedDt>        <ViewEffectiveDt>2019-08-23T01:00:00Z</ViewEffectiveDt>        <ViewStatus>1</ViewStatus>      </CustomerIdEquipMaps>      <Components>        <Key>          <ComponentInstId>4464977</ComponentInstId>          <ComponentInstIdServ>3</ComponentInstIdServ>        </Key>        <ActiveDt>2019-08-23T00:00:00Z</ActiveDt>        <ComponentId>110477000</ComponentId>        <ComponentStatus>0</ComponentStatus>        <ConnectReason>1</ConnectReason>        <PackageId>110477</PackageId>        <ParentAccountInternalId>1103252</ParentAccountInternalId>        <ParentServiceInternalId>2333813</ParentServiceInternalId>        <SourceLineItemId>20190820101003</SourceLineItemId>        <ServiceLineId>201908201010</ServiceLineId>      </Components>      <Components>        <Key>          <ComponentInstId>4464978</ComponentInstId>          <ComponentInstIdServ>3</ComponentInstIdServ>        </Key>        <ActiveDt>2019-08-23T00:00:00Z</ActiveDt>        <ComponentId>110477001</ComponentId>        <ComponentStatus>0</ComponentStatus>        <ConnectReason>1</ConnectReason>        <PackageId>110477</PackageId>        <ParentAccountInternalId>1103252</ParentAccountInternalId>        <ParentServiceInternalId>2333813</ParentServiceInternalId>        <SourceLineItemId>20190820101004</SourceLineItemId>        <ServiceLineId>201908201010</ServiceLineId>      </Components>      <Components>        <Key>          <ComponentInstId>4464979</ComponentInstId>          <ComponentInstIdServ>3</ComponentInstIdServ>        </Key>        <ActiveDt>2019-08-23T00:00:00Z</ActiveDt>        <ComponentId>911060090</ComponentId>        <ComponentStatus>0</ComponentStatus>        <ConnectReason>1</ConnectReason>        <PackageId>110477</PackageId>        <ParentAccountInternalId>1103252</ParentAccountInternalId>        <ParentServiceInternalId>2333813</ParentServiceInternalId>        <SourceLineItemId>20190820101005</SourceLineItemId>        <ServiceLineId>201908201010</ServiceLineId>      </Components>      <SourceLineItemId>20190820101001</SourceLineItemId>      <ServiceLineId>201908201010</ServiceLineId>      <AnnounceDate/>      <MarketName/>      <AuctionDate/>      <MarketOwner/>      <IDNumber/>      <CoreNo/>      <Distance/>      <Flag/>      <Description/>      <ContractDate/>      <ContractStartDT/>      <ContractEndDT/>      <PortInter/>      <PortLocal/>      <PortInterUnit/>      <PortLocalUnit/>      <Speed/>      <SpeedDownload/>      <SpeedUpload/>      <SpeedUnit/>      <DownloadUnit/>      <UploadUnit/>      <ContractTerm/>      <Destination/>      <Operator/>      <InstallationName/>      <MergeService/>      <Po/>      <HideCATID/>    </Services>    <ProductPackages>      <Key>        <PackageInstId>2341525</PackageInstId>        <PackageInstIdServ>3</PackageInstIdServ>      </Key>      <ActiveDt>2019-08-23T00:00:00Z</ActiveDt>      <ConnectReason>1</ConnectReason>      <AccountExternalId>9292000006</AccountExternalId>      <HierarchyId>1103252</HierarchyId>      <PackageId>110477</PackageId>      <PackageStatus>0</PackageStatus>      <ParentAccountInternalId>1103252</ParentAccountInternalId>      <SourceLineItemId>20190820101002</SourceLineItemId>      <ServiceLineId>201908201010</ServiceLineId>    </ProductPackages>    <Order>      <Key>        <OrderId>401784003</OrderId>      </Key>      <AccountInternalId>1103252</AccountInternalId>      <GenerateWorkflow>false</GenerateWorkflow>      <OrderNumber>201908201010</OrderNumber>      <OrderStatusId>80</OrderStatusId>    </Order>  </Account>  <Result>    <Code>0</Code>    <Text>Success</Text>  </Result></p:CreateServiceResponseBilling>]]>",
    "inputFilename": "N",
    "interfaceNo": "UDB_A2",
    "logStatus": true,
    "outputData": "<![CDATA[<?xml version=\"1.0\" encoding=\"UTF-8\"?><p:CreateServiceResponse xsi:type=\"p:CreateServiceResponse\" xmlns:xsi=\"http://www.w3.org/2001/XMLSchema-instance\" xmlns:p=\"http://ESBLibs/RequestResponseCBO/A2\">  <TransactionLog>    <TranID>201908201010</TranID>    <InterfaceNo>UDB_A2</InterfaceNo>    <SourceSystem>OM</SourceSystem>    <DestinationSystem>Billing</DestinationSystem>    <SourceInterfaceType>W</SourceInterfaceType>    <DestinationInterfaceType>K</DestinationInterfaceType>    <RequestDateTime>2019-08-23T11:14:49.829Z</RequestDateTime>    <ResponseDateTime>2019-08-23T11:14:49.884Z</ResponseDateTime>    <InputData>&lt;![CDATA[&lt;?xml version=&quot;1.0&quot; encoding=&quot;UTF-8&quot;?>&lt;p:CreateServiceResponseBilling xsi:type=&quot;p:CreateServiceResponseBilling&quot; xmlns:xsi=&quot;http://www.w3.org/2001/XMLSchema-instance&quot; xmlns:p=&quot;http://KenanLibs/RequestResponseBO/A2&quot;>  &lt;Account>    &lt;Key>      &lt;AccountInternalId>1103252&lt;/AccountInternalId>    &lt;/Key>    &lt;AccountExternalId>9292000006&lt;/AccountExternalId>    &lt;ServerId>3&lt;/ServerId>    &lt;Services>      &lt;Key>        &lt;ViewId>1188498003&lt;/ViewId>      &lt;/Key>      &lt;ActiveDt>2019-08-23T00:00:00Z&lt;/ActiveDt>      &lt;Address1>    &lt;/Address1>      &lt;Address2> &lt;/Address2>      &lt;Address3>Thailand &lt;/Address3>      &lt;AddressLocation>2&lt;/AddressLocation>      &lt;AddressTypeId>1&lt;/AddressTypeId>      &lt;BRevRcvCostCtr>1&lt;/BRevRcvCostCtr>      &lt;ChangeDt>2019-08-23T18:14:35Z&lt;/ChangeDt>      &lt;ChangeWho>aruba&lt;/ChangeWho>      &lt;ChgDt>2019-08-23T18:14:35Z&lt;/ChgDt>      &lt;ChgWho>aruba&lt;/ChgWho>      &lt;Converted>0&lt;/Converted>      &lt;CountryCode>764&lt;/CountryCode>      &lt;CreateDt>2019-08-23T18:14:35Z&lt;/CreateDt>      &lt;CurrencyCode>12&lt;/CurrencyCode>      &lt;DisplayAddressId>557685003&lt;/DisplayAddressId>      &lt;DisplayExternalIdType>1&lt;/DisplayExternalIdType>      &lt;EmfConfigId>110&lt;/EmfConfigId>      &lt;ExrateClass>1&lt;/ExrateClass>      &lt;FranchiseTaxCode>1&lt;/FranchiseTaxCode>      &lt;FxGeocode>764001000000000&lt;/FxGeocode>      &lt;IntendedViewEffectiveDt>2019-08-23T00:00:00Z&lt;/IntendedViewEffectiveDt>      &lt;IsActive>true&lt;/IsActive>      &lt;IsPrepaid>false&lt;/IsPrepaid>      &lt;NoBill>false&lt;/NoBill>      &lt;ParentAccountInternalId>1103252&lt;/ParentAccountInternalId>      &lt;PrivacyLevel>0&lt;/PrivacyLevel>      &lt;RevRcvCostCtr>1&lt;/RevRcvCostCtr>      &lt;ServiceActiveDt>2019-08-23T00:00:00Z&lt;/ServiceActiveDt>      &lt;StatusId>1&lt;/StatusId>      &lt;StatusReasonId>1&lt;/StatusReasonId>      &lt;ServiceInternalId>2333813&lt;/ServiceInternalId>      &lt;ServiceInternalIdResets>0&lt;/ServiceInternalIdResets>      &lt;ViewCreatedDt>2019-08-23T18:14:35Z&lt;/ViewCreatedDt>      &lt;ViewEffectiveDt>2019-08-23T00:00:00Z&lt;/ViewEffectiveDt>      &lt;ViewStatus>1&lt;/ViewStatus>      &lt;CustomerIdEquipMaps>        &lt;Key>          &lt;ViewId>3531062003&lt;/ViewId>        &lt;/Key>        &lt;ActiveDate>2019-08-23T00:00:00Z&lt;/ActiveDate>        &lt;CreateDt>2019-08-23T01:00:00Z&lt;/CreateDt>        &lt;ServiceExternalId>891112006&lt;/ServiceExternalId>        &lt;ServiceExternalIdType>17&lt;/ServiceExternalIdType>        &lt;IntendedViewEffectiveDt>2019-08-23T01:00:00Z&lt;/IntendedViewEffectiveDt>        &lt;IsCurrent>true&lt;/IsCurrent>        &lt;IsFromInventory>false&lt;/IsFromInventory>        &lt;ServiceInternalId>2333813&lt;/ServiceInternalId>        &lt;ServiceInternalIdResets>0&lt;/ServiceInternalIdResets>        &lt;ViewCreatedDt>2019-08-23T01:00:00Z&lt;/ViewCreatedDt>        &lt;ViewEffectiveDt>2019-08-23T01:00:00Z&lt;/ViewEffectiveDt>        &lt;ViewStatus>1&lt;/ViewStatus>      &lt;/CustomerIdEquipMaps>      &lt;CustomerIdEquipMaps>        &lt;Key>          &lt;ViewId>3531063003&lt;/ViewId>        &lt;/Key>        &lt;ActiveDate>2019-08-23T00:00:00Z&lt;/ActiveDate>        &lt;CreateDt>2019-08-23T01:00:00Z&lt;/CreateDt>        &lt;ServiceExternalId>52000020030237&lt;/ServiceExternalId>        &lt;ServiceExternalIdType>18&lt;/ServiceExternalIdType>        &lt;IntendedViewEffectiveDt>2019-08-23T01:00:00Z&lt;/IntendedViewEffectiveDt>        &lt;IsCurrent>true&lt;/IsCurrent>        &lt;IsFromInventory>false&lt;/IsFromInventory>        &lt;ServiceInternalId>2333813&lt;/ServiceInternalId>        &lt;ServiceInternalIdResets>0&lt;/ServiceInternalIdResets>        &lt;ViewCreatedDt>2019-08-23T01:00:00Z&lt;/ViewCreatedDt>        &lt;ViewEffectiveDt>2019-08-23T01:00:00Z&lt;/ViewEffectiveDt>        &lt;ViewStatus>1&lt;/ViewStatus>      &lt;/CustomerIdEquipMaps>      &lt;Components>        &lt;Key>          &lt;ComponentInstId>4464977&lt;/ComponentInstId>          &lt;ComponentInstIdServ>3&lt;/ComponentInstIdServ>        &lt;/Key>        &lt;ActiveDt>2019-08-23T00:00:00Z&lt;/ActiveDt>        &lt;ComponentId>110477000&lt;/ComponentId>        &lt;ComponentStatus>0&lt;/ComponentStatus>        &lt;ConnectReason>1&lt;/ConnectReason>        &lt;PackageId>110477&lt;/PackageId>        &lt;ParentAccountInternalId>1103252&lt;/ParentAccountInternalId>        &lt;ParentServiceInternalId>2333813&lt;/ParentServiceInternalId>        &lt;SourceLineItemId>20190820101003&lt;/SourceLineItemId>        &lt;ServiceLineId>201908201010&lt;/ServiceLineId>      &lt;/Components>      &lt;Components>        &lt;Key>          &lt;ComponentInstId>4464978&lt;/ComponentInstId>          &lt;ComponentInstIdServ>3&lt;/ComponentInstIdServ>        &lt;/Key>        &lt;ActiveDt>2019-08-23T00:00:00Z&lt;/ActiveDt>        &lt;ComponentId>110477001&lt;/ComponentId>        &lt;ComponentStatus>0&lt;/ComponentStatus>        &lt;ConnectReason>1&lt;/ConnectReason>        &lt;PackageId>110477&lt;/PackageId>        &lt;ParentAccountInternalId>1103252&lt;/ParentAccountInternalId>        &lt;ParentServiceInternalId>2333813&lt;/ParentServiceInternalId>        &lt;SourceLineItemId>20190820101004&lt;/SourceLineItemId>        &lt;ServiceLineId>201908201010&lt;/ServiceLineId>      &lt;/Components>      &lt;Components>        &lt;Key>          &lt;ComponentInstId>4464979&lt;/ComponentInstId>          &lt;ComponentInstIdServ>3&lt;/ComponentInstIdServ>        &lt;/Key>        &lt;ActiveDt>2019-08-23T00:00:00Z&lt;/ActiveDt>        &lt;ComponentId>911060090&lt;/ComponentId>        &lt;ComponentStatus>0&lt;/ComponentStatus>        &lt;ConnectReason>1&lt;/ConnectReason>        &lt;PackageId>110477&lt;/PackageId>        &lt;ParentAccountInternalId>1103252&lt;/ParentAccountInternalId>        &lt;ParentServiceInternalId>2333813&lt;/ParentServiceInternalId>        &lt;SourceLineItemId>20190820101005&lt;/SourceLineItemId>        &lt;ServiceLineId>201908201010&lt;/ServiceLineId>      &lt;/Components>      &lt;SourceLineItemId>20190820101001&lt;/SourceLineItemId>      &lt;ServiceLineId>201908201010&lt;/ServiceLineId>      &lt;AnnounceDate/>      &lt;MarketName/>      &lt;AuctionDate/>      &lt;MarketOwner/>      &lt;IDNumber/>      &lt;CoreNo/>      &lt;Distance/>      &lt;Flag/>      &lt;Description/>      &lt;ContractDate/>      &lt;ContractStartDT/>      &lt;ContractEndDT/>      &lt;PortInter/>      &lt;PortLocal/>      &lt;PortInterUnit/>      &lt;PortLocalUnit/>      &lt;Speed/>      &lt;SpeedDownload/>      &lt;SpeedUpload/>      &lt;SpeedUnit/>      &lt;DownloadUnit/>      &lt;UploadUnit/>      &lt;ContractTerm/>      &lt;Destination/>      &lt;Operator/>      &lt;InstallationName/>      &lt;MergeService/>      &lt;Po/>      &lt;HideCATID/>    &lt;/Services>    &lt;ProductPackages>      &lt;Key>        &lt;PackageInstId>2341525&lt;/PackageInstId>        &lt;PackageInstIdServ>3&lt;/PackageInstIdServ>      &lt;/Key>      &lt;ActiveDt>2019-08-23T00:00:00Z&lt;/ActiveDt>      &lt;ConnectReason>1&lt;/ConnectReason>      &lt;AccountExternalId>9292000006&lt;/AccountExternalId>      &lt;HierarchyId>1103252&lt;/HierarchyId>      &lt;PackageId>110477&lt;/PackageId>      &lt;PackageStatus>0&lt;/PackageStatus>      &lt;ParentAccountInternalId>1103252&lt;/ParentAccountInternalId>      &lt;SourceLineItemId>20190820101002&lt;/SourceLineItemId>      &lt;ServiceLineId>201908201010&lt;/ServiceLineId>    &lt;/ProductPackages>    &lt;Order>      &lt;Key>        &lt;OrderId>401784003&lt;/OrderId>      &lt;/Key>      &lt;AccountInternalId>1103252&lt;/AccountInternalId>      &lt;GenerateWorkflow>false&lt;/GenerateWorkflow>      &lt;OrderNumber>201908201010&lt;/OrderNumber>      &lt;OrderStatusId>80&lt;/OrderStatusId>    &lt;/Order>  &lt;/Account>  &lt;Result>    &lt;Code>0&lt;/Code>    &lt;Text>Success&lt;/Text>  &lt;/Result>&lt;/p:CreateServiceResponseBilling>]]&gt;</InputData>    <InputFilename>N</InputFilename>    <OutputFilename>Y</OutputFilename>    <ESBReturnCode>ESBWPS0000</ESBReturnCode>    <ESBReturnDetails>This is a normal situation.</ESBReturnDetails>    <DestinationReturnCode>0</DestinationReturnCode>    <DestinationReturnDetails>Success</DestinationReturnDetails>    <LogStatus>true</LogStatus>    <TransactionType>Response</TransactionType>    <DataLog>true</DataLog>  </TransactionLog>  <Order>    <DestinationOrderId>401784003</DestinationOrderId>    <SourceOrderId>201908201010</SourceOrderId>    <BillingAccount>      <SourceAccountId>9292000006</SourceAccountId>      <DestinationAccountId>1103252</DestinationAccountId>      <BillingServerId>3</BillingServerId>    </BillingAccount>    <OrderLineItem>      <SourceLineItemId>20190820101002</SourceLineItemId>      <ProductType>PKG</ProductType>      <BillingPackageId>110477</BillingPackageId>      <BillingPackageInstId>2341525</BillingPackageInstId>      <BillingPackageInstIdServ>3</BillingPackageInstIdServ>      <ActiveDt>2019-08-23T00:00:00Z</ActiveDt>      <BillingPackageInternalIdConcat>2341525|3</BillingPackageInternalIdConcat>      <ServiceLineId>201908201010</ServiceLineId>    </OrderLineItem>    <OrderLineItem>      <SourceLineItemId>20190820101003</SourceLineItemId>      <ProductType>COMP</ProductType>      <BillingPackageId>110477</BillingPackageId>      <BillingComponentId>110477000</BillingComponentId>      <BillingComponentInstId>4464977</BillingComponentInstId>      <BillingComponentInstIdServ>3</BillingComponentInstIdServ>      <ActiveDt>2019-08-23T00:00:00Z</ActiveDt>      <ReasonCode>1</ReasonCode>      <ProductStatus>0</ProductStatus>      <BillingComponentInternalIdConcat>4464977|3</BillingComponentInternalIdConcat>      <ServiceLineId>201908201010</ServiceLineId>      <DynamicProps>        <fieldName>Rate</fieldName>        <fieldType>COMP.Nrc</fieldType>      </DynamicProps>      <DynamicProps>        <fieldName>RateDt</fieldName>        <fieldType>COMP.Nrc</fieldType>      </DynamicProps>      <DynamicProps>        <fieldName>ViewId</fieldName>        <fieldType>COMP.Nrc</fieldType>      </DynamicProps>      <DynamicProps>        <fieldName>Annotation</fieldName>        <fieldType>COMP.Nrc</fieldType>      </DynamicProps>      <DynamicProps>        <fieldName>CurrencyCode</fieldName>        <fieldType>COMP.ProductRateOverride</fieldType>      </DynamicProps>      <DynamicProps>        <fieldName>OverrideRate</fieldName>        <fieldType>COMP.ProductRateOverride</fieldType>      </DynamicProps>      <DynamicProps>        <fieldName>ActiveDt</fieldName>        <fieldType>COMP.ProductRateOverride.Key</fieldType>      </DynamicProps>      <DynamicProps>        <fieldName>TrackingId</fieldName>        <fieldType>COMP.ProductRateOverride.Key</fieldType>      </DynamicProps>      <DynamicProps>        <fieldName>TrackingIdServ</fieldName>        <fieldType>COMP.ProductRateOverride.Key</fieldType>      </DynamicProps>      <DynamicProps>        <fieldName>ViewId</fieldName>        <fieldType>COMP.ProductRateOverride</fieldType>      </DynamicProps>      <DynamicProps>        <fieldName>ActiveDt</fieldName>        <fieldType>COMP.ProductRateKey.Key</fieldType>      </DynamicProps>      <DynamicProps>        <fieldName>TrackingId</fieldName>        <fieldType>COMP.ProductRateKey.Key</fieldType>      </DynamicProps>      <DynamicProps>        <fieldName>TrackingIdServ</fieldName>        <fieldType>COMP.ProductRateKey.Key</fieldType>      </DynamicProps>      <DynamicProps>        <fieldName>RateJurisdiction</fieldName>        <fieldType>COMP.ProductRateKey</fieldType>      </DynamicProps>      <DynamicProps>        <fieldName>RateUnits</fieldName>        <fieldType>COMP.ProductRateKey</fieldType>      </DynamicProps>      <DynamicProps>        <fieldName>UnitsType</fieldName>        <fieldType>COMP.ProductRateKey</fieldType>      </DynamicProps>      <DynamicProps>        <fieldName>Units</fieldName>        <fieldType>COMP.ProductRateKey</fieldType>      </DynamicProps>      <DynamicProps>        <fieldName>ViewId</fieldName>        <fieldType>COMP.ProductRateKey</fieldType>      </DynamicProps>      <DynamicProps>        <fieldName>CorridorPlanId</fieldName>        <fieldType>COMP.Corridor</fieldType>      </DynamicProps>      <DynamicProps>        <fieldName>ActiveDt</fieldName>        <fieldType>COMP.Corridor</fieldType>      </DynamicProps>      <DynamicProps>        <fieldName>InactiveDt</fieldName>        <fieldType>COMP.Corridor</fieldType>      </DynamicProps>      <PaymentType>COMP</PaymentType>      <isAlacarte>false</isAlacarte>    </OrderLineItem>    <OrderLineItem>      <SourceLineItemId>20190820101004</SourceLineItemId>      <ProductType>COMP</ProductType>      <BillingPackageId>110477</BillingPackageId>      <BillingComponentId>110477001</BillingComponentId>      <BillingComponentInstId>4464978</BillingComponentInstId>      <BillingComponentInstIdServ>3</BillingComponentInstIdServ>      <ActiveDt>2019-08-23T00:00:00Z</ActiveDt>      <ReasonCode>1</ReasonCode>      <ProductStatus>0</ProductStatus>      <BillingComponentInternalIdConcat>4464978|3</BillingComponentInternalIdConcat>      <ServiceLineId>201908201010</ServiceLineId>      <DynamicProps>        <fieldName>Rate</fieldName>        <fieldType>COMP.Nrc</fieldType>      </DynamicProps>      <DynamicProps>        <fieldName>RateDt</fieldName>        <fieldType>COMP.Nrc</fieldType>      </DynamicProps>      <DynamicProps>        <fieldName>ViewId</fieldName>        <fieldType>COMP.Nrc</fieldType>      </DynamicProps>      <DynamicProps>        <fieldName>Annotation</fieldName>        <fieldType>COMP.Nrc</fieldType>      </DynamicProps>      <DynamicProps>        <fieldName>CurrencyCode</fieldName>        <fieldType>COMP.ProductRateOverride</fieldType>      </DynamicProps>      <DynamicProps>        <fieldName>OverrideRate</fieldName>        <fieldType>COMP.ProductRateOverride</fieldType>      </DynamicProps>      <DynamicProps>        <fieldName>ActiveDt</fieldName>        <fieldType>COMP.ProductRateOverride.Key</fieldType>      </DynamicProps>      <DynamicProps>        <fieldName>TrackingId</fieldName>        <fieldType>COMP.ProductRateOverride.Key</fieldType>      </DynamicProps>      <DynamicProps>        <fieldName>TrackingIdServ</fieldName>        <fieldType>COMP.ProductRateOverride.Key</fieldType>      </DynamicProps>      <DynamicProps>        <fieldName>ViewId</fieldName>        <fieldType>COMP.ProductRateOverride</fieldType>      </DynamicProps>      <DynamicProps>        <fieldName>ActiveDt</fieldName>        <fieldType>COMP.ProductRateKey.Key</fieldType>      </DynamicProps>      <DynamicProps>        <fieldName>TrackingId</fieldName>        <fieldType>COMP.ProductRateKey.Key</fieldType>      </DynamicProps>      <DynamicProps>        <fieldName>TrackingIdServ</fieldName>        <fieldType>COMP.ProductRateKey.Key</fieldType>      </DynamicProps>      <DynamicProps>        <fieldName>RateJurisdiction</fieldName>        <fieldType>COMP.ProductRateKey</fieldType>      </DynamicProps>      <DynamicProps>        <fieldName>RateUnits</fieldName>        <fieldType>COMP.ProductRateKey</fieldType>      </DynamicProps>      <DynamicProps>        <fieldName>UnitsType</fieldName>        <fieldType>COMP.ProductRateKey</fieldType>      </DynamicProps>      <DynamicProps>        <fieldName>Units</fieldName>        <fieldType>COMP.ProductRateKey</fieldType>      </DynamicProps>      <DynamicProps>        <fieldName>ViewId</fieldName>        <fieldType>COMP.ProductRateKey</fieldType>      </DynamicProps>      <DynamicProps>        <fieldName>CorridorPlanId</fieldName>        <fieldType>COMP.Corridor</fieldType>      </DynamicProps>      <DynamicProps>        <fieldName>ActiveDt</fieldName>        <fieldType>COMP.Corridor</fieldType>      </DynamicProps>      <DynamicProps>        <fieldName>InactiveDt</fieldName>        <fieldType>COMP.Corridor</fieldType>      </DynamicProps>      <PaymentType>COMP</PaymentType>      <isAlacarte>false</isAlacarte>    </OrderLineItem>    <OrderLineItem>      <SourceLineItemId>20190820101005</SourceLineItemId>      <ProductType>COMP</ProductType>      <BillingPackageId>110477</BillingPackageId>      <BillingComponentId>911060090</BillingComponentId>      <BillingComponentInstId>4464979</BillingComponentInstId>      <BillingComponentInstIdServ>3</BillingComponentInstIdServ>      <ActiveDt>2019-08-23T00:00:00Z</ActiveDt>      <ReasonCode>1</ReasonCode>      <ProductStatus>0</ProductStatus>      <BillingComponentInternalIdConcat>4464979|3</BillingComponentInternalIdConcat>      <ServiceLineId>201908201010</ServiceLineId>      <DynamicProps>        <fieldName>Rate</fieldName>        <fieldType>COMP.Nrc</fieldType>      </DynamicProps>      <DynamicProps>        <fieldName>RateDt</fieldName>        <fieldType>COMP.Nrc</fieldType>      </DynamicProps>      <DynamicProps>        <fieldName>ViewId</fieldName>        <fieldType>COMP.Nrc</fieldType>      </DynamicProps>      <DynamicProps>        <fieldName>Annotation</fieldName>        <fieldType>COMP.Nrc</fieldType>      </DynamicProps>      <DynamicProps>        <fieldName>CurrencyCode</fieldName>        <fieldType>COMP.ProductRateOverride</fieldType>      </DynamicProps>      <DynamicProps>        <fieldName>OverrideRate</fieldName>        <fieldType>COMP.ProductRateOverride</fieldType>      </DynamicProps>      <DynamicProps>        <fieldName>ActiveDt</fieldName>        <fieldType>COMP.ProductRateOverride.Key</fieldType>      </DynamicProps>      <DynamicProps>        <fieldName>TrackingId</fieldName>        <fieldType>COMP.ProductRateOverride.Key</fieldType>      </DynamicProps>      <DynamicProps>        <fieldName>TrackingIdServ</fieldName>        <fieldType>COMP.ProductRateOverride.Key</fieldType>      </DynamicProps>      <DynamicProps>        <fieldName>ViewId</fieldName>        <fieldType>COMP.ProductRateOverride</fieldType>      </DynamicProps>      <DynamicProps>        <fieldName>ActiveDt</fieldName>        <fieldType>COMP.ProductRateKey.Key</fieldType>      </DynamicProps>      <DynamicProps>        <fieldName>TrackingId</fieldName>        <fieldType>COMP.ProductRateKey.Key</fieldType>      </DynamicProps>      <DynamicProps>        <fieldName>TrackingIdServ</fieldName>        <fieldType>COMP.ProductRateKey.Key</fieldType>      </DynamicProps>      <DynamicProps>        <fieldName>RateJurisdiction</fieldName>        <fieldType>COMP.ProductRateKey</fieldType>      </DynamicProps>      <DynamicProps>        <fieldName>RateUnits</fieldName>        <fieldType>COMP.ProductRateKey</fieldType>      </DynamicProps>      <DynamicProps>        <fieldName>UnitsType</fieldName>        <fieldType>COMP.ProductRateKey</fieldType>      </DynamicProps>      <DynamicProps>        <fieldName>Units</fieldName>        <fieldType>COMP.ProductRateKey</fieldType>      </DynamicProps>      <DynamicProps>        <fieldName>ViewId</fieldName>        <fieldType>COMP.ProductRateKey</fieldType>      </DynamicProps>      <DynamicProps>        <fieldName>CorridorPlanId</fieldName>        <fieldType>COMP.Corridor</fieldType>      </DynamicProps>      <DynamicProps>        <fieldName>ActiveDt</fieldName>        <fieldType>COMP.Corridor</fieldType>      </DynamicProps>      <DynamicProps>        <fieldName>InactiveDt</fieldName>        <fieldType>COMP.Corridor</fieldType>      </DynamicProps>      <PaymentType>COMP</PaymentType>      <isAlacarte>false</isAlacarte>    </OrderLineItem>    <OrderLineItem>      <SourceLineItemId>20190820101001</SourceLineItemId>      <ServiceAccount>        <CurrencyCode>12</CurrencyCode>        <ExrateClass>1</ExrateClass>      </ServiceAccount>      <ProductType>SI</ProductType>      <BillingServiceViewId>1188498003</BillingServiceViewId>      <BillingServiceInternalId>2333813</BillingServiceInternalId>      <BillingServiceInternalIdResets>0</BillingServiceInternalIdResets>      <ActiveDt>2019-08-23T00:00:00Z</ActiveDt>      <CreateDt>2019-08-23T18:14:35Z</CreateDt>      <ViewEffectiveDt>2019-08-23T00:00:00Z</ViewEffectiveDt>      <EmfConfigId>110</EmfConfigId>      <CIEMs>        <Key>          <ViewId>3531062003</ViewId>        </Key>        <ActiveDate>2019-08-23T00:00:00Z</ActiveDate>        <CreateDt>2019-08-23T01:00:00Z</CreateDt>        <ServiceExternalId>891112006</ServiceExternalId>        <ServiceExternalIdType>17</ServiceExternalIdType>        <IntendedViewEffectiveDt>2019-08-23T01:00:00Z</IntendedViewEffectiveDt>        <IsCurrent>true</IsCurrent>        <IsFromInventory>false</IsFromInventory>        <ServiceInternalId>2333813</ServiceInternalId>        <ServiceInternalIdResets>0</ServiceInternalIdResets>        <ViewCreatedDt>2019-08-23T01:00:00Z</ViewCreatedDt>        <ViewEffectiveDt>2019-08-23T01:00:00Z</ViewEffectiveDt>        <ViewStatus>1</ViewStatus>      </CIEMs>      <CIEMs>        <Key>          <ViewId>3531063003</ViewId>        </Key>        <ActiveDate>2019-08-23T00:00:00Z</ActiveDate>        <CreateDt>2019-08-23T01:00:00Z</CreateDt>        <ServiceExternalId>52000020030237</ServiceExternalId>        <ServiceExternalIdType>18</ServiceExternalIdType>        <IntendedViewEffectiveDt>2019-08-23T01:00:00Z</IntendedViewEffectiveDt>        <IsCurrent>true</IsCurrent>        <IsFromInventory>false</IsFromInventory>        <ServiceInternalId>2333813</ServiceInternalId>        <ServiceInternalIdResets>0</ServiceInternalIdResets>        <ViewCreatedDt>2019-08-23T01:00:00Z</ViewCreatedDt>        <ViewEffectiveDt>2019-08-23T01:00:00Z</ViewEffectiveDt>        <ViewStatus>1</ViewStatus>      </CIEMs>      <BillingServiceInternalIdConcat>1188498003|2333813|0</BillingServiceInternalIdConcat>      <ServiceLineId>201908201010</ServiceLineId>      <DynamicProps>        <fieldName>ParamName</fieldName>        <fieldType>Services.AnnounceDate</fieldType>      </DynamicProps>      <DynamicProps>        <fieldName>ParamId</fieldName>        <fieldType>Services.AnnounceDate</fieldType>      </DynamicProps>      <DynamicProps>        <fieldName>ParamValue</fieldName>        <fieldType>Services.AnnounceDate</fieldType>      </DynamicProps>      <DynamicProps>        <fieldName>ParamName</fieldName>        <fieldType>Services.MarketName</fieldType>      </DynamicProps>      <DynamicProps>        <fieldName>ParamId</fieldName>        <fieldType>Services.MarketName</fieldType>      </DynamicProps>      <DynamicProps>        <fieldName>ParamValue</fieldName>        <fieldType>Services.MarketName</fieldType>      </DynamicProps>      <DynamicProps>        <fieldName>ParamName</fieldName>        <fieldType>Services.AuctionDate</fieldType>      </DynamicProps>      <DynamicProps>        <fieldName>ParamId</fieldName>        <fieldType>Services.AuctionDate</fieldType>      </DynamicProps>      <DynamicProps>        <fieldName>ParamValue</fieldName>        <fieldType>Services.AuctionDate</fieldType>      </DynamicProps>      <DynamicProps>        <fieldName>ParamName</fieldName>        <fieldType>Services.MarketOwner</fieldType>      </DynamicProps>      <DynamicProps>        <fieldName>ParamId</fieldName>        <fieldType>Services.MarketOwner</fieldType>      </DynamicProps>      <DynamicProps>        <fieldName>ParamValue</fieldName>        <fieldType>Services.MarketOwner</fieldType>      </DynamicProps>      <DynamicProps>        <fieldName>ParamName</fieldName>        <fieldType>Services.IDNumber</fieldType>      </DynamicProps>      <DynamicProps>        <fieldName>ParamId</fieldName>        <fieldType>Services.IDNumber</fieldType>      </DynamicProps>      <DynamicProps>        <fieldName>ParamValue</fieldName>        <fieldType>Services.IDNumber</fieldType>      </DynamicProps>      <DynamicProps>        <fieldName>ParamName</fieldName>        <fieldType>Services.CoreNo</fieldType>      </DynamicProps>      <DynamicProps>        <fieldName>ParamId</fieldName>        <fieldType>Services.CoreNo</fieldType>      </DynamicProps>      <DynamicProps>        <fieldName>ParamValue</fieldName>        <fieldType>Services.CoreNo</fieldType>      </DynamicProps>      <DynamicProps>        <fieldName>ParamName</fieldName>        <fieldType>Services.Distance</fieldType>      </DynamicProps>      <DynamicProps>        <fieldName>ParamId</fieldName>        <fieldType>Services.Distance</fieldType>      </DynamicProps>      <DynamicProps>        <fieldName>ParamValue</fieldName>        <fieldType>Services.Distance</fieldType>      </DynamicProps>      <DynamicProps>        <fieldName>ParamName</fieldName>        <fieldType>Services.Flag</fieldType>      </DynamicProps>      <DynamicProps>        <fieldName>ParamId</fieldName>        <fieldType>Services.Flag</fieldType>      </DynamicProps>      <DynamicProps>        <fieldName>ParamValue</fieldName>        <fieldType>Services.Flag</fieldType>      </DynamicProps>      <DynamicProps>        <fieldName>ParamName</fieldName>        <fieldType>Services.Description</fieldType>      </DynamicProps>      <DynamicProps>        <fieldName>ParamId</fieldName>        <fieldType>Services.Description</fieldType>      </DynamicProps>      <DynamicProps>        <fieldName>ParamValue</fieldName>        <fieldType>Services.Description</fieldType>      </DynamicProps>      <DynamicProps>        <fieldName>ParamName</fieldName>        <fieldType>Services.ContractDate</fieldType>      </DynamicProps>      <DynamicProps>        <fieldName>ParamId</fieldName>        <fieldType>Services.ContractDate</fieldType>      </DynamicProps>      <DynamicProps>        <fieldName>ParamValue</fieldName>        <fieldType>Services.ContractDate</fieldType>      </DynamicProps>      <DynamicProps>        <fieldName>ParamName</fieldName>        <fieldType>Services.ContractEndDT</fieldType>      </DynamicProps>      <DynamicProps>        <fieldName>ParamId</fieldName>        <fieldType>Services.ContractEndDT</fieldType>      </DynamicProps>      <DynamicProps>        <fieldName>ParamValue</fieldName>        <fieldType>Services.ContractEndDT</fieldType>      </DynamicProps>      <DynamicProps>        <fieldName>ParamName</fieldName>        <fieldType>Services.ContractStartDT</fieldType>      </DynamicProps>      <DynamicProps>        <fieldName>ParamId</fieldName>        <fieldType>Services.ContractStartDT</fieldType>      </DynamicProps>      <DynamicProps>        <fieldName>ParamValue</fieldName>        <fieldType>Services.ContractStartDT</fieldType>      </DynamicProps>      <DynamicProps>        <fieldName>ParamName</fieldName>        <fieldType>Services.PortInter</fieldType>      </DynamicProps>      <DynamicProps>        <fieldName>ParamId</fieldName>        <fieldType>Services.PortInter</fieldType>      </DynamicProps>      <DynamicProps>        <fieldName>ParamValue</fieldName>        <fieldType>Services.PortInter</fieldType>      </DynamicProps>      <DynamicProps>        <fieldName>ParamName</fieldName>        <fieldType>Services.PortLocal</fieldType>      </DynamicProps>      <DynamicProps>        <fieldName>ParamId</fieldName>        <fieldType>Services.PortLocal</fieldType>      </DynamicProps>      <DynamicProps>        <fieldName>ParamValue</fieldName>        <fieldType>Services.PortLocal</fieldType>      </DynamicProps>      <DynamicProps>        <fieldName>ParamName</fieldName>        <fieldType>Services.PortInterUnit</fieldType>      </DynamicProps>      <DynamicProps>        <fieldName>ParamId</fieldName>        <fieldType>Services.PortInterUnit</fieldType>      </DynamicProps>      <DynamicProps>        <fieldName>ParamValue</fieldName>        <fieldType>Services.PortInterUnit</fieldType>      </DynamicProps>      <DynamicProps>        <fieldName>ParamName</fieldName>        <fieldType>Services.PortLocalUnit</fieldType>      </DynamicProps>      <DynamicProps>        <fieldName>ParamId</fieldName>        <fieldType>Services.PortLocalUnit</fieldType>      </DynamicProps>      <DynamicProps>        <fieldName>ParamValue</fieldName>        <fieldType>Services.PortLocalUnit</fieldType>      </DynamicProps>      <DynamicProps>        <fieldName>ParamName</fieldName>        <fieldType>Services.Speed</fieldType>      </DynamicProps>      <DynamicProps>        <fieldName>ParamId</fieldName>        <fieldType>Services.Speed</fieldType>      </DynamicProps>      <DynamicProps>        <fieldName>ParamValue</fieldName>        <fieldType>Services.Speed</fieldType>      </DynamicProps>      <DynamicProps>        <fieldName>ParamName</fieldName>        <fieldType>Services.SpeedDownload</fieldType>      </DynamicProps>      <DynamicProps>        <fieldName>ParamId</fieldName>        <fieldType>Services.SpeedDownload</fieldType>      </DynamicProps>      <DynamicProps>        <fieldName>ParamValue</fieldName>        <fieldType>Services.SpeedDownload</fieldType>      </DynamicProps>      <DynamicProps>        <fieldName>ParamName</fieldName>        <fieldType>Services.SpeedUpload</fieldType>      </DynamicProps>      <DynamicProps>        <fieldName>ParamId</fieldName>        <fieldType>Services.SpeedUpload</fieldType>      </DynamicProps>      <DynamicProps>        <fieldName>ParamValue</fieldName>        <fieldType>Services.SpeedUpload</fieldType>      </DynamicProps>      <DynamicProps>        <fieldName>ParamName</fieldName>        <fieldType>Services.SpeedUnit</fieldType>      </DynamicProps>      <DynamicProps>        <fieldName>ParamId</fieldName>        <fieldType>Services.SpeedUnit</fieldType>      </DynamicProps>      <DynamicProps>        <fieldName>ParamValue</fieldName>        <fieldType>Services.SpeedUnit</fieldType>      </DynamicProps>      <DynamicProps>        <fieldName>ParamName</fieldName>        <fieldType>Services.DownloadUnit</fieldType>      </DynamicProps>      <DynamicProps>        <fieldName>ParamId</fieldName>        <fieldType>Services.DownloadUnit</fieldType>      </DynamicProps>      <DynamicProps>        <fieldName>ParamValue</fieldName>        <fieldType>Services.DownloadUnit</fieldType>      </DynamicProps>      <DynamicProps>        <fieldName>ParamName</fieldName>        <fieldType>Services.UploadUnit</fieldType>      </DynamicProps>      <DynamicProps>        <fieldName>ParamId</fieldName>        <fieldType>Services.UploadUnit</fieldType>      </DynamicProps>      <DynamicProps>        <fieldName>ParamValue</fieldName>        <fieldType>Services.UploadUnit</fieldType>      </DynamicProps>      <DynamicProps>        <fieldName>ParamName</fieldName>        <fieldType>Services.Destination</fieldType>      </DynamicProps>      <DynamicProps>        <fieldName>ParamId</fieldName>        <fieldType>Services.Destination</fieldType>      </DynamicProps>      <DynamicProps>        <fieldName>ParamValue</fieldName>        <fieldType>Services.Destination</fieldType>      </DynamicProps>      <DynamicProps>        <fieldName>ParamName</fieldName>        <fieldType>Services.Operator</fieldType>      </DynamicProps>      <DynamicProps>        <fieldName>ParamId</fieldName>        <fieldType>Services.Operator</fieldType>      </DynamicProps>      <DynamicProps>        <fieldName>ParamValue</fieldName>        <fieldType>Services.Operator</fieldType>      </DynamicProps>      <DynamicProps>        <fieldName>ParamName</fieldName>        <fieldType>Services.ContractTerm</fieldType>      </DynamicProps>      <DynamicProps>        <fieldName>ParamId</fieldName>        <fieldType>Services.ContractTerm</fieldType>      </DynamicProps>      <DynamicProps>        <fieldName>ParamValue</fieldName>        <fieldType>Services.ContractTerm</fieldType>      </DynamicProps>      <DynamicProps>        <fieldName>ParamName</fieldName>        <fieldType>Services.InstallationName</fieldType>      </DynamicProps>      <DynamicProps>        <fieldName>ParamId</fieldName>        <fieldType>Services.InstallationName</fieldType>      </DynamicProps>      <DynamicProps>        <fieldName>ParamValue</fieldName>        <fieldType>Services.InstallationName</fieldType>      </DynamicProps>      <DynamicProps>        <fieldName>ParamName</fieldName>        <fieldType>Services.InstallationAddress</fieldType>      </DynamicProps>      <DynamicProps>        <fieldName>ParamId</fieldName>        <fieldType>Services.InstallationAddress</fieldType>      </DynamicProps>      <DynamicProps>        <fieldName>ParamValue</fieldName>        <fieldType>Services.InstallationAddress</fieldType>      </DynamicProps>      <DynamicProps>        <fieldName>ParamName</fieldName>        <fieldType>Services.MergeService</fieldType>      </DynamicProps>      <DynamicProps>        <fieldName>ParamId</fieldName>        <fieldType>Services.MergeService</fieldType>      </DynamicProps>      <DynamicProps>        <fieldName>ParamValue</fieldName>        <fieldType>Services.MergeService</fieldType>      </DynamicProps>      <DynamicProps>        <fieldName>ParamName</fieldName>        <fieldType>Services.Po</fieldType>      </DynamicProps>      <DynamicProps>        <fieldName>ParamId</fieldName>        <fieldType>Services.Po</fieldType>      </DynamicProps>      <DynamicProps>        <fieldName>ParamValue</fieldName>        <fieldType>Services.Po</fieldType>      </DynamicProps>      <DynamicProps>        <fieldName>ParamName</fieldName>        <fieldType>Services.HideCATID</fieldType>      </DynamicProps>      <DynamicProps>        <fieldName>ParamId</fieldName>        <fieldType>Services.HideCATID</fieldType>      </DynamicProps>      <DynamicProps>        <fieldName>ParamValue</fieldName>        <fieldType>Services.HideCATID</fieldType>      </DynamicProps>      <PaymentType>SI</PaymentType>      <CurrencyCode>th_TH</CurrencyCode>      <RevRcvCostCtr>1</RevRcvCostCtr>    </OrderLineItem>    <InterfaceNumber>UDB_A2</InterfaceNumber>    <OrderStatusId>80</OrderStatusId>    <GenerateWorkflow>false</GenerateWorkflow>  </Order></p:CreateServiceResponse>]]>",
    "outputFilename": "Y",
    "requestDateTime": "2019-08-23T11:14:49.829Z",
    "responseDateTime": "2019-08-23T11:14:49.880Z",
    "sourceInterfaceType": "W",
    "sourceSystem": "OM",
    "tranID": "201908201010",
    "transactionType": "Response"
  },
  "HPESARequestTime": "2019-08-23 18:15:00 989 +0700",
  "HPESAResponseTime": "2019-08-23 18:16:03 222 +0700"
}