{
  "order": {
    "destinationOrderId": "",
    "interfaceNumber": "UDB_A38",
    "orderLineItem": [],
    "orderType": "CCN",
    "sourceOrderId": "201908221012"
  },
  "transactionLog": {
    "dataLog": true,
    "destinationInterfaceType": "K",
    "destinationReturnCode": "0",
    "destinationReturnDetails": "Success",
    "destinationSystem": "Billing",
    "esbReturnCode": "ESBWPS0000",
    "esbReturnDetails": "This is a normal situation.",
    "inputData": "<![CDATA[<?xml version=\"1.0\" encoding=\"UTF-8\"?><p:UpdateServiceComponentResponseBilling xsi:type=\"p:UpdateServiceComponentResponseBilling\" xmlns:xsi=\"http://www.w3.org/2001/XMLSchema-instance\" xmlns:p=\"http://KenanLibs/RequestResponseBO/A38\">  <Account>    <Key>      <AccountInternalId>1103253</AccountInternalId>    </Key>    <ServerId>3</ServerId>    <Order>      <OrderNumber>201908221012</OrderNumber>    </Order>    <OrderType>CCN</OrderType>  </Account>  <Result>    <Code>0</Code>    <Text>Success</Text>  </Result></p:UpdateServiceComponentResponseBilling>]]>",
    "inputFilename": "N",
    "interfaceNo": "UDB_A38",
    "logStatus": true,
    "outputData": "<![CDATA[<?xml version=\"1.0\" encoding=\"UTF-8\"?><p:UpdateServiceComponentResponse xsi:type=\"p:UpdateServiceComponentResponse\" xmlns:xsi=\"http://www.w3.org/2001/XMLSchema-instance\" xmlns:p=\"http://ESBLibs/RequestResponseCBO/A38\">  <TransactionLog>    <TranID>20190825103012</TranID>    <InterfaceNo>UDB_A38</InterfaceNo>    <SourceSystem>OM</SourceSystem>    <SourceUsername></SourceUsername>    <DestinationSystem>Billing</DestinationSystem>    <SourceInterfaceType>W</SourceInterfaceType>    <DestinationInterfaceType>K</DestinationInterfaceType>    <RequestDateTime>2019-08-27T07:26:40.411Z</RequestDateTime>    <ResponseDateTime>2019-08-27T07:26:40.427Z</ResponseDateTime>    <InputData>&lt;![CDATA[&lt;?xml version=&quot;1.0&quot; encoding=&quot;UTF-8&quot;?>&lt;p:UpdateServiceComponentResponseBilling xsi:type=&quot;p:UpdateServiceComponentResponseBilling&quot; xmlns:xsi=&quot;http://www.w3.org/2001/XMLSchema-instance&quot; xmlns:p=&quot;http://KenanLibs/RequestResponseBO/A38&quot;>  &lt;Account>    &lt;Key>      &lt;AccountInternalId>1103253&lt;/AccountInternalId>    &lt;/Key>    &lt;ServerId>3&lt;/ServerId>    &lt;Order>      &lt;OrderNumber>201908221012&lt;/OrderNumber>    &lt;/Order>    &lt;OrderType>CCN&lt;/OrderType>  &lt;/Account>  &lt;Result>    &lt;Code>0&lt;/Code>    &lt;Text>Success&lt;/Text>  &lt;/Result>&lt;/p:UpdateServiceComponentResponseBilling>]]&gt;</InputData>    <InputFilename>N</InputFilename>    <OutputFilename>Y</OutputFilename>    <ESBReturnCode>ESBWPS0000</ESBReturnCode>    <ESBReturnDetails>This is a normal situation.</ESBReturnDetails>    <DestinationReturnCode>0</DestinationReturnCode>    <DestinationReturnDetails>Success</DestinationReturnDetails>    <LogStatus>true</LogStatus>    <TransactionType>Response</TransactionType>    <DataLog>true</DataLog>  </TransactionLog>  <Order>    <DestinationOrderId></DestinationOrderId>    <OrderType>CCN</OrderType>    <SourceOrderId>201908221012</SourceOrderId>    <InterfaceNumber>UDB_A38</InterfaceNumber>  </Order></p:UpdateServiceComponentResponse>]]>",
    "outputFilename": "Y",
    "requestDateTime": "2019-08-27T07:26:40.411Z",
    "responseDateTime": "2019-08-27T07:26:40.423Z",
    "sourceInterfaceType": "W",
    "sourceSystem": "OM",
    "tranID": "20190825103012",
    "transactionType": "Response"
  },
  "HPESARequestTime": "2019-08-27 14:27:25 157 +0700",
  "HPESAResponseTime": "2019-08-27 14:27:49 474 +0700"
}