{
  "isBulk": "N",
  "transactionLog": {
    "tranID": "201908201090",
    "interfaceNo": "UDB_A4",
    "sourceSystem": "OM",
    "destinationSystem": "Billing",
    "sourceInterfaceType": "W",
    "destinationInterfaceType": "K",
    "requestDateTime": "2019-08-22T18:30:00.000Z",
    "logStatus": true,
    "transactionType": "Request",
    "dataLog": true
  },
  "order": {
    "orderType": "SPO",
    "requestDate": "2019-08-22",
    "sourceOrderId": "201908201010",
    "billingAccount": {
      "sourceAccountId": "9292000006",
      "sourceAccountIdType": 1,
      "destinationAccountId": 1103252,
      "billingServerId": 3
    },
    "generateWorkflow": false,
    "orderLineItem": [
      {
        "sourceLineItemId": "20190820101001",
        "productType": "si",
        "resumeDt": "2019-08-22T19:30:00.000Z",
        "orderStatusReasonId": 1,
        "orderAnnotation": "OM Reconnect",
        "orderedServiceType": 3,
        "billingServiceInternalIdConcat": "1188498003|2333813|0",
        "serviceLineId": "201908201010"
      }
    ]

  }

}
