{
  "accountNo": "938352",
  "reasonCode": "1",
  "appIncCatMny": "1",
  "appVatMny": "0",
  "appVatRate": "7",
  "userLogin": "myfrontEnd_user01",
  "transactionLog": {
    "sourceSystem": "OM",
    "tranID": "20191002135809"
  }
}
