{
    "requestHeader": {
        "version": "2",
        "messageSeq": "20190801907000003",
        "ownershipInfo": {
            "beid": "20101"
        },
        "accessSecurity": {
            "loginSystemCode": "OMTest1",
            "password": "bAndWbh/0pzVxhCWaUb6Wz33b/HfLK2NcnMu+46HeHU="
        },
        "operatorInfo": {
            "channelID": "1",
            "operatorID": "101"
        }
    },
    "queryGroupMemberListRequest": {
        "totalNumber": 0,
        "beginRowNum": 0,
        "fetchRowNum": 1000,
        "subGroupAccessCode": {
            "subGroupCode": "333333333"
        }
    }
}