{
    "queryBalanceResult": {
        "freeUnitItem": [
            {
                "freeUnitItemDetail": [
                    {
                        "currentAmount": 0,
                        "effectiveTime": "20190730112154",
                        "expireTime": "20370101000000",
                        "freeUnitInstanceID": 136000000005635126,
                        "freeUnitOrigin": {
                            "originType": "7",
                            "planID": 0
                        },
                        "initialAmount": 240000,
                        "rollOverFlag": "N"
                    }
                ],
                "freeUnitType": "C_5002",
                "freeUnitTypeName": "3G DATA VOLUME",
                "measureUnit": "1106",
                "measureUnitName": "Bytes",
                "totalInitialAmount": 240000,
                "totalUnusedAmount": 0
            }
        ]
    },
    "resultHeader": {
        "resultCode": "0",
        "resultDesc": "Operation successfully.",
        "version": "1"
    },
    "HPESARequestTime": "2019-08-01 20:10:22 624 +0700",
    "HPESAResponseTime": "2019-08-01 20:10:23 053 +0700"
}