{
  "orderId": "MFE2019050000000200",
  "highPriorityOrderType": "Reconnect",
  "channel": "MFE",
  "isProvisionRequired": true,
  "rerunRevisionNumber": "1",
  "orderItem": [
    {
      "orderType": "Reconnect",
      "sourceEntity": "By Cust",
      "orderExecutionType": "Now",
      "orderExecutionDate": "2019-04-29T00:00"
    },
    {
      "orderType": "Suspend",
      "sourceEntity": "By Cust",
      "orderExecutionType": "Future Date",
      "orderExecutionDate": "2019-05-10T00:00"
    }
  ],
  "sourceCustomerAccount": {
    "customerAccountId": "00123456789",
    "existingFlag": true
  },
  "subscriberInfo": {
    "msisdn": "0826789065",
    "serviceType": "0",
    "sourceSimInfo": [
      {
        "iccid": "123456789123456789",
        "simType": "Primary",
        "imsi": "262011234567"
      }
    ]
  },
  "saleInfo": {
    "saleEmpId": "38002222",
    "sapCode": "0800222003333",
    "dealerCode": "CAT",
    "registerBySellerName": "CAT_MNP",
    "saleRole": "role"
  }
}