{
  "channel": "",
  "highPriorityOrderType": "Adjust Balance",
  "isProvisionRequired": true,
  "notificationContact": "abc@cattelecom.com",
  "notificationType": "Both",
  "orderCompletedDate": "",
  "orderId": "",
  "orderItem": [
    {
      "orderType": "Adjust Balance",
	  "orderItemId":1,
      "orderExecutionDate": "2019-05-15",
      "orderExecutionType": "Now",
    "checkBalanceFlag":true,
    "coreBalance": {
      "amount": "900"
    }
    }
  ],
  "orderModifiedDate": "",
  "orderSubmittedDate": "2019-04-29T00:00",
  "rerunRevisionNumber": "",
  "saleInfo": {
    "saleEmpId": "",
    "sapCode": "",
    "dealerCode": "CAT",
    "verifyIdentity": "TRUE",
    "registerBySellerName": "CAT_MNP",
    "saleRole": ""
  },
  "writtenLanguage": "01",
  "subscriberInfo": {
    "serviceType": "0",
    "reserveFlag": false,
    "simInfo": [
      {
        "simType": "Primary",
        "iccid": "123456789123456789",
        "imsi": "262011234567"
      }
    ],
    "subscriberKey": "1234",
    "subscriberNumber": "87687587687",
    "msisdn": "+66-02-6789065"
  },
  "sourceCustomerAccount": {
    "lastName": "Dansuput",
    "writtenLanguage": "01",
    "ivrLanguage": "01",
    "customerFocus": "",
    "gender": "Male",
    "documentType": "passport",
    "documentNumber": "S09876543",
    "companyName": "abc tech",
    "existingFlag": false,
    "title": "Mr",
    "citizenshipId": "3099-001",
    "customerType": "1",
    "emailAddress": "abc@gmail.com",
    "companyBranchId": "1234",
    "customerSegment": "",
    "customerId": "00123456789",
    "contactNumber": "987654321",
    "taxRegisterNumber": "345678",
    "address": {
      "country": "Thailand",
      "kwangTambon": "Phaya Thai",
      "province": "Bangkok",
      "road": "Phayathai Rd",
      "khetAmphur": "Thanon",
      "houseNumber": "15/4",
      "troksoi": "",
      "postCode": "10400",
      "moo": "Soi",
      "village": "Soi Chuladit",
      "building": "Saengkan"
    },
    "companyType": "Private",
    "customerGroup": "abc_group",
    "firstName": "Thosapon",
    "customerAccountId": "",
    "catEmployeeFlag": "1",
    "nationality": "Thailand",
    "dob": "1980-01-15",
	"billingAccount": {}
  }
}