{
  "channel": "",
  "highPriorityOrderType": "Extend Expiration",
  "isProvisionRequired": true,
  "notificationContact": "abc@cattelecom.com",
  "notificationType": "Both",
  "orderCompletedDate": "",
  "orderId": "",
  "orderItem": [
    {
      "orderType": "Add PO",
      "productOffering": [
        {
          "itemTerm": "12 Months",
          "offeringType": "Primary",
          "itemPrice": {
            "unitOfMeasure": "GB",
            "price": {
              "taxRate": "23%",
              "currencyCode": "Baht",
              "dutyFreeAmount": "250"
            },
            "priceType": "recurring",
            "description": "",
            "recurringChargePeriod": "6 Months",
            "taxIncludedAmount": "450"
          },
          "offeringId": 1001
        }
      ],
      "orderExecutionDate": "2019-05-15",
      "orderExecutionType": "Now",
      "orderItemId": 1
    },
    {
      "orderType": "Extend Expiration",
      "orderExecutionDate": "2019-05-15",
      "orderExecutionType": "Now",
      "extendedDay": 45,
      "orderItemId": 2
    }
  ],
  "orderModifiedDate": "",
  "orderSubmittedDate": "2019-04-29T00:00",
  "rerunRevisionNumber": "",
  "saleInfo": {
    "saleEmpId": "",
    "sapCode": "",
    "dealerCode": "CAT",
    "verifyIdentity": "TRUE",
    "registerBySellerName": "CAT_MNP",
    "saleRole": ""
  },
  "writtenLanguage": "01",
  "sourceCustomerAccount": {
    "lastName": "Dansuput",
    "customerFocus": "",
    "gender": "Male",
    "documentType": "passport",
    "documentNumber": "S09876543",
    "companyName": "abc tech",
    "existingFlag": false,
    "title": "Mr",
    "citizenshipId": "3099-001",
    "customerType": "1",
    "emailAddress": "abc@gmail.com",
    "companyBranchId": "1234",
    "customerSegment": "",
    "customerId": "00123456789",
    "contactNumber": "987654321",
    "taxRegisterNumber": "345678",
    "address": {
      "country": "Thailand",
      "kwangTambon": "Phaya Thai",
      "province": "Bangkok",
      "road": "Phayathai Rd",
      "khetAmphur": "Thanon",
      "houseNumber": "15/4",
      "troksoi": "",
      "postCode": "10400",
      "moo": "Soi",
      "village": "Soi Chuladit",
      "building": "Saengkan"
    },
    "companyType": "Private",
    "customerGroup": "abc_group",
    "firstName": "Thosapon",
    "customerAccountId": "",
    "catEmployeeFlag": "1",
    "nationality": "Thailand",
    "dob": "1980-01-15",
    "billingAccount": {
    },
    "writtenLanguage": "01",
    "ivrLanguage": "01"
  },
  "subscriberInfo": {
    "serviceType": "0",
    "reserveFlag": false,
    "simInfo": [
      {
        "simType": "Primary",
        "iccid": "123456789123456789",
        "imsi": "262011234567"
      }
    ],
    "subscriberKey": "1234",
    "subscriberNumber": "87687587687",
    "msisdn": "+66-02-6789065",
    "preProFlag": false
  }
}