{
    "requestHeader": {
        "version": "1",
        "businessCode": "CreateSubscriber",
        "messageSeq": "MFE20190807010000005",
        "ownershipInfo": {
            "beid": "20101"
        },
        "accessSecurity": {
            "loginSystemCode": "OMTest1",
            "password": "bAndWbh/0pzVxhCWaUb6Wz33b/HfLK2NcnMu+46HeHU=",
            "remoteIP": "10.36.1.48"
        },
        "operatorInfo": {
            "channelID": "1",
            "operatorID": "101"
        }
    },
    "orderRequest": {
        "orderId": "MFE20190807010000005",
        "revision": 0,
        "startOrderItemId": 1,
        "orderCallType": "S",
        "orderItem": [
            {
                "orderItemId": 1,
                "orderItemType": "NewSub_BlankSIM"
            },
            {
                "orderItemId": 2,
                "orderItemType": "AddSO"
            }
        ]
    },
    "createSubscriberRequest": {
        "registerCustomer": {
            "opType": "1",
            "custKey": "320000002",
            "custInfo": {
                "custClass": "1",
                "custNodeType": "1",
                "custType": "2",
                "custBasicInfo": {
                    "dftIVRLang": "2063",
                    "dftWrittenLang": "2063"
                }
            }
        },
        "account": [
            {
                "acctKey": "32000000201",
                "acctInfo": {
                    "billCycleType": "01",
                    "acctType": "1",
                    "acctClass": "1",
                    "paymentType": "0",
                    "currencyID": 1141
                }
            }
        ],
        "subscriber": {
            "subscriberKey": "20190807864201372",
            "subscriberInfo": {
                "subBasicInfo": {
                    "subLevel": "1"
                },
                "subIdentity": [
                    {
                        "primaryFlag": "1",
                        "subIdentity": "864201372",
                        "subIdentityType": "1"
                    },
                    {
                        "primaryFlag": "2",
                        "subIdentity": "540080000000005",
                        "subIdentityType": "2"
                    }
                ],
                "status": "2"
            },
            "subPaymentMode": {
                "acctKey": "32000000201",
                "paymentMode": "0"
            }
        },
        "primaryOffering": {
            "offeringKey": {
                "offeringID": 315403598
            }
        },
        "supplementaryOffering": [
            {
                "effectiveTime": {
                    "mode": "I"
                },
                "offeringKey": {
                    "offeringID": 1616526243
                }
            }
        ]
    }
}