{
    "requestHeader": {
        "version": "1",
        "messageSeq": "MFE20190823130000002",
        "ownershipInfo": {
            "beid": "20101"
        },
        "accessSecurity": {
            "loginSystemCode": "OMTest1",
            "password": "bAndWbh/0pzVxhCWaUb6Wz33b/HfLK2NcnMu+46HeHU=",
            "remoteIP": "10.36.1.48"
        },
        "operatorInfo": {
            "operatorID": "101",
            "channelID": "1"
        }
    },
    "orderRequest": {
        "orderId": "MFE20190823130000002",
        "revision": 1,
        "startOrderItemId": 1,
        "orderCallType": "S",
        "orderItem": [
            {
                "orderItemId": 1,
                "orderItemType": "ChangeOwner"
            }
        ]
    },
    "changeSubOwnershipRequest": {
        "oldOwnership": {
            "subscriberKey": "20190823864201374"
        },
        "newOwnership": {
    		"registerCustomer": {
        		"opType": "2",
		        "custKey": "330000001"
    		},
    		"subscriber": {
	            "subscriberKey": "201908231601864201374",
    			"subDFTAcct": {
    				"acctKey": "33000000102",
    				"payRelationKey": "20190823160100864201374"
    			}
    		}
        }
    }
}