{
    "orderResult": {
        "orderId": "MFE20190820050000001",
        "orderItemId": 1,
        "returnCode": 0,
        "returnMessage": "Error java.lang.NullPointerException\tat com.png.FlowUtil.request(FlowUtil.java:1333)\tat com.png.WorkerChild.ChildWork(WorkerChild.java:355)\tat com.png.WorkerChild.process(WorkerChild.java:433)\tat com.png.WorkerChild.run(WorkerChild.java:482) on 2019-08-20 22:22:52"
    },
    "HPESARequestTime": "2019-08-20 14:09:14 720 +0700",
    "HPESAResponseTime": "2019-08-20 14:09:25 492 +0700"
}