{
    "requestHeader": {
        "version": "1",
        "businessCode": "ChangeSubIdentity",
        "messageSeq": "MFE20190820070000002",
        "ownershipInfo": {
            "beid": "20101"
        },
        "accessSecurity": {
            "loginSystemCode": "OMTest1",
            "password": "bAndWbh/0pzVxhCWaUb6Wz33b/HfLK2NcnMu+46HeHU=",
            "remoteIP": "10.36.1.48"
        },
        "operatorInfo": {
            "operatorID": "101",
            "channelID": "1"
        }
    },
    "orderRequest": {
        "orderId": "MFE20190820070000001",
        "revision": 1,
        "startOrderItemId": 1,
        "orderCallType": "S",
        "orderItem": [
            {
                "orderItemId": 1,
                "orderItemType": "ChangeMSISDN"
            }
        ]
    },
    "changeSubIdentityRequest": {
        "subAccessCode": {
            "primaryIdentity": "864201375"
        },
        "modifySubIdentity": [
            {
                "oldSubIdentity": "864201375",
                "oldSubIdentityType": "1",
                "newSubIdentity": "864201374"
            }
        ]
    }
}