{
    "requestHeader": {
        "version": "1",
        "messageSeq": "MFE20190909430000001",
        "ownershipInfo": {
            "beid": "20101"
        },
        "accessSecurity": {
            "loginSystemCode": "OMTest1",
            "password": "bAndWbh/0pzVxhCWaUb6Wz33b/HfLK2NcnMu+46HeHU=",
            "remoteIP": "10.36.1.48"
        },
        "businessCode": "",
        "operatorInfo": {
            "operatorID": "101",
            "channelID": "1"
        }
    },
    "orderRequest": {
        "orderId": "MFE20190909430000001",
        "orderCallType": "S",
        "orderItem": [
            {
                "orderItemId": 1,
                "orderItemType": "Terminate"
            }
        ],
        "revision": 1,
        "startOrderItemId": 1
    },
    "subDeactivationRequest": {
        "opType": "3",
        "subAccessCode": {
            "primaryIdentity": "864201371"
        }
    }
}