{
    "requestHeader": {
        "version": "1",
        "messageSeq": "MFE20190910210000001",
        "ownershipInfo": {
            "beid": "20101"
        },
        "accessSecurity": {
            "loginSystemCode": "OMTest1",
            "password": "bAndWbh/0pzVxhCWaUb6Wz33b/HfLK2NcnMu+46HeHU=",
            "remoteIP": "10.36.1.48"
        },
        "operatorInfo": {
            "operatorID": "101",
            "channelID": "1"
        }
    },
    "orderRequest": {
        "orderId": "MFE20190910210000001",
        "revision": 1,
        "startOrderItemId": 1,
        "orderCallType": "S",
        "orderItem": [
            {
                "orderItemId": 1,
                "orderItemType": "Adjustment"
            }
        ]
    },
    "adjustmentRequest": {
        "adjustmentSerialNo": "MFE2019091021000000101",
        "opType": "1",
        "adjustmentObj": {
            "subAccessCode": {
                "primaryIdentity": "864201374"
            }
        },
        "freeUnitAdjustmentInfo": {
            "adjustmentType": "1",
            "freeUnitType": "C_VOICE_LOCAL_TIMES",
            "adjustmentAmt": 60
        }
    }
}