{
    "orderResult": {
        "orderId": "MFE20190820070000001",
        "orderItemId": 1,
        "returnCode": 0,
        "returnMessage": "HLR MOD_ISDN : [0,Success CON][0,Operation is successful][0,Operation is successful] on 2019-08-20 23:23:39"
    },
    "HPESARequestTime": "2019-08-20 15:10:01 784 +0700",
    "HPESAResponseTime": "2019-08-20 15:10:12 219 +0700"
}