{
  "createSubscriberRequest": {
    "account": [
      {
        "acctInfo": {
          "acctClass": "string",
          "acctType": "string",
          "billCycleType": "string",
          "creditLimit": [
            {
              "limitType": "string",
              "limitValue": 0
            }
          ],
          "currencyID": 0,
          "paymentType": "string"
        },
        "acctKey": "string"
      }
    ],
    "primaryOffering": {
      "effectiveTime": "string",
      "offeringKey": {
        "offeringID": 0,
        "purchaseSeq": "string"
      }
    },
    "registerCustomer": {
      "custInfo": {
        "custBasicInfo": {
          "dftIVRLang": "string",
          "dftWrittenLang": "string"
        },
        "custClass": "string",
        "custNodeType": "string",
        "custType": "string"
      },
      "custKey": "string",
      "individualInfo": {
        "birthday": "string"
      },
      "opType": "string",
      "orgInfo": {
        "orgName": "string"
      }
    },
    "subscriber": {
      "subPaymentMode": {
        "acctKey": "string",
        "paymentMode": "string"
      },
      "subscriberInfo": {
        "consumptionLimit": [
          {
            "currencyID": 0,
            "limitType": "string",
            "limitValue": 0,
            "unitType": "string"
          }
        ],
        "networkType": "string",
        "status": "string",
        "subBasicInfo": {
          "subLevel": "string",
          "subProperty": {
            "code": "string",
            "value": "string"
          }
        },
        "subClass": "string",
        "subIdentity": [
          {
            "primaryFlag": "string",
            "subIdentity": "string",
            "subIdentityType": "string"
          }
        ]
      },
      "subscriberKey": "string"
    },
    "supplementaryOffering": [
      {
        "effectiveTime": {
          "mode": "string",
          "time": "string"
        },
        "offeringKey": {
          "offeringID": 0,
          "purchaseSeq": "string"
        },
        "status": "string"
      }
    ]
  },
  "orderRequest": {
    "orderCallType": "string",
    "orderId": "string",
    "orderItem": [
      {
        "orderItemId": 0,
        "orderItemType": "string"
      }
    ],
    "revision": 0,
    "startOrderItemId": 0
  },
  "rechargeRequest": [
    {
      "rechargeChannelID": "string",
      "rechargeInfo": {
        "cardPayment": {
          "cardPinNumber": "string",
          "cardSequence": "string"
        }
      },
      "rechargeObj": {
        "subAccessCode": {
          "subscriberKey": "string"
        }
      },
      "rechargeSerialNo": "string"
    }
  ],
  "requestHeader": {
    "accessSecurity": {
      "loginSystemCode": "string",
      "password": "string",
      "remoteIP": "string"
    },
    "messageSeq": "string",
    "operatorInfo": {
      "channelID": "string",
      "operatorID": "string"
    },
    "version": "string"
  }
}