{
  "channel": "MFE",
  "highPriorityOrderType": "Account Balance Transfer",
  "isProvisionRequired": true,
  "orderId": "",
  "notificationContact": "abc@cattelecom.com",
  "notificationType": "email",
  "orderItem": [
    {
      "orderType": "BalanceTransfer",
      "orderExecutionType": "Now",
      "orderExecutionDate": "2019-09-15",
      "coreBalance": {
      
        "currencyCode": "Baht",
        "taxRate": "10",
        "dutyFreeAmount": "10"
      
      },
       "advancePayment": {
        "currencyCode": "Baht",
        "taxRate": "10",
        "dutyFreeAmount": "100"
      },
       "nrc": {
        "currencyCode": "Baht",
        "taxRate": "10",
        "dutyFreeAmount": "10"
      },
      "destinationSubscriberInfo": {
        "serviceType": "0",
        "reserveFlag": false,
        "destinationSimInfo": [
          {
            "simType": "Primary",
            "iccid": "123456789123456789",
            "imsi": "262011234567"
          }
        ],
        "subscriberKey": "1234",
        "subscriberNumber": "87687587687",
        "msisdn": "89602478906",
        "preProFlag": false
      }
    }
  ],
  "orderSubmittedDate": "2019-04-29T00:00",
  "rerunRevisionNumber": "0",
  "saleInfo": {
    "saleEmpId": "",
    "sapCode": "",
    "dealerCode": "CAT",
    "verifyIdentity": "TRUE",
    "registerBySellerName": "CAT_MNP",
    "saleRole": ""
  },
  "subscriberInfo": {
    "serviceType": "1",
    "reserveFlag": false,
    "sourceSimInfo": [
      {
        "simType": "Primary",
        "iccid": "123456789123456789",
        "imsi": "262011234567"
      }
    ],
    "subscriberKey": "1234",
    "subscriberNumber": "87687587687",
    "msisdn": "9631789065",
    "preProFlag": false
  }
}