{
    "resultHeader": {
        "resultCode": "0",
        "resultDesc": "Operation success.",
        "version": "1"
    },
    "HPESARequestTime": "2019-08-15 11:55:17 734 +0700",
    "HPESAResponseTime": "2019-08-15 11:55:18 149 +0700"
}