﻿
Filter Messages
POST
http://10.36.1.48:8080/cat/crminterface/SERVICE-SEARCH-FROM-CA
18:06:25.378
POST /cat/crminterface/SERVICE-SEARCH-FROM-CA HTTP/1.1
Content-Type: application/json
interface_type: SERVICE
interface_code: SERVICE-SEARCH-FROM-CA
interface_source: MY-FRONT-END
interface_id: 2019SEP03-000018
request_date: 2019-09-03T00:00:00.000Z
request_by: 00376299
Authorization: Basic bW9iaWxldXNyOngkUTNQIXZ6OA==
User-Agent: PostmanRuntime/7.16.3
Accept: */*
Cache-Control: no-cache
Host: 10.36.1.48:8080
Accept-Encoding: gzip, deflate
Content-Length: 67
Connection: keep-alive
{
"request_message": {
"customer_number": "2378214"
}
}
HTTP/1.1 200 OK
Connection: keep-alive
X-Powered-By: Undertow/1
Server: WildFly/8
Content-Type: text/plain;charset=UTF-8
Content-Length: 4483
Date: Tue, 03 Sep 2019 11:07:58 GMT
{"response_code":"SUCCESS","response_message":"Your request successfully.","response_date":"2019-09-03T18:06:57.437+0700","response_items":{"total_service":1,"service_item":{"services":[{"cat_svc_type_lkp":110,"cat_svc_id":"0D01EB5958374F039111B6DACE4B7DFD","esb_svc_id":"1587524003|597919|0","status":1,"start_date":"2014-06-13T00:00:00.000+0700","sale_emp_id":"00155476","sap_code":"1J60410","last_update_by":"Reconnected-Dept proc","customer":{"customer_type":"90DF13290A03FFFF003EE849EE92BCA4","customer_number":"2378214","cat_card_number":"1939900182120","cat_card_type":1,"cat_tax_register_num":"1939900182120","customer_full_name":"นวพล ย่องเส้ง","cat_customer_segment":14,"cat_customer_group":74,"last_update_date":"2019-06-12T07:36:42.000+0700","last_update_by":"CRM"},"billing_account":{"cat_bill_acct_id":"AEAF8BF5D58842A9A50D21932B89AE30","esb_bill_acct_id":1381440,"cat_bill_acct_number":"9000520699","tax_exemp_lkp":1,"acct_cat_lkp":3,"cat_bill_disp_method_lkp":1,"cat_vip_code":0,"cat_billable":1,"cat_region_code":"3097","cat_active_date":"2014-06-13T00:00:00.000+0700","cat_bill_internal_flag":1,"cat_vat_disp_flag":1,"billing_group":"1101","rate_class_lkp":1000,"cat_bill_lang_lkp":"22","cat_tax_register_number":"1939900182120","cat_related_party":"204","salutation_lkp":1,"first_name":"นวพล","last_name":"ย่องเส้ง","bill_addr_line1":"208 4 ","bill_addr_line2":" ","bill_addr_line4":"ต.พนมวังก์","bill_addr_khet_amphur":"อ.ควนขนุน","bill_addr_province_lkp":"จ.พัทลุง","bill_addr_post_code":"93110","bill_addr_country_lkp":"TH","vat_addr_salutation":1,"vat_first_name":"นวพล","vat_last_name":"ย่องเส้ง","vat_addr_line1":"208 4 ","vat_addr_line2":" ","vat_addr_line4":"ต.พนมวังก์","vat_addr_khet_amphur":"อ.ควนขนุน","vat_addr_province_lkp":"จ.พัทลุง","vat_addr_post_code":"93110","vat_addr_country_lkp":"TH","pay_method_lkp":1,"pay_bill_period_lkp":"M01"},"packages":{"packages":[{"package_id":"31039B7E96814493AD57FF6F8759982A","package_start_date":"2014-06-13T00:00:00.000+0700","components":{"component":[{"component_id":"761C66D517CF4166ABCC929BCE95A027","component_start_date":"2014-06-13T00:00:00.000+0700"},{"component_id":"903B79C2A2C34A9AA4E3F9EAB3145CA9","component_start_date":"2014-06-13T00:00:00.000+0700"},{"component_id":"B8EC546AAC4143D8B18245BCB70A2D98","component_start_date":"2016-08-01T00:00:00.000+0700"},{"component_id":"ECA9B3B65BE04847A22F805D3DC86881","component_start_date":"2016-08-01T00:00:00.000+0700"},{"component_id":"3DA0D3AEAEE44CED939C0293209DB112","component_start_date":"2016-08-01T00:00:00.000+0700"}]}},{"package_id":"043EDA6B25C44B06849CF920C201BA89","package_start_date":"2016-08-01T00:00:00.000+0700","components":{"component":[{"component_id":"761C66D517CF4166ABCC929BCE95A027","component_start_date":"2014-06-13T00:00:00.000+0700"},{"component_id":"903B79C2A2C34A9AA4E3F9EAB3145CA9","component_start_date":"2014-06-13T00:00:00.000+0700"},{"component_id":"B8EC546AAC4143D8B18245BCB70A2D98","component_start_date":"2016-08-01T00:00:00.000+0700"},{"component_id":"ECA9B3B65BE04847A22F805D3DC86881","component_start_date":"2016-08-01T00:00:00.000+0700"},{"component_id":"3DA0D3AEAEE44CED939C0293209DB112","component_start_date":"2016-08-01T00:00:00.000+0700"}]}}]},"my_extentions":{},"installation_addresses":{"installation_address":[{"install_adress_type":1,"addresses":{"primary":false,"address_type":"E031781980894612B36DBE1EEEE4FBD7","cat_more_info":"Please cleansing data","cat_trok_soi":"กรุณาแก้ไขข้อมูลให้ถูกต้อง","cat_kwang":"บางกระสอ","cat_khet":"เมือง","cat_province":"จ.นนทบุรี","postal_code":"11000","country_code_address":"TH"},"start_date":"2014-07-07T00:00:00.000+0700","status":1},{"install_adress_type":2,"addresses":{"primary":false,"address_type":"E031781980894612B36DBE1EEEE4FBD7","cat_more_info":"Please cleansing data","cat_trok_soi":"กรุณาแก้ไขข้อมูลให้ถูกต้อง","cat_kwang":"บางกระสอ","cat_khet":"เมือง","cat_province":"จ.นนทบุรี","postal_code":"11000","country_code_address":"TH"},"start_date":"2014-07-07T00:00:00.000+0700","status":1}]}}]}},"HPESARequestTime":"2019-09-03 18:07:32 493 +0700","HPESAResponseTime":"2019-09-03 18:07:58 378 +0700"}
200
25905 ms