﻿
Filter Messages
POST
http://10.36.1.48:8080/cat/crminterface/MODIFY-BILLING
16:56:22.240
POST /cat/crminterface/MODIFY-BILLING HTTP/1.1
Content-Type: application/json
interface_type: BILLING
interface_code: MODIFY-BILLING
interface_source: MY-FRONT-END
interface_id: 2019SEP03-000015
request_date: 2019-09-03T00:00:00.000Z
request_by: 00376299
Authorization: Basic bW9iaWxldXNyOngkUTNQIXZ6OA==
User-Agent: PostmanRuntime/7.16.3
Accept: */*
Cache-Control: no-cache
Host: 10.36.1.48:8080
Accept-Encoding: gzip, deflate
Content-Length: 1916
Connection: keep-alive
{	
"request_message": {	
"modify_billing": {	
"billing_accounts":[
{
"cat_bill_acct_id":"D3203B460A20117200F888EA95786FB8",
"esb_bill_acct_id":350340,
"cat_bill_acct_number":"800345673",
"tax_exemp_lkp":1,
"acct_cat_lkp":3,
"cat_bill_disp_method_lkp":1,
"cat_vip_code":0,
"cat_billable":1,
"cat_region_code":"3075",
"cat_active_date":"2010-10-21T17:00:00.000+0700",
"cat_bill_internal_flag":1,
"cat_vat_disp_flag":1,
"billing_group":"10001",
"rate_class_lkp":1000,
"cat_bill_lang_lkp":"th",
"cat_tax_register_number":"3100201869938",
"salutation_lkp":23,
"first_name":"ณัฐฐิฏา ",
"last_name":"ภวะโชติ",
"bill_addr_line1":"230/26-27 หมู่ที่4",
"bill_addr_line3":"ถนนพหลโยธิน",
"bill_addr_line4":"ต.เวียงพางคำ",
"bill_addr_khet_amphur":"อ.แม่สาย",
"bill_addr_province_lkp":"จ.เชียงราย",
"bill_addr_post_code":"57130",
"bill_addr_country_lkp":"TH",
"vat_addr_salutation":23,
"vat_first_name":"ณัฐฐิฏา ",
"vat_last_name":"ภวะโชติ",
"vat_addr_line1":"230/26-27 หมู่ที่4",
"vat_addr_line3":"ถนนพหลโยธิน",
"vat_addr_line4":"ต.เวียงพางคำ",
"vat_addr_khet_amphur":"อ.แม่สาย",
"vat_addr_province_lkp":"จ.เชียงราย",
"vat_addr_post_code":"57130",
"vat_addr_country_lkp":"TH",
"deli_addr_country_lkp":"TH",
"pay_method_lkp":1,
"pay_bill_period_lkp":"M01",
"cat_bill_acct_currency":"th_TH"
}
]	
}	
}	
}	
HTTP/1.1 500 Internal Server Error
Connection: keep-alive
Transfer-Encoding: chunked
Content-Type: application/json;charset=UTF-8
Date: Tue, 03 Sep 2019 09:57:29 GMT
{"timestamp":"2019-09-03T09:57:29.500+0000","status":500,"error":"Internal Server Error","message":"java.lang.Exception: Request: POST http://10.44.33.100/catcdb/api/v1/billing/modify Response: <html><body><h1>Whitelabel Error Page</h1><p>This application has no explicit mapping for /error, so you are seeing this as a fallback.</p><div id='created'>Tue Sep 03 16:56:28 ICT 2019</div><div>There was an unexpected error (type=Bad Request, status=400).</div><div>JSON parse error: Cannot deserialize instance of `cat.cdb.entity.rest.request.BillingModifyRequestBillingAccounts` out of START_ARRAY token; nested exception is com.fasterxml.jackson.databind.exc.MismatchedInputException: Cannot deserialize instance of `cat.cdb.entity.rest.request.BillingModifyRequestBillingAccounts` out of START_ARRAY token at [Source: (PushbackInputStream); line: 4, column: 26] (through reference chain: cat.cdb.entity.rest.request.BillingModifyRequest[&quot;request_message&quot;]-&gt;cat.cdb.entity.rest.request.BillingModifyRequestMessage[&quot;modify_billing&quot;]-&gt;cat.cdb.entity.rest.request.BillingModifyRequestModifyBlling[&quot;billing_accounts&quot;])</div></body></html>","path":"/cat/crminterface/MODIFY-BILLING"}
500
235 ms