2019-06-20 10:48:16,704 INFO  [com.cat.ws.controller.WomGenericInterfaceController] (default task-58) Initializing the post method of WomGenericInterfaceController
2019-06-20 10:48:16,704 INFO  [com.cat.ws.service.WomGenericInterfaceService] (default task-58) Initializing the post method of WomGenericInterfaceService
2019-06-20 10:48:16,704 INFO  [com.cat.ws.service.WomGenericInterfaceService] (default task-58) actionType's value is New_Order
2019-06-20 10:48:16,732 INFO  [stdout] (default task-58) Jun 20, 2019 10:48:16 AM [Plug-in standard output]: {
2019-06-20 10:48:16,732 INFO  [stdout] (default task-58)   "rechargeRequest": [],
2019-06-20 10:48:16,732 INFO  [stdout] (default task-58)   "orderRequest": {
2019-06-20 10:48:16,732 INFO  [stdout] (default task-58)     "orderItem": [
2019-06-20 10:48:16,732 INFO  [stdout] (default task-58)       {
2019-06-20 10:48:16,732 INFO  [stdout] (default task-58)         "orderItemType": "NewSub",
2019-06-20 10:48:16,732 INFO  [stdout] (default task-58)         "orderItemId": 1
2019-06-20 10:48:16,732 INFO  [stdout] (default task-58)       },
2019-06-20 10:48:16,732 INFO  [stdout] (default task-58)       {
2019-06-20 10:48:16,732 INFO  [stdout] (default task-58)         "orderItemType": "Southern Region",
2019-06-20 10:48:16,732 INFO  [stdout] (default task-58)         "orderItemId": 2
2019-06-20 10:48:16,732 INFO  [stdout] (default task-58)       },
2019-06-20 10:48:16,732 INFO  [stdout] (default task-58)       {
2019-06-20 10:48:16,732 INFO  [stdout] (default task-58)         "orderItemType": "Verify Identity",
2019-06-20 10:48:16,732 INFO  [stdout] (default task-58)         "orderItemId": 3
2019-06-20 10:48:16,732 INFO  [stdout] (default task-58)       },
2019-06-20 10:48:16,732 INFO  [stdout] (default task-58)       {
2019-06-20 10:48:16,732 INFO  [stdout] (default task-58)         "orderItemType": "Change PO",
2019-06-20 10:48:16,732 INFO  [stdout] (default task-58)         "orderItemId": 4
2019-06-20 10:48:16,732 INFO  [stdout] (default task-58)       }
2019-06-20 10:48:16,732 INFO  [stdout] (default task-58)     ],
2019-06-20 10:48:16,732 INFO  [stdout] (default task-58)     "orderId": "MFE20190619000000307",
2019-06-20 10:48:16,732 INFO  [stdout] (default task-58)     "orderCalltype": "A",
2019-06-20 10:48:16,732 INFO  [stdout] (default task-58)     "startOrderItemId": 1,
2019-06-20 10:48:16,732 INFO  [stdout] (default task-58)     "revision": 1
2019-06-20 10:48:16,732 INFO  [stdout] (default task-58)   },
2019-06-20 10:48:16,732 INFO  [stdout] (default task-58)   "requestHeader": {
2019-06-20 10:48:16,732 INFO  [stdout] (default task-58)     "businessCode": 1,
2019-06-20 10:48:16,732 INFO  [stdout] (default task-58)     "operatorInfo": {
2019-06-20 10:48:16,732 INFO  [stdout] (default task-58)       "operatorID": "OMWeb",
2019-06-20 10:48:16,732 INFO  [stdout] (default task-58)       "channelID": "101"
2019-06-20 10:48:16,732 INFO  [stdout] (default task-58)     },
2019-06-20 10:48:16,732 INFO  [stdout] (default task-58)     "version": 1,
2019-06-20 10:48:16,732 INFO  [stdout] (default task-58)     "accessSecurity": {
2019-06-20 10:48:16,732 INFO  [stdout] (default task-58)       "password": "bAndWbh/0pzVxhCWaUb6Wz33b/HfLK2NcnMu+46HeHU=",
2019-06-20 10:48:16,732 INFO  [stdout] (default task-58)       "remoteIp": "http://10.36.1.48:8080/cat/com/action/api/orderstatuscallback",
2019-06-20 10:48:16,732 INFO  [stdout] (default task-58)       "loginSystemCode": "OMTest1"
2019-06-20 10:48:16,732 INFO  [stdout] (default task-58)     },
2019-06-20 10:48:16,732 INFO  [stdout] (default task-58)     "messageSeq": "20190619215551Pgjsby"
2019-06-20 10:48:16,732 INFO  [stdout] (default task-58)   },
2019-06-20 10:48:16,732 INFO  [stdout] (default task-58)   "createSubscriberRequest": {
2019-06-20 10:48:16,732 INFO  [stdout] (default task-58)     "subscriber": {
2019-06-20 10:48:16,732 INFO  [stdout] (default task-58)       "subPaymentMode": {
2019-06-20 10:48:16,732 INFO  [stdout] (default task-58)         "paymentMode": "0",
2019-06-20 10:48:16,732 INFO  [stdout] (default task-58)         "acctKey": "20190619215551+66-02-66678765"
2019-06-20 10:48:16,732 INFO  [stdout] (default task-58)       },
2019-06-20 10:48:16,732 INFO  [stdout] (default task-58)       "subscriberInfo": {
2019-06-20 10:48:16,733 INFO  [stdout] (default task-58)         "subClass": "1",
2019-06-20 10:48:16,733 INFO  [stdout] (default task-58)         "subBasicInfo": {
2019-06-20 10:48:16,733 INFO  [stdout] (default task-58)           "subProperty": [
2019-06-20 10:48:16,733 INFO  [stdout] (default task-58)             {
2019-06-20 10:48:16,733 INFO  [stdout] (default task-58)               "code": "H_SUB_3PROVINCE_SOUTHERN_RIGHT",
2019-06-20 10:48:16,733 INFO  [stdout] (default task-58)               "value": "0"
2019-06-20 10:48:16,733 INFO  [stdout] (default task-58)             }
2019-06-20 10:48:16,733 INFO  [stdout] (default task-58)           ],
2019-06-20 10:48:16,733 INFO  [stdout] (default task-58)           "subLevel": "B"
2019-06-20 10:48:16,733 INFO  [stdout] (default task-58)         },
2019-06-20 10:48:16,733 INFO  [stdout] (default task-58)         "networkType": "1",
2019-06-20 10:48:16,733 INFO  [stdout] (default task-58)         "subIdentity": [
2019-06-20 10:48:16,733 INFO  [stdout] (default task-58)           {
2019-06-20 10:48:16,733 INFO  [stdout] (default task-58)             "subIdentityType": "1",
2019-06-20 10:48:16,733 INFO  [stdout] (default task-58)             "subIdentity": "+66-02-66678765",
2019-06-20 10:48:16,733 INFO  [stdout] (default task-58)             "primaryFlag": "1"
2019-06-20 10:48:16,733 INFO  [stdout] (default task-58)           }
2019-06-20 10:48:16,733 INFO  [stdout] (default task-58)         ],
2019-06-20 10:48:16,733 INFO  [stdout] (default task-58)         "consumptionLimit": [
2019-06-20 10:48:16,733 INFO  [stdout] (default task-58)           {
2019-06-20 10:48:16,733 INFO  [stdout] (default task-58)             "unitType": "Baht",
2019-06-20 10:48:16,733 INFO  [stdout] (default task-58)             "limitValue": "",
2019-06-20 10:48:16,733 INFO  [stdout] (default task-58)             "currencyID": "1141",
2019-06-20 10:48:16,733 INFO  [stdout] (default task-58)             "limitType": ""
2019-06-20 10:48:16,733 INFO  [stdout] (default task-58)           }
2019-06-20 10:48:16,733 INFO  [stdout] (default task-58)         ],
2019-06-20 10:48:16,733 INFO  [stdout] (default task-58)         "status": "1"
2019-06-20 10:48:16,733 INFO  [stdout] (default task-58)       },
2019-06-20 10:48:16,733 INFO  [stdout] (default task-58)       "subscriberKey": "20190619215551+66-02-66678765"
2019-06-20 10:48:16,733 INFO  [stdout] (default task-58)     },
2019-06-20 10:48:16,733 INFO  [stdout] (default task-58)     "primaryOffering": {
2019-06-20 10:48:16,733 INFO  [stdout] (default task-58)       "offeringKey": {
2019-06-20 10:48:16,733 INFO  [stdout] (default task-58)         "purchaseSeq": "",
2019-06-20 10:48:16,733 INFO  [stdout] (default task-58)         "offeringID": 1
2019-06-20 10:48:16,733 INFO  [stdout] (default task-58)       },
2019-06-20 10:48:16,733 INFO  [stdout] (default task-58)       "effectiveTime": "20190619215551"
2019-06-20 10:48:16,733 INFO  [stdout] (default task-58)     },
2019-06-20 10:48:16,733 INFO  [stdout] (default task-58)     "supplementaryOffering": [],
2019-06-20 10:48:16,733 INFO  [stdout] (default task-58)     "registerCustomer": {
2019-06-20 10:48:16,733 INFO  [stdout] (default task-58)       "custInfo": {
2019-06-20 10:48:16,733 INFO  [stdout] (default task-58)         "custClass": "1",
2019-06-20 10:48:16,733 INFO  [stdout] (default task-58)         "custType": "1",
2019-06-20 10:48:16,733 INFO  [stdout] (default task-58)         "custNodeType": "3",
2019-06-20 10:48:16,733 INFO  [stdout] (default task-58)         "custBasicInfo": {
2019-06-20 10:48:16,733 INFO  [stdout] (default task-58)           "dftWrittenLang": "2063",
2019-06-20 10:48:16,733 INFO  [stdout] (default task-58)           "dftIVRLang": "2063"
2019-06-20 10:48:16,733 INFO  [stdout] (default task-58)         }
2019-06-20 10:48:16,733 INFO  [stdout] (default task-58)       },
2019-06-20 10:48:16,733 INFO  [stdout] (default task-58)       "opType": 1,
2019-06-20 10:48:16,733 INFO  [stdout] (default task-58)       "orgInfo": {
2019-06-20 10:48:16,733 INFO  [stdout] (default task-58)         "orgName": "abc tech"
2019-06-20 10:48:16,733 INFO  [stdout] (default task-58)       },
2019-06-20 10:48:16,733 INFO  [stdout] (default task-58)       "individualInfo": {
2019-06-20 10:48:16,733 INFO  [stdout] (default task-58)         "birthday": "19800115070000"
2019-06-20 10:48:16,733 INFO  [stdout] (default task-58)       }
2019-06-20 10:48:16,733 INFO  [stdout] (default task-58)     },
2019-06-20 10:48:16,733 INFO  [stdout] (default task-58)     "account": [
2019-06-20 10:48:16,733 INFO  [stdout] (default task-58)       {
2019-06-20 10:48:16,733 INFO  [stdout] (default task-58)         "acctInfo": {
2019-06-20 10:48:16,733 INFO  [stdout] (default task-58)           "acctClass": "1",
2019-06-20 10:48:16,733 INFO  [stdout] (default task-58)           "acctType": 1,
2019-06-20 10:48:16,733 INFO  [stdout] (default task-58)           "currencyID": "1141",
2019-06-20 10:48:16,733 INFO  [stdout] (default task-58)           "paymentType": "0"
2019-06-20 10:48:16,733 INFO  [stdout] (default task-58)         },
2019-06-20 10:48:16,733 INFO  [stdout] (default task-58)         "acctKey": "20190619215551+66-02-66678765"
2019-06-20 10:48:16,733 INFO  [stdout] (default task-58)       }
2019-06-20 10:48:16,733 INFO  [stdout] (default task-58)     ]
2019-06-20 10:48:16,733 INFO  [stdout] (default task-58)   }
2019-06-20 10:48:16,733 INFO  [stdout] (default task-58) }
2019-06-20 10:48:16,736 INFO  [stdout] (default task-58) Jun 20, 2019 10:48:16 AM [Plug-in standard output]: <?xml version="1.0" encoding="UTF-8"?>
2019-06-20 10:48:16,736 INFO  [stdout] (default task-58) <soapenv:Envelope xmlns:soapenv="http://schemas.xmlsoap.org/soap/envelope/" xmlns:bcc="http://www.huawei.com/bme/cbsinterface/bccommon" xmlns:arc="http://cbs.huawei.com/ar/wsservice/arcommon" xmlns:ars="http://www.huawei.com/bme/cbsinterface/arservices" xmlns:bcs="http://www.huawei.com/bme/cbsinterface/bcservices" xmlns:cbs="http://www.huawei.com/bme/cbsinterface/cbscommon">
2019-06-20 10:48:16,736 INFO  [stdout] (default task-58)     <soapenv:Body>
2019-06-20 10:48:16,736 INFO  [stdout] (default task-58)         <bcs:CreateSubscriberExtRequestMsg>
2019-06-20 10:48:16,736 INFO  [stdout] (default task-58)             <CreateSubscriberRequest>
2019-06-20 10:48:16,736 INFO  [stdout] (default task-58)                 <bcs:Account>
2019-06-20 10:48:16,736 INFO  [stdout] (default task-58)                     <bcs:AcctInfo>
2019-06-20 10:48:16,736 INFO  [stdout] (default task-58)                         <bcc:AcctClass>1</bcc:AcctClass>
2019-06-20 10:48:16,736 INFO  [stdout] (default task-58)                         <bcc:AcctType>1</bcc:AcctType>
2019-06-20 10:48:16,736 INFO  [stdout] (default task-58)                         <bcc:CurrencyID>1141</bcc:CurrencyID>
2019-06-20 10:48:16,736 INFO  [stdout] (default task-58)                         <bcc:PaymentType>0</bcc:PaymentType>
2019-06-20 10:48:16,736 INFO  [stdout] (default task-58)                     </bcs:AcctInfo>
2019-06-20 10:48:16,736 INFO  [stdout] (default task-58)                     <bcs:AcctKey>20190619215551+66-02-66678765</bcs:AcctKey>
2019-06-20 10:48:16,736 INFO  [stdout] (default task-58)                 </bcs:Account>
2019-06-20 10:48:16,736 INFO  [stdout] (default task-58)                 <bcs:PrimaryOffering>
2019-06-20 10:48:16,736 INFO  [stdout] (default task-58)                     <bcs:EffectiveTime>20190619215551</bcs:EffectiveTime>
2019-06-20 10:48:16,736 INFO  [stdout] (default task-58)                     <bcc:OfferingKey>
2019-06-20 10:48:16,736 INFO  [stdout] (default task-58)                         <bcc:OfferingID>1</bcc:OfferingID>
2019-06-20 10:48:16,736 INFO  [stdout] (default task-58)                         <bcc:PurchaseSeq></bcc:PurchaseSeq>
2019-06-20 10:48:16,736 INFO  [stdout] (default task-58)                     </bcc:OfferingKey>
2019-06-20 10:48:16,736 INFO  [stdout] (default task-58)                 </bcs:PrimaryOffering>
2019-06-20 10:48:16,736 INFO  [stdout] (default task-58)                 <bcs:RegisterCustomer OpType="1">
2019-06-20 10:48:16,736 INFO  [stdout] (default task-58)                     <bcs:CustInfo>
2019-06-20 10:48:16,736 INFO  [stdout] (default task-58)                         <bcc:CustBasicInfo>
2019-06-20 10:48:16,736 INFO  [stdout] (default task-58)                             <bcc:DFTIVRLang>2063</bcc:DFTIVRLang>
2019-06-20 10:48:16,736 INFO  [stdout] (default task-58)                             <bcc:DFTWrittenLang>2063</bcc:DFTWrittenLang>
2019-06-20 10:48:16,736 INFO  [stdout] (default task-58)                         </bcc:CustBasicInfo>
2019-06-20 10:48:16,736 INFO  [stdout] (default task-58)                         <bcc:CustClass>1</bcc:CustClass>
2019-06-20 10:48:16,736 INFO  [stdout] (default task-58)                         <bcc:CustNodeType>3</bcc:CustNodeType>
2019-06-20 10:48:16,736 INFO  [stdout] (default task-58)                         <bcc:CustType>1</bcc:CustType>
2019-06-20 10:48:16,736 INFO  [stdout] (default task-58)                     </bcs:CustInfo>
2019-06-20 10:48:16,736 INFO  [stdout] (default task-58)                     <bcs:IndividualInfo>
2019-06-20 10:48:16,736 INFO  [stdout] (default task-58)                         <bcc:Birthday>19800115070000</bcc:Birthday>
2019-06-20 10:48:16,736 INFO  [stdout] (default task-58)                     </bcs:IndividualInfo>
2019-06-20 10:48:16,736 INFO  [stdout] (default task-58)                     <bcs:OrgInfo>
2019-06-20 10:48:16,736 INFO  [stdout] (default task-58)                         <bcc:OrgName>abc tech</bcc:OrgName>
2019-06-20 10:48:16,736 INFO  [stdout] (default task-58)                     </bcs:OrgInfo>
2019-06-20 10:48:16,736 INFO  [stdout] (default task-58)                 </bcs:RegisterCustomer>
2019-06-20 10:48:16,736 INFO  [stdout] (default task-58)                 <bcs:Subscriber>
2019-06-20 10:48:16,736 INFO  [stdout] (default task-58)                     <bcs:SubPaymentMode>
2019-06-20 10:48:16,736 INFO  [stdout] (default task-58)                         <bcs:AcctKey>20190619215551+66-02-66678765</bcs:AcctKey>
2019-06-20 10:48:16,736 INFO  [stdout] (default task-58)                         <bcs:PaymentMode>0</bcs:PaymentMode>
2019-06-20 10:48:16,736 INFO  [stdout] (default task-58)                     </bcs:SubPaymentMode>
2019-06-20 10:48:16,736 INFO  [stdout] (default task-58)                     <bcs:SubscriberInfo>
2019-06-20 10:48:16,736 INFO  [stdout] (default task-58)                         <bcc:ConsumptionLimit>
2019-06-20 10:48:16,736 INFO  [stdout] (default task-58)                             <bcc:CurrencyID>1141</bcc:CurrencyID>
2019-06-20 10:48:16,736 INFO  [stdout] (default task-58)                             <bcc:LimitType></bcc:LimitType>
2019-06-20 10:48:16,736 INFO  [stdout] (default task-58)                             <bcc:UnitType>Baht</bcc:UnitType>
2019-06-20 10:48:16,736 INFO  [stdout] (default task-58)                         </bcc:ConsumptionLimit>
2019-06-20 10:48:16,737 INFO  [stdout] (default task-58)                         <bcc:NetworkType>1</bcc:NetworkType>
2019-06-20 10:48:16,737 INFO  [stdout] (default task-58)                         <bcc:Status>1</bcc:Status>
2019-06-20 10:48:16,737 INFO  [stdout] (default task-58)                         <bcc:SubBasicInfo>
2019-06-20 10:48:16,737 INFO  [stdout] (default task-58)                             <bcc:SubLevel>B</bcc:SubLevel>
2019-06-20 10:48:16,737 INFO  [stdout] (default task-58)                             <bcc:SubProperty>
2019-06-20 10:48:16,737 INFO  [stdout] (default task-58)                                 <bcc:Code>H_SUB_3PROVINCE_SOUTHERN_RIGHT</bcc:Code>
2019-06-20 10:48:16,737 INFO  [stdout] (default task-58)                                 <bcc:Value>0</bcc:Value>
2019-06-20 10:48:16,737 INFO  [stdout] (default task-58)                             </bcc:SubProperty>
2019-06-20 10:48:16,737 INFO  [stdout] (default task-58)                         </bcc:SubBasicInfo>
2019-06-20 10:48:16,737 INFO  [stdout] (default task-58)                         <bcc:SubClass>1</bcc:SubClass>
2019-06-20 10:48:16,737 INFO  [stdout] (default task-58)                         <bcc:SubIdentity>
2019-06-20 10:48:16,737 INFO  [stdout] (default task-58)                             <bcc:PrimaryFlag>1</bcc:PrimaryFlag>
2019-06-20 10:48:16,737 INFO  [stdout] (default task-58)                             <bcc:SubIdentity>+66-02-66678765</bcc:SubIdentity>
2019-06-20 10:48:16,737 INFO  [stdout] (default task-58)                             <bcc:SubIdentityType>1</bcc:SubIdentityType>
2019-06-20 10:48:16,737 INFO  [stdout] (default task-58)                         </bcc:SubIdentity>
2019-06-20 10:48:16,737 INFO  [stdout] (default task-58)                     </bcs:SubscriberInfo>
2019-06-20 10:48:16,737 INFO  [stdout] (default task-58)                     <bcs:SubscriberKey>20190619215551+66-02-66678765</bcs:SubscriberKey>
2019-06-20 10:48:16,737 INFO  [stdout] (default task-58)                 </bcs:Subscriber>
2019-06-20 10:48:16,737 INFO  [stdout] (default task-58)             </CreateSubscriberRequest>
2019-06-20 10:48:16,737 INFO  [stdout] (default task-58)             <OrderRequest>
2019-06-20 10:48:16,737 INFO  [stdout] (default task-58)                 <cbs:OrderCallType>A</cbs:OrderCallType>
2019-06-20 10:48:16,737 INFO  [stdout] (default task-58)                 <cbs:OrderId>MFE20190619000000307</cbs:OrderId>
2019-06-20 10:48:16,737 INFO  [stdout] (default task-58)                 <cbs:OrderItem>
2019-06-20 10:48:16,737 INFO  [stdout] (default task-58)                     <cbs:OrderItemId>1</cbs:OrderItemId>
2019-06-20 10:48:16,737 INFO  [stdout] (default task-58)                     <cbs:OrderItemType>NewSub</cbs:OrderItemType>
2019-06-20 10:48:16,737 INFO  [stdout] (default task-58)                 </cbs:OrderItem>
2019-06-20 10:48:16,737 INFO  [stdout] (default task-58)                 <cbs:OrderItem>
2019-06-20 10:48:16,737 INFO  [stdout] (default task-58)                     <cbs:OrderItemId>2</cbs:OrderItemId>
2019-06-20 10:48:16,737 INFO  [stdout] (default task-58)                     <cbs:OrderItemType>Southern Region</cbs:OrderItemType>
2019-06-20 10:48:16,737 INFO  [stdout] (default task-58)                 </cbs:OrderItem>
2019-06-20 10:48:16,737 INFO  [stdout] (default task-58)                 <cbs:OrderItem>
2019-06-20 10:48:16,737 INFO  [stdout] (default task-58)                     <cbs:OrderItemId>3</cbs:OrderItemId>
2019-06-20 10:48:16,737 INFO  [stdout] (default task-58)                     <cbs:OrderItemType>Verify Identity</cbs:OrderItemType>
2019-06-20 10:48:16,737 INFO  [stdout] (default task-58)                 </cbs:OrderItem>
2019-06-20 10:48:16,737 INFO  [stdout] (default task-58)                 <cbs:OrderItem>
2019-06-20 10:48:16,737 INFO  [stdout] (default task-58)                     <cbs:OrderItemId>4</cbs:OrderItemId>
2019-06-20 10:48:16,737 INFO  [stdout] (default task-58)                     <cbs:OrderItemType>Change PO</cbs:OrderItemType>
2019-06-20 10:48:16,737 INFO  [stdout] (default task-58)                 </cbs:OrderItem>
2019-06-20 10:48:16,737 INFO  [stdout] (default task-58)                 <cbs:Revision>1</cbs:Revision>
2019-06-20 10:48:16,737 INFO  [stdout] (default task-58)                 <cbs:StartOrderItemId>1</cbs:StartOrderItemId>
2019-06-20 10:48:16,737 INFO  [stdout] (default task-58)             </OrderRequest>
2019-06-20 10:48:16,737 INFO  [stdout] (default task-58)             <RequestHeader>
2019-06-20 10:48:16,737 INFO  [stdout] (default task-58)                 <cbs:AccessSecurity>
2019-06-20 10:48:16,737 INFO  [stdout] (default task-58)                     <cbs:LoginSystemCode>OMTest1</cbs:LoginSystemCode>
2019-06-20 10:48:16,737 INFO  [stdout] (default task-58)                     <cbs:Password>bAndWbh/0pzVxhCWaUb6Wz33b/HfLK2NcnMu+46HeHU=</cbs:Password>
2019-06-20 10:48:16,737 INFO  [stdout] (default task-58)                     <cbs:RemoteIP>http://10.36.1.48:8080/cat/com/action/api/orderstatuscallback</cbs:RemoteIP>
2019-06-20 10:48:16,737 INFO  [stdout] (default task-58)                 </cbs:AccessSecurity>
2019-06-20 10:48:16,737 INFO  [stdout] (default task-58)                 <cbs:MessageSeq>20190619215551Pgjsby</cbs:MessageSeq>
2019-06-20 10:48:16,737 INFO  [stdout] (default task-58)                 <cbs:OperatorInfo>
2019-06-20 10:48:16,737 INFO  [stdout] (default task-58)                     <cbs:ChannelID>101</cbs:ChannelID>
2019-06-20 10:48:16,737 INFO  [stdout] (default task-58)                     <cbs:OperatorID>OMWeb</cbs:OperatorID>
2019-06-20 10:48:16,737 INFO  [stdout] (default task-58)                 </cbs:OperatorInfo>
2019-06-20 10:48:16,737 INFO  [stdout] (default task-58)                 <cbs:Version>1</cbs:Version>
2019-06-20 10:48:16,737 INFO  [stdout] (default task-58)             </RequestHeader>
2019-06-20 10:48:16,737 INFO  [stdout] (default task-58)         </bcs:CreateSubscriberExtRequestMsg>
2019-06-20 10:48:16,737 INFO  [stdout] (default task-58)     </soapenv:Body>
2019-06-20 10:48:16,737 INFO  [stdout] (default task-58)     <soapenv:Header/>
2019-06-20 10:48:16,737 INFO  [stdout] (default task-58) </soapenv:Envelope>
2019-06-20 10:48:16,737 INFO  [com.cat.ws.service.WomGenericInterfaceService] (default task-58) requestXML's value is <?xml version="1.0" encoding="UTF-8"?>
<soapenv:Envelope xmlns:soapenv="http://schemas.xmlsoap.org/soap/envelope/" xmlns:bcc="http://www.huawei.com/bme/cbsinterface/bccommon" xmlns:arc="http://cbs.huawei.com/ar/wsservice/arcommon" xmlns:ars="http://www.huawei.com/bme/cbsinterface/arservices" xmlns:bcs="http://www.huawei.com/bme/cbsinterface/bcservices" xmlns:cbs="http://www.huawei.com/bme/cbsinterface/cbscommon">
    <soapenv:Body>
        <bcs:CreateSubscriberExtRequestMsg>
            <CreateSubscriberRequest>
                <bcs:Account>
                    <bcs:AcctInfo>
                        <bcc:AcctClass>1</bcc:AcctClass>
                        <bcc:AcctType>1</bcc:AcctType>
                        <bcc:CurrencyID>1141</bcc:CurrencyID>
                        <bcc:PaymentType>0</bcc:PaymentType>
                    </bcs:AcctInfo>
                    <bcs:AcctKey>20190619215551+66-02-66678765</bcs:AcctKey>
                </bcs:Account>
                <bcs:PrimaryOffering>
                    <bcs:EffectiveTime>20190619215551</bcs:EffectiveTime>
                    <bcc:OfferingKey>
                        <bcc:OfferingID>1</bcc:OfferingID>
                        <bcc:PurchaseSeq></bcc:PurchaseSeq>
                    </bcc:OfferingKey>
                </bcs:PrimaryOffering>
                <bcs:RegisterCustomer OpType="1">
                    <bcs:CustInfo>
                        <bcc:CustBasicInfo>
                            <bcc:DFTIVRLang>2063</bcc:DFTIVRLang>
                            <bcc:DFTWrittenLang>2063</bcc:DFTWrittenLang>
                        </bcc:CustBasicInfo>
                        <bcc:CustClass>1</bcc:CustClass>
                        <bcc:CustNodeType>3</bcc:CustNodeType>
                        <bcc:CustType>1</bcc:CustType>
                    </bcs:CustInfo>
                    <bcs:IndividualInfo>
                        <bcc:Birthday>19800115070000</bcc:Birthday>
                    </bcs:IndividualInfo>
                    <bcs:OrgInfo>
                        <bcc:OrgName>abc tech</bcc:OrgName>
                    </bcs:OrgInfo>
                </bcs:RegisterCustomer>
                <bcs:Subscriber>
                    <bcs:SubPaymentMode>
                        <bcs:AcctKey>20190619215551+66-02-66678765</bcs:AcctKey>
                        <bcs:PaymentMode>0</bcs:PaymentMode>
                    </bcs:SubPaymentMode>
                    <bcs:SubscriberInfo>
                        <bcc:ConsumptionLimit>
                            <bcc:CurrencyID>1141</bcc:CurrencyID>
                            <bcc:LimitType></bcc:LimitType>
                            <bcc:UnitType>Baht</bcc:UnitType>
                        </bcc:ConsumptionLimit>
                        <bcc:NetworkType>1</bcc:NetworkType>
                        <bcc:Status>1</bcc:Status>
                        <bcc:SubBasicInfo>
                            <bcc:SubLevel>B</bcc:SubLevel>
                            <bcc:SubProperty>
                                <bcc:Code>H_SUB_3PROVINCE_SOUTHERN_RIGHT</bcc:Code>
                                <bcc:Value>0</bcc:Value>
                            </bcc:SubProperty>
                        </bcc:SubBasicInfo>
                        <bcc:SubClass>1</bcc:SubClass>
                        <bcc:SubIdentity>
                            <bcc:PrimaryFlag>1</bcc:PrimaryFlag>
                            <bcc:SubIdentity>+66-02-66678765</bcc:SubIdentity>
                            <bcc:SubIdentityType>1</bcc:SubIdentityType>
                        </bcc:SubIdentity>
                    </bcs:SubscriberInfo>
                    <bcs:SubscriberKey>20190619215551+66-02-66678765</bcs:SubscriberKey>
                </bcs:Subscriber>
            </CreateSubscriberRequest>
            <OrderRequest>
                <cbs:OrderCallType>A</cbs:OrderCallType>
                <cbs:OrderId>MFE20190619000000307</cbs:OrderId>
                <cbs:OrderItem>
                    <cbs:OrderItemId>1</cbs:OrderItemId>
                    <cbs:OrderItemType>NewSub</cbs:OrderItemType>
                </cbs:OrderItem>
                <cbs:OrderItem>
                    <cbs:OrderItemId>2</cbs:OrderItemId>
                    <cbs:OrderItemType>Southern Region</cbs:OrderItemType>
                </cbs:OrderItem>
                <cbs:OrderItem>
                    <cbs:OrderItemId>3</cbs:OrderItemId>
                    <cbs:OrderItemType>Verify Identity</cbs:OrderItemType>
                </cbs:OrderItem>
                <cbs:OrderItem>
                    <cbs:OrderItemId>4</cbs:OrderItemId>
                    <cbs:OrderItemType>Change PO</cbs:OrderItemType>
                </cbs:OrderItem>
                <cbs:Revision>1</cbs:Revision>
                <cbs:StartOrderItemId>1</cbs:StartOrderItemId>
            </OrderRequest>
            <RequestHeader>
                <cbs:AccessSecurity>
                    <cbs:LoginSystemCode>OMTest1</cbs:LoginSystemCode>
                    <cbs:Password>bAndWbh/0pzVxhCWaUb6Wz33b/HfLK2NcnMu+46HeHU=</cbs:Password>
                    <cbs:RemoteIP>http://10.36.1.48:8080/cat/com/action/api/orderstatuscallback</cbs:RemoteIP>
                </cbs:AccessSecurity>
                <cbs:MessageSeq>20190619215551Pgjsby</cbs:MessageSeq>
                <cbs:OperatorInfo>
                    <cbs:ChannelID>101</cbs:ChannelID>
                    <cbs:OperatorID>OMWeb</cbs:OperatorID>
                </cbs:OperatorInfo>
                <cbs:Version>1</cbs:Version>
            </RequestHeader>
        </bcs:CreateSubscriberExtRequestMsg>
    </soapenv:Body>
    <soapenv:Header/>
</soapenv:Envelope>
2019-06-20 10:48:16,738 INFO  [com.cat.ws.service.WomGenericInterfaceService] (default task-58) actionType's value is New_Order
2019-06-20 10:48:16,771 INFO  [stdout] (MWFM Worker 4) Jun 20, 2019 10:48:16 AM [Plug-in standard output]: RetrieveCATConfig|DEBUG|Node Entered
2019-06-20 10:48:16,771 INFO  [stdout] (MWFM Worker 4) Jun 20, 2019 10:48:16 AM [Plug-in standard output]: input string value is:------billing:
2019-06-20 10:48:16,771 INFO  [stdout] (MWFM Worker 4)   dbconfig: 
2019-06-20 10:48:16,771 INFO  [stdout] (MWFM Worker 4)     db_type: oracle
2019-06-20 10:48:16,771 INFO  [stdout] (MWFM Worker 4)     db_url: jdbc:oracle:thin:@15.119.6.181:1521:orcl
2019-06-20 10:48:16,772 INFO  [stdout] (MWFM Worker 4)     db_username: "c##hpsa"
2019-06-20 10:48:16,772 INFO  [stdout] (MWFM Worker 4)     db_password: 123456
2019-06-20 10:48:16,772 INFO  [stdout] (MWFM Worker 4)   map:
2019-06-20 10:48:16,772 INFO  [stdout] (MWFM Worker 4)     A1_Create_Account:
2019-06-20 10:48:16,772 INFO  [stdout] (MWFM Worker 4)       connection_url: http://15.119.6.147:8081/create/customer
2019-06-20 10:48:16,772 INFO  [stdout] (MWFM Worker 4)       task: POST
2019-06-20 10:48:16,772 INFO  [stdout] (MWFM Worker 4)     A2_Create_Service:
2019-06-20 10:48:16,772 INFO  [stdout] (MWFM Worker 4)       connection_url: http://15.119.6.147:8081/create/customer
2019-06-20 10:48:16,772 INFO  [stdout] (MWFM Worker 4)       task: POST
2019-06-20 10:48:16,772 INFO  [stdout] (MWFM Worker 4)     A3_Suspend_Service:
2019-06-20 10:48:16,772 INFO  [stdout] (MWFM Worker 4)       connection_url: http://15.119.6.147:8081/create/customer
2019-06-20 10:48:16,772 INFO  [stdout] (MWFM Worker 4)       task: POST
2019-06-20 10:48:16,772 INFO  [stdout] (MWFM Worker 4)     A4_Reconnect_Service:
2019-06-20 10:48:16,772 INFO  [stdout] (MWFM Worker 4)       connection_url: http://15.119.6.147:8081/create/customer
2019-06-20 10:48:16,772 INFO  [stdout] (MWFM Worker 4)       task: POST
2019-06-20 10:48:16,772 INFO  [stdout] (MWFM Worker 4)     A5_Terminate_Service:
2019-06-20 10:48:16,772 INFO  [stdout] (MWFM Worker 4)       connection_url: http://15.119.6.147:8081/create/customer
2019-06-20 10:48:16,772 INFO  [stdout] (MWFM Worker 4)       task: POST
2019-06-20 10:48:16,772 INFO  [stdout] (MWFM Worker 4)     A6_Update_Service_Owner:
2019-06-20 10:48:16,772 INFO  [stdout] (MWFM Worker 4)       connection_url: http://15.119.6.147:8081/create/customer
2019-06-20 10:48:16,772 INFO  [stdout] (MWFM Worker 4)       task: POST
2019-06-20 10:48:16,772 INFO  [stdout] (MWFM Worker 4)     A7_Update_Service:
2019-06-20 10:48:16,772 INFO  [stdout] (MWFM Worker 4)       connection_url: http://15.119.6.147:8081/create/customer
2019-06-20 10:48:16,772 INFO  [stdout] (MWFM Worker 4)       task: POST
2019-06-20 10:48:16,772 INFO  [stdout] (MWFM Worker 4)     A14_Update_Account:
2019-06-20 10:48:16,772 INFO  [stdout] (MWFM Worker 4)       connection_url: http://15.119.6.147:8081/create/customer
2019-06-20 10:48:16,772 INFO  [stdout] (MWFM Worker 4)       task: POST
2019-06-20 10:48:16,772 INFO  [stdout] (MWFM Worker 4)     A23_Retrieve_Account:
2019-06-20 10:48:16,772 INFO  [stdout] (MWFM Worker 4)       connection_url: http://15.119.6.147:8081/create/customer
2019-06-20 10:48:16,772 INFO  [stdout] (MWFM Worker 4)       task: POST
2019-06-20 10:48:16,772 INFO  [stdout] (MWFM Worker 4)     A38_Update_Service_Component:
2019-06-20 10:48:16,772 INFO  [stdout] (MWFM Worker 4)       connection_url: http://15.119.6.147:8081/create/customer
2019-06-20 10:48:16,772 INFO  [stdout] (MWFM Worker 4)       task: POST
2019-06-20 10:48:16,772 INFO  [stdout] (MWFM Worker 4)     F4_Create_Payment:
2019-06-20 10:48:16,773 INFO  [stdout] (MWFM Worker 4)       connection_url: http://15.119.6.147:8088/mockWebServiceImplServiceSoapBinding
2019-06-20 10:48:16,773 INFO  [stdout] (MWFM Worker 4)       task: POST
2019-06-20 10:48:16,773 INFO  [stdout] (MWFM Worker 4) 
2019-06-20 10:48:16,773 INFO  [stdout] (MWFM Worker 4) uvc:
2019-06-20 10:48:16,773 INFO  [stdout] (MWFM Worker 4)   map:
2019-06-20 10:48:16,773 INFO  [stdout] (MWFM Worker 4)     QueryVoucher:
2019-06-20 10:48:16,773 INFO  [stdout] (MWFM Worker 4)       connection_url: http://15.119.6.147:8081/mockUvcServicsBinding
2019-06-20 10:48:16,773 INFO  [stdout] (MWFM Worker 4)       task: POST
2019-06-20 10:48:16,773 INFO  [stdout] (MWFM Worker 4)     ModifyVoucherLock:
2019-06-20 10:48:16,773 INFO  [stdout] (MWFM Worker 4)       connection_url: http://15.119.6.147:8081/mockUvcServicsBinding
2019-06-20 10:48:16,773 INFO  [stdout] (MWFM Worker 4)       task: POST
2019-06-20 10:48:16,773 INFO  [stdout] (MWFM Worker 4)       
2019-06-20 10:48:16,773 INFO  [stdout] (MWFM Worker 4) ocs:
2019-06-20 10:48:16,773 INFO  [stdout] (MWFM Worker 4)   map:
2019-06-20 10:48:16,773 INFO  [stdout] (MWFM Worker 4)     QueryBalance:
2019-06-20 10:48:16,773 INFO  [stdout] (MWFM Worker 4)       connection_url: http://15.119.6.147:8081/mockBcServicsBinding
2019-06-20 10:48:16,773 INFO  [stdout] (MWFM Worker 4)       task: POST
2019-06-20 10:48:16,773 INFO  [stdout] (MWFM Worker 4)     QueryFreeUnit:
2019-06-20 10:48:16,773 INFO  [stdout] (MWFM Worker 4)       connection_url: http://15.119.6.147:8081/mockBcServicsBinding
2019-06-20 10:48:16,773 INFO  [stdout] (MWFM Worker 4)       task: POST
2019-06-20 10:48:16,773 INFO  [stdout] (MWFM Worker 4)     QuerySubLifeCycle:
2019-06-20 10:48:16,773 INFO  [stdout] (MWFM Worker 4)       connection_url: http://15.119.6.147:8081/mockBcServicsBinding
2019-06-20 10:48:16,773 INFO  [stdout] (MWFM Worker 4)       task: POST
2019-06-20 10:48:16,773 INFO  [stdout] (MWFM Worker 4)     QueryCustomerInfo:
2019-06-20 10:48:16,773 INFO  [stdout] (MWFM Worker 4)       connection_url: http://15.119.6.147:8081/mockBcServicsBinding
2019-06-20 10:48:16,773 INFO  [stdout] (MWFM Worker 4)       task: POST
2019-06-20 10:48:16,773 INFO  [stdout] (MWFM Worker 4)     QueryConsumptionLimit:
2019-06-20 10:48:16,773 INFO  [stdout] (MWFM Worker 4)       connection_url: http://15.119.6.147:8081/mockBcServicsBinding
2019-06-20 10:48:16,773 INFO  [stdout] (MWFM Worker 4)       task: POST
2019-06-20 10:48:16,773 INFO  [stdout] (MWFM Worker 4)     QueryLastXTransaction:
2019-06-20 10:48:16,773 INFO  [stdout] (MWFM Worker 4)       connection_url: http://15.119.6.147:8081/mockBcServicsBinding
2019-06-20 10:48:16,773 INFO  [stdout] (MWFM Worker 4)       task: POST
2019-06-20 10:48:16,773 INFO  [stdout] (MWFM Worker 4)     QueryOfferingInstProperty:
2019-06-20 10:48:16,774 INFO  [stdout] (MWFM Worker 4)       connection_url: http://15.119.6.147:8081/mockBcServicsBinding
2019-06-20 10:48:16,774 INFO  [stdout] (MWFM Worker 4)       task: POST
2019-06-20 10:48:16,774 INFO  [stdout] (MWFM Worker 4) 
2019-06-20 10:48:16,774 INFO  [stdout] (MWFM Worker 4) 
2019-06-20 10:48:16,774 INFO  [stdout] (MWFM Worker 4) 
2019-06-20 10:48:16,774 INFO  [stdout] (MWFM Worker 4) crm:
2019-06-20 10:48:16,774 INFO  [stdout] (MWFM Worker 4)   map:
2019-06-20 10:48:16,774 INFO  [stdout] (MWFM Worker 4)     ORDER-NEW:
2019-06-20 10:48:16,774 INFO  [stdout] (MWFM Worker 4)       connection_url: http://localhost:8081/order/new
2019-06-20 10:48:16,774 INFO  [stdout] (MWFM Worker 4)       task: POST
2019-06-20 10:48:16,774 INFO  [stdout] (MWFM Worker 4)     CUSTOMER-SEARCH:
2019-06-20 10:48:16,774 INFO  [stdout] (MWFM Worker 4)       connection_url: http://localhost:8081/api/v1/customer/search
2019-06-20 10:48:16,774 INFO  [stdout] (MWFM Worker 4)       task: POST
2019-06-20 10:48:16,774 INFO  [stdout] (MWFM Worker 4)     CUSTOMER-RESERVE-NUMBER: 
2019-06-20 10:48:16,774 INFO  [stdout] (MWFM Worker 4)       connection_url: http://localhost:8081/reserve/customer/number
2019-06-20 10:48:16,774 INFO  [stdout] (MWFM Worker 4)       task: POST
2019-06-20 10:48:16,774 INFO  [stdout] (MWFM Worker 4)     createcustomer: 
2019-06-20 10:48:16,774 INFO  [stdout] (MWFM Worker 4)       connection_url: http://localhost:8081/create/customer
2019-06-20 10:48:16,774 INFO  [stdout] (MWFM Worker 4)       task: POST
2019-06-20 10:48:16,774 INFO  [stdout] (MWFM Worker 4)     ORDER-TERMINATE:
2019-06-20 10:48:16,774 INFO  [stdout] (MWFM Worker 4)       connection_url: http://localhost:8081/order/terminate
2019-06-20 10:48:16,774 INFO  [stdout] (MWFM Worker 4)       task: POST
2019-06-20 10:48:16,774 INFO  [stdout] (MWFM Worker 4)     ORDER-SUSPEND: 
2019-06-20 10:48:16,774 INFO  [stdout] (MWFM Worker 4)       connection_url: http://localhost:8081/order/suspend
2019-06-20 10:48:16,774 INFO  [stdout] (MWFM Worker 4)       task: POST
2019-06-20 10:48:16,774 INFO  [stdout] (MWFM Worker 4)     ORDER-RECONNECT:
2019-06-20 10:48:16,774 INFO  [stdout] (MWFM Worker 4)       connection_url: http://localhost:8081/order/reconnect
2019-06-20 10:48:16,774 INFO  [stdout] (MWFM Worker 4)       task: POST
2019-06-20 10:48:16,774 INFO  [stdout] (MWFM Worker 4)     ORDER-CHANGE-PACKAGE:
2019-06-20 10:48:16,774 INFO  [stdout] (MWFM Worker 4)       connection_url: http://localhost:8081/order/change/package
2019-06-20 10:48:16,774 INFO  [stdout] (MWFM Worker 4)       task: POST
2019-06-20 10:48:16,774 INFO  [stdout] (MWFM Worker 4)     ORDER-CHANGE-HOLDER:
2019-06-20 10:48:16,774 INFO  [stdout] (MWFM Worker 4)       connection_url: http://localhost:8081/order/change/holder
2019-06-20 10:48:16,774 INFO  [stdout] (MWFM Worker 4)       task: POST
2019-06-20 10:48:16,774 INFO  [stdout] (MWFM Worker 4)     ORDER-CHANGE-OWNER:
2019-06-20 10:48:16,774 INFO  [stdout] (MWFM Worker 4)       connection_url: http://localhost:8081/order/change/owner
2019-06-20 10:48:16,775 INFO  [stdout] (MWFM Worker 4)       task: POST
2019-06-20 10:48:16,775 INFO  [stdout] (MWFM Worker 4)     ORDER-CHANGE-MY-EXTENTION:
2019-06-20 10:48:16,775 INFO  [stdout] (MWFM Worker 4)       connection_url: http://localhost:8081/order/change/myextention
2019-06-20 10:48:16,775 INFO  [stdout] (MWFM Worker 4)       task: POST
2019-06-20 10:48:16,775 INFO  [stdout] (MWFM Worker 4)     ORDER-MODIFY-MY-EXTENTION:
2019-06-20 10:48:16,775 INFO  [stdout] (MWFM Worker 4)       connection_url: http://localhost:8081/order/modify/myprofile
2019-06-20 10:48:16,775 INFO  [stdout] (MWFM Worker 4)       task: POST
2019-06-20 10:48:16,775 INFO  [stdout] (MWFM Worker 4)     ORDER-SWAP-SERVICE:
2019-06-20 10:48:16,775 INFO  [stdout] (MWFM Worker 4)       connection_url: http://localhost:8081/api/v1/service/order/swapservice
2019-06-20 10:48:16,775 INFO  [stdout] (MWFM Worker 4)       task: POST
2019-06-20 10:48:16,775 INFO  [stdout] (MWFM Worker 4)     ORDER-CHANGE-NUMBER:
2019-06-20 10:48:16,775 INFO  [stdout] (MWFM Worker 4)       connection_url: http://localhost:8081/api/v1/service/order/changenumber
2019-06-20 10:48:16,775 INFO  [stdout] (MWFM Worker 4)       task: POST
2019-06-20 10:48:16,775 INFO  [stdout] (MWFM Worker 4)     IDENTITY-ZONE-INQUIRY:
2019-06-20 10:48:16,775 INFO  [stdout] (MWFM Worker 4)       connection_url: http://localhost:8081/api/v1/service/my/indentityZoneInquiry
2019-06-20 10:48:16,775 INFO  [stdout] (MWFM Worker 4)       task: POST
2019-06-20 10:48:16,775 INFO  [stdout] (MWFM Worker 4)     IDENTITY-ZONE-REQUEST:
2019-06-20 10:48:16,775 INFO  [stdout] (MWFM Worker 4)       connection_url: http://localhost:8081/api/v1/service/my/indentityZoneRequest
2019-06-20 10:48:16,775 INFO  [stdout] (MWFM Worker 4)       task: POST
2019-06-20 10:48:16,775 INFO  [stdout] (MWFM Worker 4)     IDENTITY-ZONE-DETAIL:
2019-06-20 10:48:16,775 INFO  [stdout] (MWFM Worker 4)       connection_url: http://localhost:8081/api/v1/service/my/indentityZoneDetail
2019-06-20 10:48:16,775 INFO  [stdout] (MWFM Worker 4)       task: POST
2019-06-20 10:48:16,775 INFO  [stdout] (MWFM Worker 4)     UPDATE-MY-PROFILE:
2019-06-20 10:48:16,775 INFO  [stdout] (MWFM Worker 4)       connection_url: http://localhost:8081/api/v1/service/my/updateprofile
2019-06-20 10:48:16,775 INFO  [stdout] (MWFM Worker 4)       task: POST
2019-06-20 10:48:16,775 INFO  [stdout] (MWFM Worker 4)     SERVICE-SEARCH-FROM-CA:
2019-06-20 10:48:16,775 INFO  [stdout] (MWFM Worker 4)       connection_url: http://localhost:8081/api/v1/service/search
2019-06-20 10:48:16,775 INFO  [stdout] (MWFM Worker 4)       task: POST
2019-06-20 10:48:16,775 INFO  [stdout] (MWFM Worker 4)     BILLING-SEARCH:
2019-06-20 10:48:16,775 INFO  [stdout] (MWFM Worker 4)       connection_url: http://localhost:8081/api/v1/billing/search
2019-06-20 10:48:16,775 INFO  [stdout] (MWFM Worker 4)       task: POST
2019-06-20 10:48:16,775 INFO  [stdout] (MWFM Worker 4) 
2019-06-20 10:48:16,775 INFO  [stdout] (MWFM Worker 4) inventory:
2019-06-20 10:48:16,775 INFO  [stdout] (MWFM Worker 4)   map:
2019-06-20 10:48:16,775 INFO  [stdout] (MWFM Worker 4)     insert-invmaster: 
2019-06-20 10:48:16,776 INFO  [stdout] (MWFM Worker 4)       connection_url: http://15.119.6.147:8081/create/customer
2019-06-20 10:48:16,776 INFO  [stdout] (MWFM Worker 4)       task: POST
2019-06-20 10:48:16,776 INFO  [stdout] (MWFM Worker 4)     insert-invmasterprofile: 
2019-06-20 10:48:16,776 INFO  [stdout] (MWFM Worker 4)       connection_url: http://15.119.6.147:8081/create/customer
2019-06-20 10:48:16,776 INFO  [stdout] (MWFM Worker 4)       task: POST
2019-06-20 10:48:16,776 INFO  [stdout] (MWFM Worker 4)     search-invmaster-externalid: 
2019-06-20 10:48:16,776 INFO  [stdout] (MWFM Worker 4)       connection_url: http://15.119.6.147:8081/num-inventory/api/invmaster/externalid
2019-06-20 10:48:16,776 INFO  [stdout] (MWFM Worker 4)       task: GET
2019-06-20 10:48:16,776 INFO  [stdout] (MWFM Worker 4)     search-invmaster-secondarycode: 
2019-06-20 10:48:16,776 INFO  [stdout] (MWFM Worker 4)       connection_url: http://15.119.6.147:8081/create/customer
2019-06-20 10:48:16,776 INFO  [stdout] (MWFM Worker 4)       task: GET
2019-06-20 10:48:16,776 INFO  [stdout] (MWFM Worker 4)     update-invmasterprofile: 
2019-06-20 10:48:16,776 INFO  [stdout] (MWFM Worker 4)       connection_url: http://15.119.6.147:8081/num-inventory/api/invmasterprofile/edit
2019-06-20 10:48:16,776 INFO  [stdout] (MWFM Worker 4)       task: PUT
2019-06-20 10:48:16,776 INFO  [stdout] (MWFM Worker 4)     
2019-06-20 10:48:16,776 INFO  [stdout] (MWFM Worker 4) 
2019-06-20 10:48:16,776 INFO  [stdout] (MWFM Worker 4) threesteplock:
2019-06-20 10:48:16,776 INFO  [stdout] (MWFM Worker 4)   map:
2019-06-20 10:48:16,776 INFO  [stdout] (MWFM Worker 4)     checkstatus:
2019-06-20 10:48:16,776 INFO  [stdout] (MWFM Worker 4)       connection_url: http://15.119.6.147:8081/create/customer
2019-06-20 10:48:16,776 INFO  [stdout] (MWFM Worker 4)       task: POST
2019-06-20 10:48:16,776 INFO  [stdout] (MWFM Worker 4) 
2019-06-20 10:48:16,776 INFO  [stdout] (MWFM Worker 4) ocs:
2019-06-20 10:48:16,776 INFO  [stdout] (MWFM Worker 4)   map:
2019-06-20 10:48:16,776 INFO  [stdout] (MWFM Worker 4)     QueryBalance:
2019-06-20 10:48:16,776 INFO  [stdout] (MWFM Worker 4)       connection_url: http://10.100.67.80:8080/services/ArServices
2019-06-20 10:48:16,776 INFO  [stdout] (MWFM Worker 4)       task: POST
2019-06-20 10:48:16,776 INFO  [stdout] (MWFM Worker 4)     QueryFreeUnit:
2019-06-20 10:48:16,776 INFO  [stdout] (MWFM Worker 4)       connection_url: http://10.100.67.80:8080/services/BbServices
2019-06-20 10:48:16,776 INFO  [stdout] (MWFM Worker 4)       task: POST
2019-06-20 10:48:16,776 INFO  [stdout] (MWFM Worker 4)     QuerySubLifeCycle:
2019-06-20 10:48:16,776 INFO  [stdout] (MWFM Worker 4)       connection_url: http://10.100.67.80:8080/services/BcServices
2019-06-20 10:48:16,776 INFO  [stdout] (MWFM Worker 4)       task: POST
2019-06-20 10:48:16,776 INFO  [stdout] (MWFM Worker 4)     QueryCustomerInfo:
2019-06-20 10:48:16,776 INFO  [stdout] (MWFM Worker 4)       connection_url: http://10.100.67.80:8080/services/BcServices
2019-06-20 10:48:16,777 INFO  [stdout] (MWFM Worker 4)       task: POST
2019-06-20 10:48:16,777 INFO  [stdout] (MWFM Worker 4)     QueryConsumptionLimit:
2019-06-20 10:48:16,777 INFO  [stdout] (MWFM Worker 4)       connection_url: http://10.100.67.80:8080/services/BcServices
2019-06-20 10:48:16,777 INFO  [stdout] (MWFM Worker 4)       task: POST
2019-06-20 10:48:16,777 INFO  [stdout] (MWFM Worker 4)     QueryLastXTransaction:
2019-06-20 10:48:16,777 INFO  [stdout] (MWFM Worker 4)       connection_url: http://10.100.67.80:8080/services/BcServices
2019-06-20 10:48:16,777 INFO  [stdout] (MWFM Worker 4)       task: POST
2019-06-20 10:48:16,777 INFO  [stdout] (MWFM Worker 4)     QueryOfferingInstProperty:
2019-06-20 10:48:16,777 INFO  [stdout] (MWFM Worker 4)       connection_url: http://10.100.67.80:8080/services/BcServices
2019-06-20 10:48:16,777 INFO  [stdout] (MWFM Worker 4)       task: POST
2019-06-20 10:48:16,777 INFO  [stdout] (MWFM Worker 4)     QueryGroupListBySubscriber:
2019-06-20 10:48:16,777 INFO  [stdout] (MWFM Worker 4)       connection_url: http://10.100.67.80:8080/services/BcServices
2019-06-20 10:48:16,777 INFO  [stdout] (MWFM Worker 4)       task: POST
2019-06-20 10:48:16,777 INFO  [stdout] (MWFM Worker 4)     QueryGroupMemberList:
2019-06-20 10:48:16,777 INFO  [stdout] (MWFM Worker 4)       connection_url: http://10.100.67.80:8080/services/BcServices
2019-06-20 10:48:16,777 INFO  [stdout] (MWFM Worker 4)       task: POST
2019-06-20 10:48:16,777 INFO  [stdout] (MWFM Worker 4) 
2019-06-20 10:48:16,777 INFO  [stdout] (MWFM Worker 4) 
2019-06-20 10:48:16,777 INFO  [stdout] (MWFM Worker 4) 
2019-06-20 10:48:16,777 INFO  [stdout] (MWFM Worker 4) wom:
2019-06-20 10:48:16,777 INFO  [stdout] (MWFM Worker 4)   map:
2019-06-20 10:48:16,777 INFO  [stdout] (MWFM Worker 4)     New_Order:
2019-06-20 10:48:16,777 INFO  [stdout] (MWFM Worker 4)       connection_url: http://10.100.74.21:8000/cat_wom/services/BcServicesCreateSubscriberPort
2019-06-20 10:48:16,777 INFO  [stdout] (MWFM Worker 4)       task: POST
2019-06-20 10:48:16,777 INFO  [stdout] (MWFM Worker 4)     ChangeSubOffering:
2019-06-20 10:48:16,777 INFO  [stdout] (MWFM Worker 4)       connection_url: http://localhost:8081/mockBcServicsCreateSubscriberBinding
2019-06-20 10:48:16,777 INFO  [stdout] (MWFM Worker 4)       task: POST
2019-06-20 10:48:16,777 INFO  [stdout] (MWFM Worker 4)     BalanceToValid:
2019-06-20 10:48:16,777 INFO  [stdout] (MWFM Worker 4)       connection_url: http://localhost:8081/mockBcServicsCreateSubscriberBinding
2019-06-20 10:48:16,777 INFO  [stdout] (MWFM Worker 4)       task: POST
2019-06-20 10:48:16,777 INFO  [stdout] (MWFM Worker 4)     ChangeSubIdentity:
2019-06-20 10:48:16,777 INFO  [stdout] (MWFM Worker 4)       connection_url: http://localhost:8081/mockBcServicsCreateSubscriberBinding
2019-06-20 10:48:16,777 INFO  [stdout] (MWFM Worker 4)       task: POST
2019-06-20 10:48:16,777 INFO  [stdout] (MWFM Worker 4)     ChangeCreditLimit:
2019-06-20 10:48:16,777 INFO  [stdout] (MWFM Worker 4)       connection_url: http://localhost:8081/mockBcServicsCreateSubscriberBinding
2019-06-20 10:48:16,777 INFO  [stdout] (MWFM Worker 4)       task: POST
2019-06-20 10:48:16,777 INFO  [stdout] (MWFM Worker 4) 
2019-06-20 10:48:16,784 INFO  [stdout] (MWFM Worker 4) Jun 20, 2019 10:48:16 AM [Plug-in standard output]: Key = New_Order, Value = http://10.100.74.21:8000/cat_wom/services/BcServicesCreateSubscriberPort
2019-06-20 10:48:31,076 INFO  [stdout] (default task-58) Jun 20, 2019 10:48:31 AM [Plug-in standard output]: <?xml version="1.0" encoding="UTF-8"?><soapenv:Envelope xmlns:soapenv="http://schemas.xmlsoap.org/soap/envelope/" xmlns:xsd="http://www.w3.org/2001/XMLSchema" xmlns:xsi="http://www.w3.org/2001/XMLSchema-instance"><soapenv:Body><CreateSubscriberExtResultMsg xmlns="http://www.huawei.com/bme/cbsinterface/bcservices"><OrderResult xmlns=""><ns1:OrderId xmlns:ns1="http://www.huawei.com/bme/cbsinterface/cbscommon">MFE20190619000000307</ns1:OrderId><ns2:OrderItemId xmlns:ns2="http://www.huawei.com/bme/cbsinterface/cbscommon">4</ns2:OrderItemId><ns3:ReturnCode xmlns:ns3="http://www.huawei.com/bme/cbsinterface/cbscommon">0</ns3:ReturnCode><ns4:ReturnMessage xmlns:ns4="http://www.huawei.com/bme/cbsinterface/cbscommon">Order In Queue on 2019-06-20 18:59:57</ns4:ReturnMessage></OrderResult></CreateSubscriberExtResultMsg></soapenv:Body></soapenv:Envelope>
