{
	"channel": "WOM",
	"highPriorityOrderType": "Notification Package Status Change",
	"rerunRevisionNumber": "0",
	"orderItem": [
		{
			"orderType": "Notification Package Status Change",
			"orderExecutionType": "Now",
            "orderExecutionDate": "2019-07-15T14:12:00",
            "notiParam": {
                "messageSeq": "19650",
                "workOrderType": "2",
                "orderObjType": "S",
                "orderObjKey": "sk11924885",
                "orderObjCode": "867890655",
                "offeringStatusList": [
                    {
                        "offeringID": "600011",
                        "purchaseSeq": "1",
                        "opType": "1",
                        "statusTime": "20141120085716"
                    },
                    {
                        "offeringID": "600012",
                        "purchaseSeq": "1",
                        "opType": "1",
                        "statusTime": "20141120085716"
                    }
                ]
            }
		}
	],
	"subscriberInfo": {
		"msisdn": "867890655"
	}
}