{
    "orderId": "UI000001",
    "orderType": "newOrder",
    "channel": "UI",
    "runFlag": "", // Optional: Rerun, Edit, blank (default = blank)
    "bypassCheckLock": false, // Optional (default = false)
    "highPriority": false, // Optional (default = false)
    "executionType": "Future date", // Optional - Now, Future date, Back date (default = Now)
    "executionDate": "2019-04-01T00:00", // Optional, Mandatory for Future date
    "originalExecuteDate": "2019-01-01T00:00", // Optional, Mandatory for Back date and Future date

    "orderOptional": {
        "provisioning": true // Optional for skip (false) provisioning to WOM (default = true)
    },

    "service": {
        "MSISDN": "0855555555",
        "serviceType": "Prepaid", // Prepaid, Postpaid, Hybrid
        "preProvisioning": true,  // Optional for Prepaid, default = false (true = MSISDN already preProvisioning)
        "ICCIDs": [
            { // main
                "ICCID": "520000000",
                "IMSI": "52000000"
            },
            { // multi-sim -- optional
                "ICCID": "520000000",
                "IMSI": "52000000"
            }
        ],
        "creditLimit": 10000 // Optional for postpaid/hybrid
    },
    "customer": {
        "CA": "",
        "name": "ddddddd",
        "address": "ddddd",
        "...": "..."
    },
    "billing": {
        "BA": "",
        "billingName": "rrrrr",
        "billingAddress": "xxxx",
        "...": "..."
    },
    "offering": {
        "PO": "510000",   // Optional, blank = do nothing
        "SO": [
            "33333",
            "55555"
        ]
    },
    "topupCards": [
        {
            "serial": "02029383483",
            "pin": "1234"
        }
    ],
    "partner": {
        "photoId": "", // Optional - in case of already upload photo to partner
        "photo": "ASDJJDHSJIIJASDJKJZKXJCKJKASJDKJAKSJDKJIJEIWQEWQ" // Optional - BASE64
    }
}